# LAMMPS data file written by OVITO Basic 3.7.11
1966 atoms
1 atom types
0.0 39.57150679 xlo xhi
0.0 38.07770017 ylo yhi
0.0 40.4361248 zlo zhi

Masses

1 63.550  # Cu

Atoms  

1 1 0 0 0
2 1 2.19842 1.26926 0
3 1 0 2.53851 0
4 1 2.19842 3.80777 0
271 1 1.46561 2.31199e-16 2.07269
272 1 3.66403 1.26926 2.07269
273 1 1.46561 2.53851 2.07269
274 1 3.66403 3.80777 2.07269
31 1 4.39683 0 0
33 1 4.39683 2.53851 0
32 1 6.59525 1.26926 0
34 1 6.59525 3.80777 0
301 1 5.86245 2.31199e-16 2.07269
302 1 8.06086 1.26926 2.07269
303 1 5.86245 2.53851 2.07269
304 1 8.06086 3.80777 2.07269
61 1 8.79367 0 0
62 1 10.9921 1.26926 0
63 1 8.79367 2.53851 0
64 1 10.9921 3.80777 0
331 1 10.2593 2.31199e-16 2.07269
332 1 12.4577 1.26926 2.07269
333 1 10.2593 2.53851 2.07269
334 1 12.4577 3.80777 2.07269
91 1 13.1905 0 0
93 1 13.1905 2.53851 0
5 1 0 5.07703 0
6 1 2.19842 6.34628 0
7 1 0 7.61554 0
275 1 1.46561 5.07703 2.07269
276 1 3.66403 6.34628 2.07269
277 1 1.46561 7.61554 2.07269
35 1 4.39683 5.07703 0
37 1 4.39683 7.61554 0
36 1 6.59525 6.34628 0
305 1 5.86245 5.07703 2.07269
306 1 8.06086 6.34628 2.07269
307 1 5.86245 7.61554 2.07269
576 1 4.85287 6.38409 4.36152
65 1 8.79367 5.07703 0
66 1 10.9921 6.34628 0
67 1 8.79367 7.61554 0
335 1 10.2593 5.07703 2.07269
336 1 12.4577 6.34628 2.07269
337 1 10.2593 7.61554 2.07269
95 1 13.1905 5.07703 0
97 1 13.1905 7.61554 0
8 1 2.19842 8.8848 0
9 1 0 10.1541 0
10 1 2.19842 11.4233 0
278 1 3.66403 8.8848 2.07269
279 1 1.46561 10.1541 2.07269
280 1 3.66403 11.4233 2.07269
39 1 4.39683 10.1541 0
38 1 6.59525 8.8848 0
40 1 6.59525 11.4233 0
308 1 8.06086 8.8848 2.07269
309 1 5.86245 10.1541 2.07269
310 1 8.06086 11.4233 2.07269
68 1 10.9921 8.8848 0
69 1 8.79367 10.1541 0
70 1 10.9921 11.4233 0
338 1 12.4577 8.8848 2.07269
339 1 10.2593 10.1541 2.07269
340 1 12.4577 11.4233 2.07269
99 1 13.1905 10.1541 0
610 1 9.42336 11.3766 4.20821
11 1 0 12.6926 0
281 1 1.46561 12.6926 2.07269
41 1 4.39683 12.6926 0
12 1 2.19842 13.9618 0
13 1 0 15.2311 0
14 1 2.19842 16.5003 0
282 1 3.66403 13.9618 2.07269
283 1 1.46561 15.2311 2.07269
284 1 3.66403 16.5003 2.07269
43 1 4.39683 15.2311 0
311 1 5.86245 12.6926 2.07269
42 1 6.59525 13.9618 0
44 1 6.59525 16.5003 0
312 1 8.06086 13.9618 2.07269
313 1 5.86245 15.2311 2.07269
314 1 8.06086 16.5003 2.07269
583 1 7.23949 15.272 4.08434
71 1 8.79367 12.6926 0
341 1 10.2593 12.6926 2.07269
72 1 10.9921 13.9618 0
73 1 8.79367 15.2311 0
74 1 10.9921 16.5003 0
342 1 12.4577 13.9618 2.07269
343 1 10.2593 15.2311 2.07269
344 1 12.4577 16.5003 2.07269
101 1 13.1905 12.6926 0
103 1 13.1905 15.2311 0
15 1 0 17.7696 0
16 1 2.19842 19.0389 0
17 1 0 20.3081 0
285 1 1.46561 17.7696 2.07269
286 1 3.66403 19.0389 2.07269
287 1 1.46561 20.3081 2.07269
45 1 4.39683 17.7696 0
47 1 4.39683 20.3081 0
46 1 6.59525 19.0389 0
315 1 5.86245 17.7696 2.07269
316 1 8.06086 19.0389 2.07269
317 1 5.86245 20.3081 2.07269
75 1 8.79367 17.7696 0
76 1 10.9921 19.0389 0
77 1 8.79367 20.3081 0
345 1 10.2593 17.7696 2.07269
346 1 12.4577 19.0389 2.07269
347 1 10.2593 20.3081 2.07269
105 1 13.1905 17.7696 0
107 1 13.1905 20.3081 0
18 1 2.19842 21.5774 0
19 1 0 22.8466 0
20 1 2.19842 24.1159 0
21 1 0 25.3851 0
288 1 3.66403 21.5774 2.07269
289 1 1.46561 22.8466 2.07269
290 1 3.66403 24.1159 2.07269
291 1 1.46561 25.3851 2.07269
49 1 4.39683 22.8466 0
51 1 4.39683 25.3851 0
560 1 0.890215 24.0905 4.22192
48 1 6.59525 21.5774 0
50 1 6.59525 24.1159 0
318 1 8.06086 21.5774 2.07269
319 1 5.86245 22.8466 2.07269
320 1 8.06086 24.1159 2.07269
321 1 5.86245 25.3851 2.07269
78 1 10.9921 21.5774 0
79 1 8.79367 22.8466 0
80 1 10.9921 24.1159 0
81 1 8.79367 25.3851 0
348 1 12.4577 21.5774 2.07269
349 1 10.2593 22.8466 2.07269
350 1 12.4577 24.1159 2.07269
351 1 10.2593 25.3851 2.07269
109 1 13.1905 22.8466 0
111 1 13.1905 25.3851 0
22 1 2.19842 26.6544 0
23 1 0 27.9236 0
24 1 2.19842 29.1929 0
292 1 3.66403 26.6544 2.07269
293 1 1.46561 27.9236 2.07269
294 1 3.66403 29.1929 2.07269
53 1 4.39683 27.9236 0
52 1 6.59525 26.6544 0
54 1 6.59525 29.1929 0
322 1 8.06086 26.6544 2.07269
323 1 5.86245 27.9236 2.07269
324 1 8.06086 29.1929 2.07269
594 1 4.97989 29.1522 3.97323
82 1 10.9921 26.6544 0
83 1 8.79367 27.9236 0
84 1 10.9921 29.1929 0
352 1 12.4577 26.6544 2.07269
353 1 10.2593 27.9236 2.07269
354 1 12.4577 29.1929 2.07269
113 1 13.1905 27.9236 0
25 1 0 30.4622 0
26 1 2.19842 31.7314 0
27 1 0 33.0007 0
295 1 1.46561 30.4622 2.07269
296 1 3.66403 31.7314 2.07269
297 1 1.46561 33.0007 2.07269
55 1 4.39683 30.4622 0
57 1 4.39683 33.0007 0
56 1 6.59525 31.7314 0
325 1 5.86245 30.4622 2.07269
326 1 8.06086 31.7314 2.07269
327 1 5.86245 33.0007 2.07269
85 1 8.79367 30.4622 0
86 1 10.9921 31.7314 0
87 1 8.79367 33.0007 0
355 1 10.2593 30.4622 2.07269
356 1 12.4577 31.7314 2.07269
357 1 10.2593 33.0007 2.07269
115 1 13.1905 30.4622 0
117 1 13.1905 33.0007 0
625 1 11.4892 30.5544 4.08258
28 1 2.19842 34.2699 0
29 1 0 35.5392 0
30 1 2.19842 36.8084 0
298 1 3.66403 34.2699 2.07269
299 1 1.46561 35.5392 2.07269
300 1 3.66403 36.8084 2.07269
59 1 4.39683 35.5392 0
58 1 6.59525 34.2699 0
60 1 6.59525 36.8084 0
328 1 8.06086 34.2699 2.07269
329 1 5.86245 35.5392 2.07269
330 1 8.06086 36.8084 2.07269
88 1 10.9921 34.2699 0
89 1 8.79367 35.5392 0
90 1 10.9921 36.8084 0
358 1 12.4577 34.2699 2.07269
359 1 10.2593 35.5392 2.07269
360 1 12.4577 36.8084 2.07269
119 1 13.1905 35.5392 0
543 1 2.93094 2.74409 4.27663
544 1 0.771897 3.75806 4.13565
542 1 0.771155 1.52939 4.37975
812 1 2.40496 1.23295 6.35485
814 1 2.14232 3.77231 6.61514
843 1 4.51929 2.56449 6.51097
841 1 4.47761 -0.150512 6.2945
573 1 7.41536 2.5198 4.49558
572 1 5.27963 1.28228 4.23429
574 1 5.22102 3.78592 4.14978
842 1 6.42347 1.25734 6.53458
844 1 6.65674 3.79073 6.52441
571 1 7.39228 38.1538 4.50675
873 1 8.91355 2.84404 6.54471
602 1 9.53686 1.20176 4.36185
603 1 11.664 2.72616 4.37106
604 1 9.45559 3.81921 4.16623
872 1 11.1074 1.1576 6.32657
874 1 11.0898 3.98068 6.35478
601 1 11.8429 -0.140362 4.17204
903 1 13.2339 2.68916 6.58676
545 1 2.84143 5.0682 4.13693
546 1 0.634758 6.31481 4.3024
547 1 2.67011 7.60136 4.30929
816 1 2.16533 6.33553 6.5472
847 1 4.30505 7.38622 6.55482
845 1 4.39231 4.94611 6.46702
575 1 7.48608 5.06675 4.42887
577 1 7.26088 7.39934 4.24449
846 1 6.38008 6.33136 6.75099
875 1 8.84498 5.21921 6.48233
877 1 8.86546 7.59061 6.61241
606 1 9.47121 6.40964 4.1391
605 1 11.5747 5.25028 4.11175
607 1 11.7772 7.63688 4.38453
876 1 11.0668 6.23836 6.34483
548 1 0.583025 8.69914 4.18889
549 1 2.95241 10.0854 4.31504
550 1 0.65869 11.2941 4.0353
818 1 2.0473 8.92061 6.48754
820 1 2.28486 11.4004 6.34091
849 1 4.64242 9.87994 6.2514
551 1 2.83118 12.6309 4.36126
1795 1 9.02725 35.6678 12.8235
578 1 5.18153 8.86054 4.04396
579 1 7.29674 10.0698 4.15158
580 1 5.07602 11.4575 4.10163
848 1 6.64531 8.85198 6.24926
850 1 6.41438 11.471 6.553
879 1 8.67483 10.2658 6.33565
609 1 11.6359 10.0793 4.21321
608 1 9.58927 8.77729 4.36207
878 1 11.0055 8.79232 6.49416
880 1 10.974 11.375 6.37176
553 1 2.88589 15.3282 4.15447
554 1 0.729605 16.5149 4.20433
552 1 0.662023 13.9334 4.20992
822 1 2.17864 13.8414 6.38136
824 1 2.26959 16.4208 6.46607
1828 1 11.2145 37.0931 12.7859
881 1 8.62281 12.7009 6.54895
853 1 4.40456 15.0991 6.385
851 1 4.29322 12.6289 6.49227
581 1 7.35866 12.7489 4.44336
582 1 4.9543 14.0114 4.13869
584 1 5.0653 16.6977 4.10608
852 1 6.38247 13.9483 6.29457
854 1 6.67559 16.2835 6.32363
883 1 8.80665 15.0932 6.29661
611 1 11.6441 12.5821 4.32969
614 1 9.58922 16.6237 4.24642
612 1 9.37036 13.8241 4.19639
613 1 11.5465 14.8716 4.12142
882 1 10.8712 13.8343 6.47701
884 1 10.9482 16.4931 6.38191
1935 1 11.2569 34.6962 13.0149
827 1 -0.096562 20.3511 6.52399
556 1 0.877836 19.1102 4.4009
557 1 3.0324 20.3287 4.43682
555 1 2.98742 17.8154 4.31115
826 1 2.13574 18.9782 6.36101
825 1 -0.196248 17.8176 6.38113
855 1 4.50954 17.655 6.32634
857 1 4.33985 20.3776 6.52316
587 1 7.51928 20.2986 4.3195
585 1 7.42615 17.9254 4.12848
586 1 5.04086 19.0384 4.25655
856 1 6.51049 18.9382 6.55043
885 1 8.66458 17.7759 6.1766
887 1 8.74072 20.1749 6.35474
616 1 9.58829 19.1064 4.20124
617 1 11.8422 20.385 4.13857
615 1 11.8023 17.7301 4.26924
886 1 11.0292 19.1166 6.69216
558 1 0.82549 21.6136 4.26194
559 1 3.10946 22.8078 4.16461
828 1 2.22448 21.7972 6.53336
830 1 2.20073 24.1669 6.29712
561 1 2.90407 25.3479 4.13964
829 1 0.00175608 22.9283 6.51364
859 1 4.50658 22.6789 6.29722
588 1 5.17628 21.3742 4.10906
590 1 5.292 23.9215 4.24378
589 1 7.44215 22.7041 4.2865
858 1 6.80719 21.6032 6.40477
860 1 6.74192 24.1757 6.16489
861 1 4.44592 25.4358 6.20653
889 1 8.94719 22.7065 6.36669
620 1 9.67824 24.06 4.32305
619 1 11.8327 23.0705 4.1346
618 1 9.75056 21.7296 4.3582
888 1 11.1237 21.4902 6.64225
890 1 10.9461 23.9748 6.48943
891 1 8.77989 25.3592 6.41368
621 1 11.6167 25.502 4.20526
919 1 13.2305 22.8828 6.41367
562 1 0.629677 26.6095 4.22664
564 1 0.771591 29.1295 4.24638
563 1 2.80216 27.8104 4.38507
832 1 2.07306 26.5383 6.20041
834 1 2.12958 29.2145 6.21061
1711 1 4.60222 35.7104 12.6844
591 1 7.24942 25.3108 4.10526
863 1 4.41604 27.9369 6.46469
592 1 5.07695 26.674 4.22213
593 1 7.23882 28.0035 4.25236
862 1 6.78117 26.6798 6.28458
864 1 6.61552 29.1819 6.43632
893 1 8.89256 27.9931 6.54859
622 1 9.54888 26.7304 4.28241
624 1 9.56488 29.1104 4.25808
623 1 11.6063 28.0249 4.06242
892 1 10.8448 26.7711 6.50902
894 1 11.0187 29.4057 6.38431
923 1 12.9441 27.8573 6.14303
566 1 0.765454 31.6855 4.18659
567 1 2.99539 33.0361 4.23968
565 1 2.94459 30.3743 4.26148
836 1 2.22022 31.7143 6.40383
865 1 4.33305 30.4289 6.43815
867 1 4.45228 33.0248 6.26941
597 1 7.27369 33.1618 4.25592
595 1 7.1129 30.2782 4.45884
596 1 5.08416 31.6654 4.4795
866 1 6.7404 31.5643 6.41361
895 1 8.82318 30.4524 6.24791
897 1 8.71603 32.9517 6.54799
626 1 9.38595 31.7087 4.15291
627 1 11.856 32.9947 4.16378
896 1 10.7971 31.8801 6.30776
925 1 13.2254 30.5172 6.28929
541 1 2.81545 38.3111 4.25265
570 1 0.737015 36.9214 4.1605
569 1 2.87712 35.6204 4.3081
568 1 0.656678 34.2031 4.16296
838 1 2.00348 34.1428 6.22386
840 1 2.33559 36.6592 6.55865
869 1 4.4111 35.5527 6.21731
600 1 5.32152 36.7297 4.28388
598 1 5.08413 34.1603 4.06333
599 1 7.41455 35.5605 4.45886
868 1 6.55138 34.2614 6.32496
870 1 6.56433 36.8899 6.60545
899 1 8.63864 35.5633 6.37993
871 1 8.77299 38.0737 6.55323
1783 1 7.02955 34.2896 13.2991
630 1 9.49604 36.866 4.06448
629 1 11.6852 35.3805 4.1432
628 1 9.67174 34.0911 4.33096
898 1 10.6385 34.3866 6.5145
900 1 10.7896 36.7569 5.95208
1083 1 1.63677 2.50323 8.67334
1082 1 3.72332 1.31643 8.70587
1352 1 0.848231 1.25366 11.0073
1353 1 3.10731 2.42986 10.7262
1354 1 0.665598 3.88195 10.8814
1084 1 3.74133 3.91253 8.59587
1081 1 1.52929 38.1326 8.89773
1112 1 8.01537 1.1875 8.6499
1113 1 5.80276 2.47327 8.58948
1114 1 8.08716 3.75719 8.82584
1382 1 5.20345 1.25318 10.8703
1383 1 7.28383 2.48861 11.0708
1384 1 5.08581 3.85602 10.8079
1381 1 7.51465 38.2551 10.8278
1111 1 5.95381 -0.0684948 8.73197
1143 1 10.4485 2.65079 8.58197
1144 1 12.4343 4.07838 8.69771
1142 1 12.471 1.21202 8.41494
1412 1 9.50001 1.54491 10.5561
1413 1 11.7873 2.85108 10.6952
1414 1 9.68303 3.93223 10.9971
1411 1 11.506 38.3906 10.8009
1085 1 1.46586 5.03588 8.62173
1086 1 3.58661 6.35757 8.52903
1087 1 1.41769 7.66953 8.66634
1355 1 2.74779 5.17681 10.7963
1356 1 0.719705 6.41926 11.0468
1357 1 2.88223 7.50165 11.4577
1116 1 8.02314 6.35925 8.97427
1117 1 5.91783 7.59932 8.71093
1115 1 6.12873 5.04554 8.68438
1385 1 7.26912 5.16608 10.9845
1386 1 5.0538 6.36686 10.9708
1387 1 7.53252 7.52735 11.2273
1147 1 10.1538 7.64318 8.53611
1145 1 10.2485 5.14206 8.45456
1146 1 12.5872 6.5818 8.59635
1416 1 9.71977 6.45404 10.7778
1800 1 11.8056 5.24834 10.8721
1832 1 11.7504 7.78201 10.658
1358 1 0.754222 8.82545 10.8914
1089 1 1.62515 10.0606 8.58636
1090 1 3.62249 11.3089 8.60196
1088 1 3.75176 8.63456 9.21964
1359 1 0.695851 11.3817 10.6262
1672 1 2.8403 10.1771 10.8731
1360 1 2.82472 12.6774 10.6221
1118 1 7.92846 8.90372 8.50571
1120 1 7.88149 11.3809 8.56167
1119 1 5.74649 10.0057 8.69311
1390 1 5.1092 11.4157 10.6838
1389 1 7.34101 9.98053 10.8515
1388 1 5.19332 8.83911 11.2198
1121 1 5.68012 12.7658 8.66311
1418 1 9.43487 8.73934 10.6957
1717 1 9.38689 11.2379 10.3999
1148 1 12.3973 8.97081 8.33463
1150 1 12.3075 11.4587 8.59198
1149 1 10.1555 10.0864 8.40651
1419 1 11.4969 10.2385 10.7994
1151 1 10.2692 12.6851 8.35182
1421 1 11.654 12.6617 10.5323
1091 1 1.47604 12.5654 8.42085
1094 1 3.48507 16.4057 8.67362
1092 1 3.67916 13.9517 8.58377
1093 1 1.37775 15.1202 8.55244
1362 1 0.556742 13.8648 10.7226
1363 1 2.91272 15.2988 10.7259
1364 1 0.701905 16.3344 10.5907
1391 1 7.34058 12.5432 10.8729
1124 1 7.81813 16.3758 8.35054
1122 1 7.93972 13.957 8.47468
1123 1 5.90683 15.0414 8.77358
1392 1 5.03751 13.8457 10.708
1393 1 7.26365 15.1072 10.7356
1394 1 5.02576 16.4461 10.7366
1154 1 12.5311 16.6777 8.35396
1152 1 12.4243 13.9705 8.60487
1153 1 10.4185 15.4789 8.78882
1422 1 9.39891 13.6522 10.809
1423 1 11.5413 15.1199 10.8552
1424 1 9.3077 16.2151 10.9347
1095 1 1.24913 17.7573 8.62976
1096 1 3.63288 19.0269 8.61651
1097 1 1.34109 20.1987 8.75303
1365 1 3.02555 17.7178 10.672
1366 1 0.692499 18.8566 10.7656
1367 1 2.94067 20.1137 10.9396
1126 1 7.96268 19.2143 8.56585
1127 1 5.82915 20.3061 8.54786
1125 1 5.83946 17.8435 8.51407
1395 1 7.41067 17.51 10.7066
1396 1 5.32111 19.002 10.434
1397 1 7.30101 20.3723 10.6995
1155 1 9.93032 17.8024 8.4233
1156 1 12.6849 19.0419 8.61848
1157 1 10.0097 20.2725 8.47123
1425 1 11.603 17.704 10.6068
1426 1 9.36341 18.7555 10.6494
1427 1 11.5088 20.0173 10.5659
1100 1 3.55797 23.8491 8.34237
1368 1 0.886432 21.4655 10.7255
1099 1 1.3295 22.765 8.56487
1098 1 3.58551 21.4885 8.66917
1369 1 2.97893 22.7216 10.8904
1370 1 0.761094 23.872 10.6909
1101 1 1.3609 25.3383 8.40152
1371 1 3.03001 25.3499 10.5148
1129 1 5.84215 22.6371 8.56949
1398 1 5.03024 21.4595 10.954
1128 1 8.15865 21.7076 8.45552
1130 1 8.11046 24.1439 8.34982
1399 1 7.2599 22.7957 10.7658
1400 1 5.02578 24.0592 10.5676
1131 1 5.77789 25.4228 8.63703
1401 1 7.39615 25.5362 10.665
1428 1 9.67775 21.5687 11.0207
1158 1 12.6027 21.4872 8.66766
1160 1 12.4892 24.2599 8.644
1159 1 10.2953 22.7894 8.72193
1429 1 11.7358 22.8365 10.9458
1430 1 9.41963 24.1635 10.5809
1431 1 11.7271 25.5187 10.5836
1161 1 10.1763 25.441 8.52112
1102 1 3.54238 26.6274 8.38444
1103 1 1.31744 27.7316 8.31851
1104 1 3.59685 29.1126 8.49133
1372 1 0.819706 26.4957 10.5836
1373 1 3.03439 27.8139 10.597
1775 1 0.874032 29.0085 10.8173
1132 1 7.84253 26.8929 8.61145
1133 1 5.75612 27.9882 8.5311
1402 1 5.09306 26.6362 10.794
1404 1 5.29232 29.2765 10.7745
1134 1 8.06797 29.3052 8.93804
1403 1 7.41189 27.9523 10.9713
1162 1 12.3558 26.7129 8.49016
1163 1 10.2391 28.2238 8.62769
1432 1 9.49414 26.9059 10.8272
1433 1 11.6996 27.8291 10.5626
1164 1 12.4267 29.372 8.51215
1818 1 9.62121 29.3329 10.8306
1107 1 1.09405 32.9829 8.82782
1106 1 3.5722 31.6899 8.37548
1105 1 1.46399 30.3459 8.84127
1375 1 2.99023 30.2063 10.7206
1377 1 2.84983 33.0111 10.602
1376 1 0.777545 31.7071 10.7752
1135 1 5.80047 30.5929 8.50301
1787 1 5.14341 31.6935 10.7009
1136 1 8.13701 31.8629 8.61441
1137 1 5.83274 32.9355 8.5657
1405 1 7.50967 30.7121 11.0099
1438 1 7.38217 33.2778 10.8931
1167 1 10.1092 33.2423 8.55755
1894 1 11.7481 33.1055 10.8749
1165 1 10.2195 30.5305 8.72178
1166 1 12.4239 31.7034 8.29325
1436 1 9.66852 31.9425 10.8393
1435 1 11.8463 30.491 10.9211
1351 1 3.38061 -0.328781 10.9532
1109 1 1.46521 35.3764 8.1648
1378 1 0.772016 34.3459 10.7538
1379 1 3.0679 35.4024 10.8058
1108 1 3.48275 34.2338 8.43102
1380 1 0.975206 36.849 10.947
1110 1 3.60828 36.8876 8.58012
1408 1 5.17449 34.2414 10.8921
1138 1 7.95442 34.3579 8.46845
1409 1 7.51322 35.5227 11.0102
1139 1 5.57335 35.3583 8.61324
1140 1 7.95938 36.6875 8.90017
1410 1 5.57608 36.7433 10.7143
1141 1 10.0497 -0.0328492 8.4327
1835 1 9.80014 34.4786 10.7484
1170 1 12.4413 36.8395 8.07705
1439 1 11.6949 35.8746 10.6569
1169 1 10.3468 35.6678 8.41411
1168 1 12.2903 34.2017 8.69443
1440 1 9.57717 36.9621 10.68
1670 1 2.31287 1.29576 13.0222
1668 1 2.28838 3.80253 12.8921
1780 1 6.93263 36.8661 13.0948
1676 1 4.5113 2.52783 12.8461
1768 1 9.08092 0.194894 12.8402
1731 1 6.78422 1.37095 13.2543
1721 1 6.64091 3.72293 12.9418
1760 1 8.86429 2.48493 13.3402
1772 1 11.1473 1.48739 13.1523
1861 1 11.0011 3.80037 13.2979
1965 1 5.95011 35.2651 15.0241
1667 1 2.18415 6.48359 13.2976
1694 1 4.3176 5.0094 13.171
1708 1 4.45466 0.0796073 13.1023
1727 1 4.60982 7.65665 13.2846
1791 1 6.66662 6.23188 13.5693
1854 1 8.89875 7.48785 13.5091
1773 1 8.77992 4.86056 13.2115
1904 1 11.1071 6.36993 12.9357
1415 1 13.2856 5.08276 12.7498
1825 1 2.01175 11.4061 12.9626
1682 1 2.10639 8.92229 13.309
1806 1 -0.0429379 10.0878 13.2679
1732 1 4.38523 10.0847 13.0311
1871 1 6.63055 8.78698 13.3306
1816 1 6.38307 11.3538 12.944
1361 1 4.31645 12.5688 12.8083
1831 1 8.75837 10.1939 12.8773
1830 1 10.9438 8.85003 12.954
1900 1 10.8271 11.4664 12.8494
1774 1 12.9056 12.813 12.7402
1646 1 2.07699 13.9275 13.014
1726 1 1.85975 16.3951 12.6922
1653 1 -0.293117 15.0655 12.8968
1747 1 4.24247 15.1964 12.9142
1801 1 6.32349 13.9666 13.0208
1648 1 6.30258 16.3774 12.8895
1420 1 8.83675 12.5889 12.9275
1728 1 8.50876 15.0839 12.89
1759 1 10.8486 14.1048 13.1368
1729 1 10.8606 16.6064 12.8907
1716 1 12.8505 15.3722 12.8874
1657 1 1.94173 18.8127 12.8597
1709 1 3.89275 20.3455 12.9924
1642 1 1.86198 20.5389 14.3071
1715 1 4.47169 18.0069 12.391
1956 1 5.46616 20.1343 14.7806
1640 1 6.7077 18.8894 12.8997
1649 1 8.90964 20.3056 13.0353
1688 1 8.77374 17.7635 12.7661
1696 1 10.9926 18.8673 12.7734
1757 1 2.33563 34.2007 12.8453
1934 1 3.8461 21.6307 15.3403
1930 1 1.49021 22.7795 15.1326
1751 1 2.12828 24.0205 12.9138
1908 1 3.9403 24.0379 15.1797
1872 1 1.43224 25.307 15.0533
1803 1 4.53072 25.2047 12.9654
1630 1 4.17267 22.7876 13.1717
1639 1 6.8424 21.2838 13.1251
1679 1 6.47228 23.9865 12.8581
1936 1 5.99629 22.8562 14.934
1954 1 7.99941 24.1974 15.1587
1740 1 8.95941 22.95 13.2403
1650 1 11.144 21.4299 12.9277
1627 1 10.9051 24.1509 12.8977
1802 1 8.65416 25.5628 13.0662
1730 1 13.1089 25.5253 12.6139
1837 1 1.67671 27.6185 14.9484
1880 1 3.72662 26.3642 14.85
1771 1 2.34372 26.518 12.9537
1777 1 2.30776 29.1843 12.9931
1839 1 3.47821 28.7923 15.6719
1924 1 3.77119 34.1591 14.9315
1794 1 4.2632 27.8242 13.1057
1931 1 5.97838 25.4345 14.9594
1812 1 6.66808 29.0833 13.0456
1866 1 6.62068 26.6506 12.8995
1932 1 5.66659 27.8874 15.3081
1937 1 7.97786 27.2001 15.0371
1865 1 8.86901 27.9901 13.1241
1637 1 10.9821 26.5591 12.9892
1819 1 11.1305 29.1646 12.8278
1779 1 2.3816 36.5554 13.0012
1761 1 0.0496423 30.1615 12.8687
1876 1 3.57875 31.75 15.1567
1736 1 2.35235 31.5191 12.9592
1855 1 1.5056 30.2092 14.9427
1878 1 1.41757 32.6852 14.9348
1406 1 4.68486 32.9922 12.8316
1762 1 4.70489 30.5859 12.8401
1407 1 7.01613 31.7131 13.3132
1961 1 5.86947 32.8076 15.1788
1893 1 5.58318 30.1505 14.9433
1821 1 13.4345 30.6825 12.6874
1434 1 9.08156 30.522 12.882
1437 1 11.1886 31.8014 12.854
1918 1 9.18995 33.0211 12.9554
1964 1 1.43658 35.3279 15.0906
905 1 13.2333 5.11573 6.35651
907 1 13.4752 7.62724 6.39324
909 1 13.3415 10.1386 6.38404
917 1 13.372 20.4397 6.14975
927 1 12.9435 33.3087 6.43095
1891 1 12.8884 10.32 12.627
1456 1 13.2908 17.9342 13.2865
811 1 0.240877 37.9861 6.39366
817 1 -0.289784 7.69934 6.66577
831 1 -0.0800923 25.3502 6.23256
839 1 -0.0359065 35.4234 6.3171
1669 1 -0.196625 37.9497 13.0937
1824 1 -0.129953 17.4945 12.8304
92 1 15.3889 1.26926 0
94 1 15.3889 3.80777 0
361 1 14.6561 2.31199e-16 2.07269
362 1 16.8545 1.26926 2.07269
363 1 14.6561 2.53851 2.07269
364 1 16.8545 3.80777 2.07269
121 1 17.5873 0 0
123 1 17.5873 2.53851 0
634 1 13.9708 3.74499 4.32566
122 1 19.7858 1.26926 0
124 1 19.7858 3.80777 0
391 1 19.0529 2.31199e-16 2.07269
392 1 21.2514 1.26926 2.07269
393 1 19.0529 2.53851 2.07269
394 1 21.2514 3.80777 2.07269
151 1 21.9842 0 0
152 1 24.1826 1.26926 0
153 1 21.9842 2.53851 0
154 1 24.1826 3.80777 0
421 1 23.4498 2.31199e-16 2.07269
422 1 25.6482 1.26926 2.07269
423 1 23.4498 2.53851 2.07269
424 1 25.6482 3.80777 2.07269
181 1 26.381 0 0
183 1 26.381 2.53851 0
96 1 15.3889 6.34628 0
365 1 14.6561 5.07703 2.07269
366 1 16.8545 6.34628 2.07269
367 1 14.6561 7.61554 2.07269
125 1 17.5873 5.07703 0
127 1 17.5873 7.61554 0
126 1 19.7858 6.34628 0
395 1 19.0529 5.07703 2.07269
396 1 21.2514 6.34628 2.07269
397 1 19.0529 7.61554 2.07269
155 1 21.9842 5.07703 0
156 1 24.1826 6.34628 0
157 1 21.9842 7.61554 0
425 1 23.4498 5.07703 2.07269
426 1 25.6482 6.34628 2.07269
427 1 23.4498 7.61554 2.07269
185 1 26.381 5.07703 0
187 1 26.381 7.61554 0
695 1 24.8887 5.09292 4.30058
98 1 15.3889 8.8848 0
100 1 15.3889 11.4233 0
368 1 16.8545 8.8848 2.07269
369 1 14.6561 10.1541 2.07269
370 1 16.8545 11.4233 2.07269
129 1 17.5873 10.1541 0
128 1 19.7858 8.8848 0
130 1 19.7858 11.4233 0
398 1 21.2514 8.8848 2.07269
399 1 19.0529 10.1541 2.07269
400 1 21.2514 11.4233 2.07269
158 1 24.1826 8.8848 0
159 1 21.9842 10.1541 0
160 1 24.1826 11.4233 0
428 1 25.6482 8.8848 2.07269
429 1 23.4498 10.1541 2.07269
430 1 25.6482 11.4233 2.07269
189 1 26.381 10.1541 0
371 1 14.6561 12.6926 2.07269
131 1 17.5873 12.6926 0
102 1 15.3889 13.9618 0
104 1 15.3889 16.5003 0
372 1 16.8545 13.9618 2.07269
373 1 14.6561 15.2311 2.07269
374 1 16.8545 16.5003 2.07269
133 1 17.5873 15.2311 0
643 1 16.2075 15.3141 4.27596
401 1 19.0529 12.6926 2.07269
132 1 19.7858 13.9618 0
134 1 19.7858 16.5003 0
402 1 21.2514 13.9618 2.07269
403 1 19.0529 15.2311 2.07269
404 1 21.2514 16.5003 2.07269
161 1 21.9842 12.6926 0
431 1 23.4498 12.6926 2.07269
162 1 24.1826 13.9618 0
163 1 21.9842 15.2311 0
164 1 24.1826 16.5003 0
432 1 25.6482 13.9618 2.07269
433 1 23.4498 15.2311 2.07269
434 1 25.6482 16.5003 2.07269
191 1 26.381 12.6926 0
193 1 26.381 15.2311 0
106 1 15.3889 19.0389 0
375 1 14.6561 17.7696 2.07269
376 1 16.8545 19.0389 2.07269
377 1 14.6561 20.3081 2.07269
135 1 17.5873 17.7696 0
137 1 17.5873 20.3081 0
646 1 14.1529 19.0166 4.06332
136 1 19.7858 19.0389 0
405 1 19.0529 17.7696 2.07269
406 1 21.2514 19.0389 2.07269
407 1 19.0529 20.3081 2.07269
677 1 20.6343 20.3021 4.16742
165 1 21.9842 17.7696 0
166 1 24.1826 19.0389 0
167 1 21.9842 20.3081 0
435 1 23.4498 17.7696 2.07269
436 1 25.6482 19.0389 2.07269
437 1 23.4498 20.3081 2.07269
195 1 26.381 17.7696 0
197 1 26.381 20.3081 0
108 1 15.3889 21.5774 0
110 1 15.3889 24.1159 0
378 1 16.8545 21.5774 2.07269
379 1 14.6561 22.8466 2.07269
380 1 16.8545 24.1159 2.07269
381 1 14.6561 25.3851 2.07269
139 1 17.5873 22.8466 0
141 1 17.5873 25.3851 0
138 1 19.7858 21.5774 0
140 1 19.7858 24.1159 0
408 1 21.2514 21.5774 2.07269
409 1 19.0529 22.8466 2.07269
410 1 21.2514 24.1159 2.07269
411 1 19.0529 25.3851 2.07269
168 1 24.1826 21.5774 0
169 1 21.9842 22.8466 0
170 1 24.1826 24.1159 0
171 1 21.9842 25.3851 0
438 1 25.6482 21.5774 2.07269
439 1 23.4498 22.8466 2.07269
440 1 25.6482 24.1159 2.07269
441 1 23.4498 25.3851 2.07269
199 1 26.381 22.8466 0
201 1 26.381 25.3851 0
112 1 15.3889 26.6544 0
114 1 15.3889 29.1929 0
382 1 16.8545 26.6544 2.07269
383 1 14.6561 27.9236 2.07269
384 1 16.8545 29.1929 2.07269
143 1 17.5873 27.9236 0
142 1 19.7858 26.6544 0
144 1 19.7858 29.1929 0
412 1 21.2514 26.6544 2.07269
413 1 19.0529 27.9236 2.07269
414 1 21.2514 29.1929 2.07269
172 1 24.1826 26.6544 0
173 1 21.9842 27.9236 0
174 1 24.1826 29.1929 0
442 1 25.6482 26.6544 2.07269
443 1 23.4498 27.9236 2.07269
444 1 25.6482 29.1929 2.07269
203 1 26.381 27.9236 0
116 1 15.3889 31.7314 0
385 1 14.6561 30.4622 2.07269
386 1 16.8545 31.7314 2.07269
387 1 14.6561 33.0007 2.07269
145 1 17.5873 30.4622 0
147 1 17.5873 33.0007 0
146 1 19.7858 31.7314 0
415 1 19.0529 30.4622 2.07269
416 1 21.2514 31.7314 2.07269
417 1 19.0529 33.0007 2.07269
175 1 21.9842 30.4622 0
176 1 24.1826 31.7314 0
177 1 21.9842 33.0007 0
445 1 23.4498 30.4622 2.07269
446 1 25.6482 31.7314 2.07269
447 1 23.4498 33.0007 2.07269
205 1 26.381 30.4622 0
207 1 26.381 33.0007 0
118 1 15.3889 34.2699 0
120 1 15.3889 36.8084 0
388 1 16.8545 34.2699 2.07269
389 1 14.6561 35.5392 2.07269
390 1 16.8545 36.8084 2.07269
149 1 17.5873 35.5392 0
148 1 19.7858 34.2699 0
150 1 19.7858 36.8084 0
418 1 21.2514 34.2699 2.07269
419 1 19.0529 35.5392 2.07269
420 1 21.2514 36.8084 2.07269
178 1 24.1826 34.2699 0
179 1 21.9842 35.5392 0
180 1 24.1826 36.8084 0
448 1 25.6482 34.2699 2.07269
449 1 23.4498 35.5392 2.07269
450 1 25.6482 36.8084 2.07269
209 1 26.381 35.5392 0
633 1 16.2185 2.68062 4.15499
632 1 13.8382 1.38432 4.28862
902 1 15.3028 1.41252 6.40171
904 1 15.4854 3.83277 6.32886
631 1 16.0862 38.1815 4.23366
662 1 18.2407 1.29709 4.06039
933 1 17.5895 2.53185 6.40465
663 1 20.4472 2.51367 4.56499
664 1 18.3982 3.76506 4.12086
932 1 19.6335 1.45104 6.5031
934 1 19.6698 3.76639 6.52157
661 1 20.453 0.174159 3.97147
963 1 22.1325 2.48108 6.40409
692 1 22.8067 1.24133 4.28266
694 1 22.7399 3.80345 4.2157
693 1 25.0168 2.3174 4.4468
962 1 24.2486 1.1496 6.45682
964 1 23.9743 3.81752 6.42902
636 1 13.9093 6.32036 4.48104
637 1 16.116 7.70212 4.24917
635 1 16.2378 5.13943 4.28194
906 1 15.669 6.49511 6.28626
935 1 17.6959 4.97085 6.27127
937 1 17.6932 7.66547 6.40376
1912 1 24.8154 -0.250395 15.0572
1874 1 24.7903 35.2198 15.1191
665 1 20.4422 4.98688 4.22703
666 1 18.3131 6.36884 4.38143
667 1 20.5669 7.79673 4.40099
936 1 19.7778 6.35671 6.53548
967 1 22.1037 7.68153 6.6941
965 1 21.9939 5.18877 6.48929
697 1 24.8316 7.81228 4.36013
696 1 22.6663 6.48218 4.4051
966 1 24.1444 6.39982 6.46079
997 1 26.3306 7.53322 6.46112
639 1 16.1883 10.2263 4.27384
638 1 13.9841 8.80727 4.16321
640 1 13.7384 11.4641 4.29811
908 1 15.4793 8.93409 6.44746
910 1 15.5537 11.3764 6.35701
641 1 16.1544 12.8135 4.27969
1744 1 24.0238 36.752 13.0313
939 1 17.5955 10.2806 6.42223
669 1 20.5488 10.1878 4.31155
668 1 18.3135 8.85185 4.18748
670 1 18.2026 11.346 4.17699
938 1 19.8438 8.97612 6.43451
940 1 19.659 11.2464 6.68724
671 1 20.5862 12.8333 4.20025
699 1 24.8789 10.2763 4.24049
969 1 21.8984 10.3363 6.3789
698 1 22.6438 9.09384 4.46702
700 1 22.6322 11.4509 4.14285
968 1 24.0889 8.978 6.37652
970 1 24.2848 11.5305 6.72063
701 1 24.6609 12.7973 4.10549
1692 1 24.1425 34.0138 12.8436
911 1 13.0865 12.6963 6.41915
941 1 17.6121 12.8061 6.50306
644 1 13.8331 16.4763 4.4116
642 1 13.9613 13.9772 4.14277
912 1 15.3566 13.9648 6.37406
914 1 15.3517 16.5406 6.49964
943 1 17.7094 15.3151 6.63445
672 1 18.4224 13.9529 4.2062
674 1 18.2227 16.5979 4.24893
673 1 20.5282 15.4868 4.23167
942 1 19.8033 14.1328 6.3704
944 1 19.7935 16.6256 6.38467
971 1 22.0476 12.7983 6.54565
973 1 22.0073 15.4077 6.21899
703 1 24.8028 15.3169 4.23051
704 1 22.7594 16.5518 4.03616
702 1 22.644 14.0554 4.30496
972 1 24.1887 14.2265 6.34005
974 1 24.2661 16.5095 6.54014
647 1 16.1977 20.3867 4.37132
645 1 16.2008 17.8165 4.18013
916 1 15.326 19.0029 6.64123
945 1 17.5032 17.8658 6.27702
947 1 17.79 20.2471 6.3811
915 1 13.0684 17.7386 6.39429
1953 1 22.741 36.7097 15.0532
675 1 20.7003 17.9113 4.32999
676 1 18.3272 19.1751 4.19928
946 1 19.9933 18.9648 6.49547
977 1 22.1325 20.185 6.76048
975 1 22.0842 17.676 6.35565
707 1 24.9693 20.2087 4.08409
705 1 24.9952 17.787 4.15673
706 1 22.9453 19.0978 4.38645
976 1 24.2353 18.8795 6.55039
650 1 14.0825 24.264 4.1055
649 1 16.2348 22.8691 4.32819
648 1 13.7975 21.7066 4.08673
918 1 15.4956 21.7785 6.26097
920 1 15.4965 24.263 6.38452
949 1 17.6622 22.9567 6.62926
651 1 16.1069 25.5199 4.1661
921 1 13.0877 25.4404 6.53213
680 1 18.268 24.2369 4.37055
679 1 20.3882 22.7986 4.12858
678 1 18.3555 21.6527 4.06695
948 1 19.7606 21.5982 6.47626
950 1 19.8536 24.0676 6.45976
979 1 21.9984 22.7093 6.33865
951 1 17.6815 25.2336 6.4066
981 1 22.1502 25.3498 6.44552
709 1 24.9191 22.8888 4.21996
708 1 22.561 21.562 4.17575
710 1 22.7503 24.2385 4.0587
978 1 24.0749 21.2972 6.40428
980 1 24.3287 23.8856 6.41957
711 1 24.8736 25.3517 4.21852
1766 1 22.0322 35.5176 12.9564
1011 1 26.4292 25.3707 6.16741
652 1 13.9657 26.7934 4.30748
654 1 13.7592 29.22 4.11432
653 1 16.1917 27.9902 4.45146
922 1 15.2949 26.6401 6.32648
924 1 15.2623 29.1126 6.48549
953 1 17.4727 27.858 6.69427
681 1 20.5989 25.2313 4.22633
684 1 18.3516 29.1209 4.2493
683 1 20.5138 27.9524 4.40888
682 1 18.3915 26.6516 4.27299
952 1 19.7685 26.6098 6.63112
954 1 19.8269 29.0273 6.50939
983 1 22.0915 27.9422 6.31288
712 1 22.7414 26.5805 4.19472
714 1 22.7748 28.9985 4.24584
713 1 24.9757 27.8685 4.23012
982 1 24.3864 26.691 6.34819
984 1 24.0442 29.4024 6.39664
1815 1 17.6133 38.2371 12.9463
657 1 15.9877 33.1341 4.19989
655 1 15.852 30.4234 4.2617
656 1 13.8183 31.8795 4.46802
926 1 15.247 31.688 6.41322
1778 1 19.6754 37.006 12.8584
955 1 17.4357 30.386 6.61081
957 1 17.292 32.8769 6.34278
685 1 20.3644 30.3375 4.27048
686 1 18.2198 31.768 4.37893
687 1 20.2365 33.0665 4.25824
956 1 19.6094 31.4724 6.26142
717 1 24.8286 32.9635 4.23562
987 1 21.9285 33.1318 6.29504
985 1 21.8229 30.351 6.52594
716 1 22.3664 31.8646 4.32234
715 1 24.7695 30.4514 4.21281
986 1 24.0516 31.6393 6.40755
1896 1 20.5363 37.9703 15.4982
931 1 17.3525 -0.21994 6.37026
659 1 16.2296 35.5644 4.18357
658 1 13.9621 34.389 4.30968
660 1 13.8794 36.9715 4.23935
928 1 15.3577 34.3687 6.23732
930 1 15.2119 36.7755 6.33552
959 1 17.5987 35.527 6.35758
929 1 13.093 35.7301 6.12035
688 1 18.3192 34.3438 4.26229
689 1 20.6279 35.4078 4.29711
690 1 18.3572 36.9773 4.27733
958 1 19.6955 34.0306 6.38493
960 1 19.7317 36.5237 6.12737
961 1 21.8901 38.0649 6.2217
720 1 22.702 36.9441 4.26043
691 1 25.0043 -0.0779732 4.40111
989 1 21.9757 35.5735 6.6345
718 1 22.7267 34.4595 4.5141
719 1 24.8456 35.5824 4.33447
988 1 24.2842 34.2102 6.44077
990 1 24.2358 36.6957 6.61058
1173 1 14.5349 2.72555 8.62817
1174 1 16.6498 3.87161 8.59852
1172 1 16.8234 1.24367 8.35065
1442 1 13.955 1.34114 10.6351
1443 1 16.1649 2.61517 10.6499
1444 1 14.0705 3.9799 10.5923
1203 1 18.793 2.4259 8.64459
1202 1 21.1736 1.22036 8.67339
1472 1 18.4135 1.19402 10.5262
1473 1 20.4917 2.59561 10.7548
1204 1 21.234 3.80096 8.65471
1474 1 18.3229 3.91881 10.7295
1201 1 18.8573 -0.139969 8.57738
1233 1 23.4199 2.37013 8.61809
1232 1 25.5627 0.98318 8.56018
1234 1 25.3155 3.8421 8.57769
1723 1 24.8586 2.6068 11.0203
1793 1 22.6812 1.28872 10.7646
1504 1 22.8062 3.75926 10.7324
1231 1 23.498 37.9736 8.4461
1501 1 24.8303 38.0067 10.7157
1176 1 16.9726 6.3365 8.44683
1177 1 14.8639 7.63897 8.55598
1446 1 13.9599 6.49163 10.7063
1175 1 14.5986 5.1144 8.42819
1476 1 16.2389 5.31931 10.5965
1417 1 16.1857 7.6937 10.6885
1205 1 19.1692 4.88712 8.63953
1207 1 19.1857 7.77858 8.68748
1206 1 21.1168 6.40651 8.86863
1477 1 20.4395 7.58024 10.8143
1826 1 20.523 5.00444 10.8876
1475 1 18.441 6.41715 10.738
1235 1 23.2186 5.16176 8.63239
1237 1 23.299 7.61649 8.9295
1236 1 25.588 6.18513 8.62635
1505 1 25.0431 5.01651 10.7623
1506 1 22.6754 6.29314 11.1095
1507 1 24.9782 7.41548 10.8446
1448 1 13.7152 8.95294 10.6143
1178 1 16.9875 9.14641 8.53436
1180 1 16.8767 11.4861 8.36365
1179 1 14.8005 10.0862 8.4672
1450 1 13.942 11.6849 10.6197
1449 1 16.0957 10.1089 10.621
1451 1 16.1997 12.8626 10.6972
1478 1 18.4144 8.93082 10.9857
1210 1 21.2465 11.4172 8.72654
1208 1 21.2281 9.04644 8.43628
1209 1 19.0692 10.3569 8.84278
1479 1 20.6745 10.1983 10.795
1480 1 18.18 11.4488 10.8245
1211 1 18.89 12.8001 8.68988
1481 1 20.368 12.5771 10.7004
1238 1 25.7487 8.84832 8.67743
1240 1 25.8503 11.4413 8.52997
1239 1 23.5139 10.0346 8.66672
1509 1 24.8604 10.1171 10.9486
1510 1 22.8906 11.4157 10.9443
1756 1 22.7653 8.8917 10.799
1241 1 23.5368 12.4889 8.74784
1511 1 24.972 12.568 10.8169
1181 1 14.6462 12.7856 8.37349
1182 1 16.863 14.1157 8.62203
1183 1 14.6295 15.1972 8.46575
1452 1 13.89 13.9708 10.7783
1453 1 16.1533 15.2669 10.6284
1454 1 13.733 16.5318 10.6151
1184 1 16.8132 16.5928 8.69505
1214 1 21.237 16.4219 8.73714
1212 1 21.055 13.8504 8.57461
1213 1 19.0891 15.3335 8.69608
1482 1 18.4694 13.9481 10.8347
1483 1 20.7458 15.0703 10.6689
1484 1 18.4018 16.5165 10.7181
1242 1 25.5844 13.9408 8.42049
1244 1 25.7391 16.6426 8.61132
1243 1 23.3942 15.218 8.57677
1512 1 22.6951 13.8565 10.7112
1514 1 22.8745 16.4301 10.7502
1513 1 25.0222 15.1548 10.5981
1187 1 14.7992 20.4121 8.74597
1185 1 14.692 17.8479 8.64317
1186 1 17.0455 19.0217 8.55339
1455 1 16.2204 18.0344 10.8316
1457 1 16.1954 20.5814 10.776
1700 1 13.7924 18.9894 11.0584
1217 1 19.0119 20.2318 8.71124
1216 1 21.4082 19.0235 8.84223
1215 1 19.2217 17.7932 8.64765
1485 1 20.4758 17.513 11.0708
1486 1 18.5128 18.995 10.8835
1487 1 20.4976 20.1829 11.0432
1247 1 23.4473 20.2984 8.93177
1246 1 25.5825 19.0438 8.60097
1245 1 23.6839 17.6464 8.83195
1515 1 24.942 17.6806 10.8101
1516 1 22.8995 19.0678 10.9386
1517 1 25.1671 20.279 10.9002
1458 1 13.8929 21.5192 11.1568
1188 1 16.9572 21.5648 8.64529
1190 1 17.0907 23.9853 8.81571
1189 1 14.6628 22.9141 8.48187
1459 1 16.0712 22.9365 10.7914
1460 1 13.9361 23.9769 10.5695
1191 1 14.4626 25.3807 8.61885
1461 1 16.004 25.3927 10.7681
1488 1 18.358 21.7104 11.0895
1218 1 21.3274 21.6132 8.97014
1219 1 19.2846 22.8568 8.99134
1220 1 21.0598 24.1809 8.3879
1489 1 20.4943 22.7101 11.1974
1490 1 18.14 24.1879 11.2905
1221 1 18.8785 25.3615 8.55064
1491 1 20.449 25.1227 10.6121
1249 1 23.4893 22.7314 8.6773
1518 1 22.7667 21.4634 10.9982
1248 1 25.5863 21.5228 8.69098
1250 1 25.7284 24.0928 8.287
1519 1 25.144 22.6892 10.8276
1520 1 22.5995 23.7782 10.6909
1251 1 23.4196 25.3292 8.58326
1194 1 16.6773 29.1296 8.79628
1193 1 14.5653 27.917 8.69742
1192 1 16.7182 26.4029 8.49179
1462 1 13.8302 26.6353 10.68
1463 1 16.0294 27.8707 10.9342
1464 1 13.9363 29.2255 10.7874
1222 1 21.1844 26.6648 8.55955
1223 1 18.9109 27.7862 8.65497
1224 1 21.1879 29.114 8.61475
1492 1 18.2482 26.6331 10.61
1493 1 20.6166 27.9025 10.8116
1494 1 18.3277 29.1487 10.8051
1521 1 24.7514 25.1633 10.681
1252 1 25.661 26.4945 8.70325
1253 1 23.5097 27.6579 8.44888
1522 1 22.5042 26.1142 10.6546
1523 1 24.6943 27.5554 10.7857
1524 1 22.7032 29.1272 10.5752
1254 1 25.6111 29.0661 8.53623
1465 1 16.0724 30.4276 10.6774
1195 1 14.502 30.631 8.6334
1196 1 16.6657 31.6989 8.59409
1197 1 14.6134 33.0774 8.60735
1466 1 13.8992 31.9601 10.5084
1467 1 16.0319 32.9358 10.8457
1225 1 18.9344 30.3538 8.55364
1497 1 20.4517 32.8654 10.5312
1226 1 20.9098 31.6933 8.40392
1227 1 19.0672 33.1969 8.60468
1495 1 20.6069 30.425 10.5886
1496 1 18.0519 31.5527 10.7443
1255 1 23.2063 30.2874 8.54542
1256 1 25.635 31.4541 8.32543
1257 1 23.1716 32.9226 8.64545
1526 1 22.7683 31.6025 10.6557
1527 1 24.8907 32.8442 10.7116
1525 1 24.8451 30.1966 10.7704
1171 1 14.5795 38 8.55352
1441 1 16.1296 38.1757 10.7851
1468 1 13.9289 34.5027 10.9376
1470 1 13.8811 36.9568 10.6469
1199 1 14.6409 35.6129 8.55723
1198 1 16.9147 34.4265 8.81128
1200 1 16.7599 36.7973 8.69685
1469 1 16.1029 35.5589 10.8857
1471 1 20.5568 38.0368 10.8391
1230 1 21.1591 36.9018 8.54841
1498 1 18.3494 34.1694 10.8745
1228 1 21.2158 34.4901 8.69137
1499 1 20.386 35.3475 10.6942
1229 1 19.0188 35.672 8.34748
1500 1 18.3055 36.9308 10.8847
1528 1 22.6047 34.174 10.7718
1259 1 23.4736 35.4931 8.88992
1258 1 25.6755 34.1401 8.39766
1260 1 25.5465 36.8417 8.63631
1529 1 24.8798 35.361 10.8258
1530 1 22.5408 36.8216 10.7074
1755 1 15.3729 1.5001 12.7804
1445 1 15.3677 4.09597 12.9497
1899 1 17.4729 2.5723 12.8347
1952 1 18.4714 1.50851 14.9546
1868 1 19.8007 1.34276 12.8168
1847 1 19.5609 3.99049 13.1836
1882 1 20.5165 2.42255 14.9001
1502 1 21.7911 2.7037 12.956
1960 1 22.6095 1.13535 14.94
1933 1 24.5763 2.32941 15.0027
1822 1 23.9374 1.22289 12.9657
1769 1 24.2145 3.65584 12.9886
1560 1 26.3403 38.1406 12.9424
1447 1 15.4975 6.71415 12.7624
1906 1 13.0286 7.78229 12.9619
1706 1 17.5398 5.3421 12.8389
1922 1 17.5334 7.96797 13.0798
1836 1 19.7613 6.35033 12.9178
1873 1 21.8299 7.63677 12.9735
1799 1 21.7348 5.10745 13.2954
1823 1 24.3184 6.34662 13.2651
1920 1 15.1661 8.95698 12.915
1879 1 15.2237 11.5507 12.534
1834 1 17.6268 13.0006 12.8752
1718 1 19.8061 34.1528 12.8323
1749 1 17.3084 10.2955 12.8887
1856 1 19.8163 8.94297 13.1188
1698 1 19.6746 11.511 12.7919
1883 1 21.9698 10.2132 12.8797
1508 1 24.3969 8.81 12.8221
1742 1 24.1482 11.2273 13.057
1946 1 15.9026 15.1746 14.8487
1702 1 15.0414 14.2545 12.8283
1693 1 15.2116 16.7122 12.9159
1703 1 17.1951 15.4631 12.8681
1915 1 18.2237 14.1765 14.8138
1925 1 20.4824 15.0531 14.9712
1743 1 19.7614 13.9327 12.8999
1686 1 19.6545 16.2513 13.0253
1884 1 18.2551 16.6012 14.9615
1788 1 21.9073 12.5697 12.5717
1685 1 21.921 15.0931 12.8745
1748 1 24.1079 13.7637 12.6481
1690 1 24.2853 16.2409 12.7225
1914 1 22.8772 16.0983 14.8632
1781 1 26.4458 15.1038 12.7048
1811 1 15.4054 19.2554 12.8412
1898 1 15.905 17.6727 15.1029
1895 1 16.4418 20.0185 14.9021
1661 1 17.6656 17.9056 12.9456
1658 1 13.2015 20.3353 13.2249
1939 1 18.2772 36.9276 15.1894
1638 1 17.6207 20.5105 12.9047
1909 1 18.5652 18.8784 15.2237
1651 1 19.8475 18.9228 13.0979
1887 1 20.8403 17.4341 15.4396
1881 1 20.7427 20.0156 15.3221
1666 1 21.9649 17.6708 13.1484
1655 1 22.1243 20.1601 13.2458
1927 1 22.9688 18.5959 15.1538
1902 1 24.2316 18.9698 12.9055
1926 1 24.95 19.8302 15.0008
1903 1 20.4781 35.5164 15.0218
1923 1 18.5235 34.1154 15.4134
1705 1 15.3078 21.8294 13.4772
1647 1 15.3432 24.1765 12.8276
1634 1 17.4749 23.0832 13.8275
1659 1 13.171 22.8947 13.0429
1916 1 18.4904 21.3617 15.3356
1631 1 19.7933 21.4841 13.1376
1885 1 20.5752 22.4337 15.2024
1636 1 19.6646 23.9456 13.2312
1632 1 17.4205 25.4778 13.0251
1644 1 21.9151 22.6864 13.2117
1664 1 22.891 21.1339 15.5116
1625 1 24.2716 21.3244 13.2201
1635 1 24.0457 23.9783 12.8854
1817 1 21.8692 -0.17591 13.1152
1852 1 15.2582 34.2919 13.1187
1738 1 15.4983 29.2952 12.8711
1665 1 15.2859 26.782 13.1157
1660 1 17.534 28.0007 12.9014
1629 1 19.6515 26.6806 12.8494
1654 1 19.8292 29.0442 12.8782
1673 1 21.8506 25.011 13.052
1663 1 22.0172 27.5065 12.7484
1784 1 24.0839 28.9301 12.8968
1767 1 24.0907 26.3769 13.0794
1707 1 15.4532 31.8431 13.2896
1785 1 17.6025 32.9505 12.9499
1958 1 17.8663 31.8271 15.1086
1776 1 17.4955 30.4876 13.1248
1897 1 19.7686 31.502 12.4253
1929 1 20.4211 32.7576 14.92
1763 1 21.8637 30.2704 12.7327
1877 1 22.6843 33.9076 15.176
1695 1 26.1172 32.6534 13.1101
1901 1 24.9123 32.5689 15.2676
1938 1 24.7891 29.994 15.0773
1725 1 24.2063 31.3236 13.0903
1714 1 22.06 32.6879 12.7786
1890 1 22.578 31.5438 15.114
1770 1 17.7157 35.6773 13.0323
1691 1 16.3518 0.512619 15.1175
1805 1 15.5451 37.1207 13.0896
993 1 26.4101 2.35454 6.83133
991 1 26.4888 38.0336 6.42228
1001 1 26.2344 12.7631 6.23775
1003 1 26.4375 15.2515 6.3417
1005 1 26.4122 17.7368 6.43366
1017 1 26.3439 32.8237 6.2943
1019 1 26.3117 35.535 6.45987
1503 1 26.429 2.36849 13.0389
1765 1 26.6737 7.53564 13.1217
1746 1 26.169 35.2512 13.0962
1733 1 26.5719 9.98647 12.8489
1712 1 26.2994 12.6649 13.0702
1841 1 26.2395 30.1705 13.0324
1853 1 13.2492 0.219314 12.9073
1913 1 13.3859 35.7582 13.043
913 1 13.1439 15.1122 6.35168
901 1 13.2347 38.2219 6.37252
1813 1 13.3964 2.66837 12.9397
1745 1 13.1998 27.8477 12.6806
1860 1 13.0479 33.2322 13.1815
182 1 28.5794 1.26926 0
184 1 28.5794 3.80777 0
451 1 27.8466 2.31199e-16 2.07269
452 1 30.045 1.26926 2.07269
453 1 27.8466 2.53851 2.07269
454 1 30.045 3.80777 2.07269
211 1 30.7778 0 0
213 1 30.7778 2.53851 0
212 1 32.9763 1.26926 0
214 1 32.9763 3.80777 0
481 1 32.2434 2.31199e-16 2.07269
482 1 34.4419 1.26926 2.07269
483 1 32.2434 2.53851 2.07269
484 1 34.4419 3.80777 2.07269
241 1 35.1747 0 0
242 1 37.3731 1.26926 0
243 1 35.1747 2.53851 0
244 1 37.3731 3.80777 0
511 1 36.6403 2.31199e-16 2.07269
512 1 38.8387 1.26926 2.07269
513 1 36.6403 2.53851 2.07269
514 1 38.8387 3.80777 2.07269
186 1 28.5794 6.34628 0
455 1 27.8466 5.07703 2.07269
456 1 30.045 6.34628 2.07269
457 1 27.8466 7.61554 2.07269
215 1 30.7778 5.07703 0
217 1 30.7778 7.61554 0
216 1 32.9763 6.34628 0
485 1 32.2434 5.07703 2.07269
486 1 34.4419 6.34628 2.07269
487 1 32.2434 7.61554 2.07269
245 1 35.1747 5.07703 0
246 1 37.3731 6.34628 0
247 1 35.1747 7.61554 0
515 1 36.6403 5.07703 2.07269
516 1 38.8387 6.34628 2.07269
517 1 36.6403 7.61554 2.07269
188 1 28.5794 8.8848 0
190 1 28.5794 11.4233 0
458 1 30.045 8.8848 2.07269
459 1 27.8466 10.1541 2.07269
460 1 30.045 11.4233 2.07269
219 1 30.7778 10.1541 0
218 1 32.9763 8.8848 0
220 1 32.9763 11.4233 0
488 1 34.4419 8.8848 2.07269
489 1 32.2434 10.1541 2.07269
490 1 34.4419 11.4233 2.07269
248 1 37.3731 8.8848 0
249 1 35.1747 10.1541 0
250 1 37.3731 11.4233 0
518 1 38.8387 8.8848 2.07269
519 1 36.6403 10.1541 2.07269
520 1 38.8387 11.4233 2.07269
461 1 27.8466 12.6926 2.07269
221 1 30.7778 12.6926 0
192 1 28.5794 13.9618 0
194 1 28.5794 16.5003 0
462 1 30.045 13.9618 2.07269
463 1 27.8466 15.2311 2.07269
464 1 30.045 16.5003 2.07269
223 1 30.7778 15.2311 0
491 1 32.2434 12.6926 2.07269
222 1 32.9763 13.9618 0
224 1 32.9763 16.5003 0
492 1 34.4419 13.9618 2.07269
493 1 32.2434 15.2311 2.07269
494 1 34.4419 16.5003 2.07269
251 1 35.1747 12.6926 0
521 1 36.6403 12.6926 2.07269
252 1 37.3731 13.9618 0
253 1 35.1747 15.2311 0
254 1 37.3731 16.5003 0
522 1 38.8387 13.9618 2.07269
523 1 36.6403 15.2311 2.07269
524 1 38.8387 16.5003 2.07269
196 1 28.5794 19.0389 0
465 1 27.8466 17.7696 2.07269
466 1 30.045 19.0389 2.07269
467 1 27.8466 20.3081 2.07269
225 1 30.7778 17.7696 0
227 1 30.7778 20.3081 0
226 1 32.9763 19.0389 0
495 1 32.2434 17.7696 2.07269
496 1 34.4419 19.0389 2.07269
497 1 32.2434 20.3081 2.07269
255 1 35.1747 17.7696 0
256 1 37.3731 19.0389 0
257 1 35.1747 20.3081 0
525 1 36.6403 17.7696 2.07269
526 1 38.8387 19.0389 2.07269
527 1 36.6403 20.3081 2.07269
198 1 28.5794 21.5774 0
200 1 28.5794 24.1159 0
468 1 30.045 21.5774 2.07269
469 1 27.8466 22.8466 2.07269
470 1 30.045 24.1159 2.07269
471 1 27.8466 25.3851 2.07269
229 1 30.7778 22.8466 0
231 1 30.7778 25.3851 0
228 1 32.9763 21.5774 0
230 1 32.9763 24.1159 0
498 1 34.4419 21.5774 2.07269
499 1 32.2434 22.8466 2.07269
500 1 34.4419 24.1159 2.07269
501 1 32.2434 25.3851 2.07269
258 1 37.3731 21.5774 0
259 1 35.1747 22.8466 0
260 1 37.3731 24.1159 0
261 1 35.1747 25.3851 0
528 1 38.8387 21.5774 2.07269
529 1 36.6403 22.8466 2.07269
530 1 38.8387 24.1159 2.07269
531 1 36.6403 25.3851 2.07269
202 1 28.5794 26.6544 0
204 1 28.5794 29.1929 0
472 1 30.045 26.6544 2.07269
473 1 27.8466 27.9236 2.07269
474 1 30.045 29.1929 2.07269
233 1 30.7778 27.9236 0
232 1 32.9763 26.6544 0
234 1 32.9763 29.1929 0
502 1 34.4419 26.6544 2.07269
503 1 32.2434 27.9236 2.07269
504 1 34.4419 29.1929 2.07269
262 1 37.3731 26.6544 0
263 1 35.1747 27.9236 0
264 1 37.3731 29.1929 0
532 1 38.8387 26.6544 2.07269
533 1 36.6403 27.9236 2.07269
534 1 38.8387 29.1929 2.07269
206 1 28.5794 31.7314 0
475 1 27.8466 30.4622 2.07269
476 1 30.045 31.7314 2.07269
477 1 27.8466 33.0007 2.07269
235 1 30.7778 30.4622 0
237 1 30.7778 33.0007 0
236 1 32.9763 31.7314 0
505 1 32.2434 30.4622 2.07269
506 1 34.4419 31.7314 2.07269
507 1 32.2434 33.0007 2.07269
265 1 35.1747 30.4622 0
266 1 37.3731 31.7314 0
267 1 35.1747 33.0007 0
535 1 36.6403 30.4622 2.07269
536 1 38.8387 31.7314 2.07269
537 1 36.6403 33.0007 2.07269
208 1 28.5794 34.2699 0
210 1 28.5794 36.8084 0
478 1 30.045 34.2699 2.07269
479 1 27.8466 35.5392 2.07269
480 1 30.045 36.8084 2.07269
239 1 30.7778 35.5392 0
238 1 32.9763 34.2699 0
240 1 32.9763 36.8084 0
508 1 34.4419 34.2699 2.07269
509 1 32.2434 35.5392 2.07269
510 1 34.4419 36.8084 2.07269
779 1 33.7372 35.4827 4.20248
268 1 37.3731 34.2699 0
269 1 35.1747 35.5392 0
270 1 37.3731 36.8084 0
538 1 38.8387 34.2699 2.07269
539 1 36.6403 35.5392 2.07269
540 1 38.8387 36.8084 2.07269
808 1 35.8627 34.2411 4.35847
722 1 27.1702 1.38163 4.23669
724 1 26.9214 3.81443 4.39142
723 1 29.4622 2.41048 4.48143
992 1 28.7357 1.07494 6.66421
994 1 28.5304 3.77018 6.73104
721 1 29.2715 -0.0736595 4.03372
1949 1 38.9165 33.9526 15.0035
1782 1 37.5061 34.0466 12.7724
1023 1 30.7936 2.50502 6.58261
752 1 31.3933 1.2129 4.48267
754 1 31.5441 3.72204 4.17948
753 1 33.6485 2.43124 4.18322
1022 1 32.8373 1.04963 6.58081
1024 1 32.8905 3.61547 6.2597
751 1 33.6772 37.9212 3.95075
1021 1 30.7086 37.9533 6.2749
1051 1 35.065 38.0216 6.25154
1053 1 35.1181 2.32653 6.62301
782 1 35.8156 1.21396 4.18549
783 1 38.0827 2.45402 4.33384
784 1 35.7672 3.59357 4.3209
1052 1 37.3964 1.14154 6.42794
1054 1 37.3619 3.90225 6.31925
813 1 39.5916 2.6629 6.47651
1684 1 37.2992 36.7934 12.9139
725 1 29.245 5.00614 3.96655
726 1 27.0177 6.30223 4.46999
727 1 29.4035 7.6774 4.29122
996 1 28.6476 6.24785 6.46083
995 1 26.4055 4.93446 6.46312
1027 1 30.8468 7.33336 6.32666
1025 1 30.8437 4.95746 6.33547
755 1 33.7172 5.18312 4.32933
757 1 33.8345 7.86394 4.19681
756 1 31.6143 6.3424 4.03145
1026 1 32.9766 6.12661 6.42604
1055 1 35.1924 4.9662 6.28868
1057 1 35.1845 7.36156 6.21472
786 1 35.8841 6.23325 4.21743
787 1 37.9511 7.62444 4.20763
785 1 38.0148 5.07252 4.11273
1056 1 37.3692 6.3623 6.27417
815 1 39.5488 5.15439 6.5267
1764 1 30.5114 35.2212 12.7783
730 1 27.1066 11.4221 4.18083
728 1 27.0769 8.80824 4.28955
729 1 29.2162 10.1199 4.22681
998 1 28.4613 8.86788 6.38601
1000 1 28.4508 11.4476 6.32204
731 1 29.3255 12.7533 4.20575
1750 1 35.2202 35.4552 12.9057
1029 1 30.7129 9.86416 6.39546
758 1 31.5026 8.85186 4.38899
759 1 33.6037 10.1684 4.26324
760 1 31.4173 11.3795 4.33118
1028 1 32.9013 8.72303 6.45132
1030 1 32.8199 11.2418 6.33205
761 1 33.7236 12.7245 4.28438
1059 1 35.2231 10.0126 6.42304
788 1 36.0042 8.91709 4.10015
790 1 35.7257 11.2375 4.25242
789 1 38.2011 10.1254 4.07971
1058 1 37.1384 8.76882 6.2646
1060 1 37.2335 11.1808 6.24079
1061 1 35.1473 12.4371 6.33279
732 1 27.1249 13.9199 4.17486
734 1 27.0455 16.4355 4.26058
733 1 29.3641 15.1354 4.20508
1002 1 28.5254 13.976 6.35674
1004 1 28.4586 16.4917 6.52493
1033 1 30.5937 15.0542 6.43624
1687 1 32.9084 36.6477 12.9325
1031 1 30.6334 12.5654 6.40349
763 1 33.7696 15.2742 4.20847
764 1 31.5067 16.503 4.33051
762 1 31.6091 13.8858 4.23228
1032 1 33.0356 13.7586 6.4605
1034 1 33.0449 16.3833 6.27913
1063 1 35.158 14.8929 6.21511
792 1 35.9151 13.9373 4.27014
791 1 38.1353 12.5744 4.39555
794 1 36.1227 16.5739 4.31057
793 1 38.1906 14.9656 4.27724
1062 1 37.3501 13.7515 6.43041
1064 1 37.1808 16.5641 6.34298
821 1 39.6364 12.6132 6.37205
736 1 27.2181 18.9195 4.24315
737 1 29.3798 20.0383 4.21047
735 1 29.4715 17.6945 4.24879
1006 1 28.5323 18.7827 6.2306
1035 1 30.7823 17.5979 6.51385
1037 1 30.6987 20.1206 6.33578
1007 1 26.2613 20.1251 6.43037
1820 1 32.8313 34.278 12.8751
767 1 33.8204 20.3994 4.12853
766 1 31.5984 18.9261 4.11262
765 1 33.7878 17.7697 4.34321
1036 1 32.9795 18.9876 6.21337
1067 1 35.2469 20.3226 6.54113
1065 1 35.1051 17.8245 6.43483
795 1 38.3054 17.7444 4.23061
797 1 38.0874 20.3265 4.0078
796 1 35.9166 19.1085 4.1492
1066 1 37.3045 19.3439 6.3692
738 1 27.2715 21.4121 4.21878
739 1 29.4913 22.6182 4.18024
740 1 27.2423 23.893 3.94385
1008 1 28.6238 21.3855 6.47294
1010 1 28.6344 24.0299 6.36868
1039 1 30.6146 22.5229 6.49316
768 1 31.5883 21.3843 4.39141
770 1 31.3724 23.9318 4.39904
769 1 33.7844 22.7651 4.15056
1038 1 32.9445 21.5126 6.60225
1040 1 32.7253 23.9696 6.45276
1069 1 34.8422 22.9495 6.55025
799 1 38.105 22.7547 4.15831
800 1 35.6674 24.1649 4.43253
798 1 35.924 21.5895 4.28538
1068 1 37.4983 21.8427 6.41802
1070 1 37.227 24.1442 6.27871
801 1 37.9933 25.1821 4.10599
743 1 29.2655 28.0011 4.11286
741 1 29.3012 25.181 3.98081
744 1 27.0416 29.19 4.07365
742 1 27.2114 26.6421 4.08515
1012 1 28.4587 26.7189 6.16884
1014 1 28.5368 29.0432 6.27265
1043 1 30.8843 27.8203 6.20994
772 1 31.4716 26.3927 3.98414
1041 1 30.6691 25.2388 6.47159
771 1 33.6969 25.2291 4.32084
773 1 33.78 27.7491 4.50169
774 1 31.3872 29.0578 4.25022
1042 1 33.1769 26.5758 6.52374
1044 1 32.9886 29.129 6.40109
1073 1 35.0474 27.8731 6.33247
1071 1 35.1371 25.3909 6.69789
802 1 35.8566 26.5565 4.4824
804 1 35.9856 29.2386 4.37419
803 1 38.1872 27.8829 4.25909
1072 1 37.4848 26.5967 6.50266
1074 1 37.2952 28.9952 6.36522
1941 1 34.3221 34.1041 14.9728
747 1 29.0155 33.2086 4.20085
746 1 27.0246 31.7325 4.09363
745 1 29.269 30.6239 4.04367
1016 1 28.4726 31.5707 6.34056
1047 1 30.8444 32.8469 6.37463
1045 1 30.7602 30.3334 6.24873
1962 1 32.0291 35.3517 14.8045
775 1 33.9228 30.4318 4.06053
776 1 31.7099 31.7717 4.17152
777 1 33.7214 32.9113 4.21776
1046 1 33.0189 31.6826 6.48254
1075 1 35.0558 30.1452 6.39539
1077 1 35.1893 32.7333 6.33749
807 1 38.027 32.9493 4.28205
806 1 35.8568 31.6583 4.26581
805 1 38.2346 30.5508 4.27447
1076 1 37.2371 31.4385 6.2134
835 1 39.3456 30.4044 6.57787
837 1 39.4105 33.01 6.43876
748 1 26.8977 34.4579 4.18794
750 1 27.0268 36.9518 4.30115
749 1 29.2503 35.6215 4.21807
1018 1 28.5706 34.0588 6.45361
1020 1 28.512 36.6625 6.55177
1907 1 26.8297 34.1009 15.2486
1049 1 30.8171 35.3448 6.33512
780 1 31.3488 36.7751 4.20526
778 1 31.3258 34.0904 4.03701
1048 1 33.1297 34.2568 6.45273
1050 1 33.124 36.7313 6.43017
1079 1 35.3129 35.6218 6.76213
781 1 38.0091 37.9645 4.48556
810 1 35.8321 36.7172 4.28438
809 1 38.0392 35.5096 4.18512
1078 1 37.3581 34.1216 6.13456
1080 1 37.518 36.4878 6.5445
1675 1 28.397 36.8106 13.2891
1262 1 30.1368 1.15336 8.69025
1264 1 30.0916 3.83647 8.49877
1263 1 27.9785 2.50241 8.87196
1533 1 29.2639 2.36455 10.9737
1532 1 27.1852 1.09706 10.7589
1534 1 27.0305 3.75213 11.1365
1531 1 29.3653 37.8074 10.8685
1261 1 27.9045 37.9266 8.66327
1294 1 34.4055 3.8518 8.43116
1293 1 32.2675 2.36128 8.58992
1292 1 34.5615 1.05505 8.68577
1562 1 31.5047 1.31822 10.9121
1563 1 33.756 2.57821 10.493
1564 1 31.5664 3.7498 10.5564
1291 1 32.3201 38.0149 8.64077
1323 1 36.6719 2.46853 8.8345
1322 1 38.9175 1.25642 8.6417
1592 1 35.8766 1.18069 10.8207
1593 1 37.9859 2.38551 10.9095
1324 1 38.9517 3.87848 8.60121
1594 1 35.9264 3.73122 10.7727
1591 1 38.2155 38.0635 10.717
1266 1 30.1077 6.00087 8.72377
1267 1 27.6805 7.4677 8.81577
1265 1 27.7929 5.0313 8.80949
1536 1 27.2682 6.26926 10.8929
1537 1 29.647 7.51233 11.0959
1535 1 29.2881 4.76433 10.6567
1296 1 34.1789 6.49417 8.51726
1297 1 32.0825 7.47598 8.55198
1295 1 32.1998 4.97169 8.38622
1565 1 33.8379 4.85719 10.6659
1566 1 31.59 6.09935 10.6033
1567 1 33.6973 7.49227 10.6635
1325 1 36.7081 5.11167 8.29812
1327 1 36.6738 7.56194 8.50175
1326 1 38.9566 6.43679 8.74299
1595 1 38.1592 5.04222 10.9396
1596 1 35.8372 6.14153 10.3572
1597 1 38.0971 7.47744 10.894
1269 1 27.8945 10.0434 8.6194
1538 1 27.28 8.70922 10.8478
1268 1 29.9365 8.57403 8.49864
1270 1 30.0906 11.2121 8.50253
1540 1 27.2152 11.3324 10.7052
1539 1 29.5445 9.9807 10.6504
1271 1 27.9335 12.7007 8.51796
1541 1 29.3556 12.5763 10.72
1298 1 34.4717 8.85732 8.42273
1299 1 32.3381 10.0966 8.61328
1300 1 34.5758 11.4335 8.42402
1569 1 33.6924 10.1351 10.7741
1570 1 31.5179 11.6178 10.6311
1719 1 31.5963 8.81366 10.8161
1328 1 38.9132 8.89335 8.67326
1329 1 36.7236 9.95481 8.48731
1330 1 38.7301 11.5677 8.51634
1599 1 38.2092 9.9972 10.4426
1600 1 35.8742 11.3347 10.7644
1598 1 35.9807 8.82794 10.7316
1272 1 30.0767 13.7994 8.46772
1273 1 27.756 15.0282 8.65767
1542 1 26.99 13.6393 10.5346
1543 1 29.3103 15.0449 10.9687
1274 1 30.014 16.223 8.53557
1544 1 27.327 16.3962 10.618
1301 1 32.155 12.5788 8.39806
1571 1 33.7614 12.6302 10.5571
1303 1 32.1839 15.0888 8.30028
1302 1 34.3613 14.0629 8.69497
1572 1 31.5839 14.0564 10.5602
1304 1 34.3634 16.5306 8.59711
1574 1 31.5083 16.341 10.5294
1576 1 33.7471 15.1949 10.8431
1601 1 38.1063 12.5785 10.5909
1331 1 36.627 12.6037 8.45927
1334 1 38.6379 16.3416 8.62887
1332 1 38.6629 14.0706 8.45629
1333 1 36.5731 15.1922 8.50104
1602 1 35.8052 13.9057 10.8226
1603 1 38.0115 15.2262 10.7523
1604 1 35.9272 16.6593 10.9166
1275 1 27.9832 17.8761 8.46672
1277 1 27.75 20.3612 8.54524
1276 1 30.1175 18.9846 8.5714
1545 1 29.4152 17.6096 10.6666
1546 1 27.1118 19.0756 10.4945
1547 1 29.3837 20.1416 10.5712
1305 1 32.1546 17.8174 8.44064
1306 1 34.3163 18.9176 8.64941
1307 1 32.1463 20.1898 8.47291
1578 1 33.4408 20.1929 10.6971
1606 1 33.56 17.6533 10.7977
1335 1 36.4723 17.8173 8.64067
1337 1 36.3769 20.2231 8.73293
1336 1 38.4843 19.1332 8.71347
1605 1 38.0129 17.7741 10.7229
1607 1 37.8005 20.2871 10.7773
1278 1 29.9097 21.4257 8.74706
1279 1 27.8375 22.7499 8.38618
1548 1 27.4222 21.5408 10.7045
1280 1 30.0746 24.0426 8.45007
1550 1 27.1162 23.9374 10.5625
1951 1 29.5293 22.753 10.8181
1551 1 29.1124 25.2902 10.7411
1310 1 34.3923 24.0233 8.59835
1308 1 34.2404 21.5004 8.70807
1309 1 31.9403 22.6899 8.90098
1579 1 33.6857 22.9077 10.6214
1581 1 33.6703 25.3939 10.931
1608 1 35.8069 21.4343 10.7673
1340 1 38.8312 23.9747 8.54639
1338 1 38.7061 21.4518 8.83303
1339 1 36.4814 22.7291 8.58696
1610 1 35.8491 24.2339 10.7969
1758 1 37.9974 22.6371 10.7643
1611 1 38.1368 25.3041 10.4646
1341 1 36.7389 25.3067 8.47449
1281 1 27.9599 25.343 8.53229
1284 1 30.125 28.9832 8.45914
1282 1 30.1509 26.727 8.52258
1283 1 27.8315 27.8643 8.64007
1552 1 27.139 26.6684 10.7569
1553 1 29.2746 27.8076 10.9665
1697 1 27.1401 29.073 10.9801
1311 1 32.1861 25.1601 8.70844
1312 1 34.4837 26.4417 8.82227
1313 1 32.3553 27.7076 8.64142
1582 1 31.3801 26.4663 10.6918
1584 1 31.5993 28.9772 10.6844
1314 1 34.2538 29.3086 8.66043
1583 1 33.9545 28.1964 10.827
1342 1 38.7864 26.6352 8.51338
1612 1 35.866 26.6513 10.9271
1343 1 36.5959 27.756 8.69041
1613 1 38.2345 27.7056 10.8496
1614 1 36.1013 29.3608 10.774
1344 1 38.8135 29.0817 8.75375
1286 1 30.0962 31.5189 8.31856
1287 1 27.9348 32.7392 8.61812
1285 1 27.8627 30.2367 8.6377
1555 1 29.2878 30.3896 10.5538
1556 1 26.9317 31.5493 10.6147
1557 1 29.0508 32.9585 10.5448
1315 1 32.1635 30.4172 8.51684
1316 1 34.2193 31.9602 8.61465
1317 1 32.0324 33.0465 8.55643
1585 1 33.5392 30.5109 10.7193
1586 1 31.3363 31.6611 10.6822
1587 1 33.5049 32.9093 10.8618
1347 1 36.51 33.1124 8.39273
1345 1 36.4887 30.2598 8.32626
1346 1 38.5758 31.6095 8.76945
1615 1 38.3125 30.3783 10.8009
1616 1 35.7418 31.776 10.7612
1617 1 38.1823 32.9945 10.6088
1290 1 30.0809 36.734 8.64941
1558 1 26.8428 34.2015 10.7151
1288 1 30.0845 34.3538 8.4325
1289 1 28.0381 35.2595 8.66012
1559 1 29.1341 35.5034 10.7585
1677 1 26.9472 36.5651 10.8231
1561 1 33.6799 37.9734 10.7668
1588 1 31.3091 34.2513 10.7119
1319 1 32.3722 35.5386 8.5559
1318 1 34.4457 34.2728 8.59732
1590 1 31.4894 36.716 10.6339
1589 1 33.596 35.4333 10.671
1320 1 34.5791 36.8997 8.84714
1321 1 36.8931 -0.228116 8.48074
1348 1 38.6941 34.2269 8.53385
1618 1 35.966 34.4276 10.8517
1620 1 35.7569 36.8148 10.7873
1349 1 36.7491 35.4632 8.75815
1619 1 38.3326 35.5419 11.0806
1350 1 39.1949 36.8152 8.7619
1683 1 28.6237 1.13682 13.0411
1674 1 28.5419 3.88355 13.4009
1808 1 28.3687 33.8362 13.4269
1623 1 30.7557 2.32588 13.3364
1671 1 32.838 0.958978 12.8893
1652 1 32.8992 3.68686 12.5651
1656 1 34.9926 2.40115 12.6552
1641 1 37.2995 0.976068 12.9112
1633 1 37.306 3.67144 12.9469
1917 1 26.8129 36.5682 15.0869
1680 1 34.9456 0.0552178 12.9187
1944 1 29.5287 35.0247 14.9037
1739 1 28.7982 6.31346 13.2285
1807 1 26.4762 5.13074 13.1663
1689 1 30.8755 7.69164 13.1497
1626 1 30.6408 5.04135 12.6313
1624 1 33.116 6.30552 12.7936
1628 1 35.1604 5.00383 12.6381
1621 1 35.2971 7.44133 12.7213
1701 1 37.3285 6.26053 13.1833
1622 1 39.5139 4.99151 13.0038
1643 1 30.5538 -0.465497 12.9919
1754 1 39.7252 32.8838 12.9545
1741 1 28.8138 8.73652 12.9619
1737 1 29.094 11.2195 12.7376
1568 1 31.1054 10.3458 13.3174
1869 1 32.8646 9.04501 12.7652
1809 1 33.1113 11.507 13.1839
1814 1 35.105 9.96186 12.916
1838 1 37.3518 11.2993 13.0467
1734 1 37.5131 8.73361 12.812
1955 1 36.0532 8.24183 14.6839
1957 1 37.8172 9.9374 15.0667
1959 1 35.7502 11.2277 14.7624
1786 1 30.8941 12.5526 12.929
1859 1 28.7616 13.6264 13.0067
1789 1 28.5162 16.3136 13.0225
1849 1 30.9473 15.1325 13.1177
1573 1 33.0249 16.3625 12.7584
1796 1 32.8317 13.9428 12.6549
1848 1 35.0469 15.2595 12.8916
1846 1 35.0622 12.6031 12.6853
1889 1 37.1197 14.043 12.9117
1704 1 37.2069 16.5732 12.9225
1797 1 39.5557 12.7003 13.0134
1947 1 28.7791 18.8623 12.8343
1724 1 30.7967 17.4667 12.677
1851 1 30.8396 20.014 12.6929
1575 1 32.8696 18.7802 12.7471
1681 1 34.946 20.2007 13.0578
1886 1 35.079 17.7594 13.0519
1892 1 37.0148 19.0503 12.8445
1753 1 39.2375 20.0722 12.7816
1905 1 36.4753 30.2185 14.7958
1720 1 28.7032 21.5742 12.915
1735 1 28.6884 23.8788 12.8098
1549 1 30.9834 22.5662 12.5285
1580 1 32.7425 23.8847 12.8931
1577 1 32.8859 21.2561 12.7623
1857 1 34.9976 22.6067 12.9871
1850 1 37.2644 21.2521 13.1867
1945 1 38.971 21.4422 15.2689
1942 1 36.4458 22.833 14.7711
1840 1 38.6937 23.8557 15.2413
1875 1 37.4448 23.8144 12.781
1678 1 39.5445 22.6396 12.8576
1713 1 30.7477 25.0942 12.6125
1798 1 28.2248 28.9869 13.0898
1862 1 28.3568 26.4166 13.1266
1827 1 30.6428 27.7791 12.9721
1554 1 26.1353 27.647 13.0093
1963 1 33.979 26.1317 15.1527
1919 1 32.9597 28.908 12.9812
1928 1 34.3525 28.5954 15.0985
1940 1 32.8458 26.5307 12.8769
1609 1 34.9415 25.032 13.2672
1843 1 35.0548 27.5273 13.1411
1858 1 36.4779 25.1871 14.9789
1911 1 38.8499 26.4176 14.9253
1844 1 37.4903 28.965 12.9124
1870 1 38.8447 28.8552 14.9457
1888 1 36.6323 27.7563 15.1275
1374 1 37.4641 26.3734 12.7465
1950 1 27.5459 31.7768 14.8837
1722 1 28.3477 31.5634 12.7205
1833 1 30.6396 32.8452 12.6069
1943 1 36.4946 32.9536 15.0785
1845 1 30.6507 30.1904 12.7099
1810 1 32.9038 31.6302 12.8527
1948 1 31.9426 32.8296 14.7985
1910 1 32.2614 30.2442 14.6769
1921 1 34.3812 31.6646 14.8045
1863 1 38.7489 31.4181 15.115
1752 1 37.3504 31.5437 12.608
1829 1 35.1823 32.8251 13.0001
1867 1 34.9334 30.3659 12.6836
819 1 39.4933 10.196 6.66116
823 1 39.6234 15.2839 6.25483
833 1 39.5617 28.0128 6.37767
1645 1 39.4279 2.35413 12.9407
1662 1 39.7735 7.66363 13.1936
1699 1 39.6254 25.1777 12.8779
1804 1 39.6103 27.5769 13.0076
1710 1 39.4989 35.6621 13.0968
999 1 26.3761 10.2041 6.29298
1009 1 26.3973 22.5676 6.40666
1013 1 26.3558 27.8827 6.23999
1015 1 26.3607 30.4096 6.1963
1792 1 26.4606 17.7686 12.9706
1842 1 26.6035 20.3006 12.8834
1790 1 26.2755 25.132 12.7085
1864 1 26.3504 22.7429 13.0452
1966 1 15.963279914894684 30.14765374966838 38
