# LAMMPS data file written by OVITO Basic 3.7.11
1690 atoms
1 atom types
0.0 39.57150679 xlo xhi
0.0 38.07770017 ylo yhi
0.0 40.4361248 zlo zhi

Masses

1 63.550  # Cu

Atoms  

1 1 0 0 0
2 1 2.19842 1.26926 0
3 1 0 2.53851 0
4 1 2.19842 3.80777 0
271 1 1.46561 2.31199e-16 2.07269
272 1 3.66403 1.26926 2.07269
273 1 1.46561 2.53851 2.07269
274 1 3.66403 3.80777 2.07269
31 1 4.39683 0 0
33 1 4.39683 2.53851 0
32 1 6.59525 1.26926 0
34 1 6.59525 3.80777 0
301 1 5.86245 2.31199e-16 2.07269
302 1 8.06086 1.26926 2.07269
303 1 5.86245 2.53851 2.07269
304 1 8.06086 3.80777 2.07269
61 1 8.79367 0 0
62 1 10.9921 1.26926 0
63 1 8.79367 2.53851 0
64 1 10.9921 3.80777 0
331 1 10.2593 2.31199e-16 2.07269
332 1 12.4577 1.26926 2.07269
333 1 10.2593 2.53851 2.07269
334 1 12.4577 3.80777 2.07269
91 1 13.1905 0 0
93 1 13.1905 2.53851 0
5 1 0 5.07703 0
6 1 2.19842 6.34628 0
7 1 0 7.61554 0
275 1 1.46561 5.07703 2.07269
276 1 3.66403 6.34628 2.07269
277 1 1.46561 7.61554 2.07269
35 1 4.39683 5.07703 0
37 1 4.39683 7.61554 0
36 1 6.59525 6.34628 0
305 1 5.86245 5.07703 2.07269
306 1 8.06086 6.34628 2.07269
307 1 5.86245 7.61554 2.07269
577 1 7.13987 7.42477 4.16632
65 1 8.79367 5.07703 0
66 1 10.9921 6.34628 0
67 1 8.79367 7.61554 0
335 1 10.2593 5.07703 2.07269
336 1 12.4577 6.34628 2.07269
337 1 10.2593 7.61554 2.07269
95 1 13.1905 5.07703 0
97 1 13.1905 7.61554 0
8 1 2.19842 8.8848 0
9 1 0 10.1541 0
10 1 2.19842 11.4233 0
278 1 3.66403 8.8848 2.07269
279 1 1.46561 10.1541 2.07269
280 1 3.66403 11.4233 2.07269
39 1 4.39683 10.1541 0
38 1 6.59525 8.8848 0
40 1 6.59525 11.4233 0
308 1 8.06086 8.8848 2.07269
309 1 5.86245 10.1541 2.07269
310 1 8.06086 11.4233 2.07269
68 1 10.9921 8.8848 0
69 1 8.79367 10.1541 0
70 1 10.9921 11.4233 0
338 1 12.4577 8.8848 2.07269
339 1 10.2593 10.1541 2.07269
340 1 12.4577 11.4233 2.07269
99 1 13.1905 10.1541 0
11 1 0 12.6926 0
281 1 1.46561 12.6926 2.07269
41 1 4.39683 12.6926 0
12 1 2.19842 13.9618 0
13 1 0 15.2311 0
14 1 2.19842 16.5003 0
282 1 3.66403 13.9618 2.07269
283 1 1.46561 15.2311 2.07269
284 1 3.66403 16.5003 2.07269
43 1 4.39683 15.2311 0
311 1 5.86245 12.6926 2.07269
42 1 6.59525 13.9618 0
44 1 6.59525 16.5003 0
312 1 8.06086 13.9618 2.07269
313 1 5.86245 15.2311 2.07269
314 1 8.06086 16.5003 2.07269
71 1 8.79367 12.6926 0
341 1 10.2593 12.6926 2.07269
72 1 10.9921 13.9618 0
73 1 8.79367 15.2311 0
74 1 10.9921 16.5003 0
342 1 12.4577 13.9618 2.07269
343 1 10.2593 15.2311 2.07269
344 1 12.4577 16.5003 2.07269
101 1 13.1905 12.6926 0
103 1 13.1905 15.2311 0
15 1 0 17.7696 0
16 1 2.19842 19.0389 0
17 1 0 20.3081 0
285 1 1.46561 17.7696 2.07269
286 1 3.66403 19.0389 2.07269
287 1 1.46561 20.3081 2.07269
45 1 4.39683 17.7696 0
47 1 4.39683 20.3081 0
46 1 6.59525 19.0389 0
315 1 5.86245 17.7696 2.07269
316 1 8.06086 19.0389 2.07269
317 1 5.86245 20.3081 2.07269
75 1 8.79367 17.7696 0
76 1 10.9921 19.0389 0
77 1 8.79367 20.3081 0
345 1 10.2593 17.7696 2.07269
346 1 12.4577 19.0389 2.07269
347 1 10.2593 20.3081 2.07269
105 1 13.1905 17.7696 0
107 1 13.1905 20.3081 0
18 1 2.19842 21.5774 0
19 1 0 22.8466 0
20 1 2.19842 24.1159 0
21 1 0 25.3851 0
288 1 3.66403 21.5774 2.07269
289 1 1.46561 22.8466 2.07269
290 1 3.66403 24.1159 2.07269
291 1 1.46561 25.3851 2.07269
49 1 4.39683 22.8466 0
51 1 4.39683 25.3851 0
48 1 6.59525 21.5774 0
50 1 6.59525 24.1159 0
318 1 8.06086 21.5774 2.07269
319 1 5.86245 22.8466 2.07269
320 1 8.06086 24.1159 2.07269
321 1 5.86245 25.3851 2.07269
78 1 10.9921 21.5774 0
79 1 8.79367 22.8466 0
80 1 10.9921 24.1159 0
81 1 8.79367 25.3851 0
348 1 12.4577 21.5774 2.07269
349 1 10.2593 22.8466 2.07269
350 1 12.4577 24.1159 2.07269
351 1 10.2593 25.3851 2.07269
109 1 13.1905 22.8466 0
111 1 13.1905 25.3851 0
22 1 2.19842 26.6544 0
23 1 0 27.9236 0
24 1 2.19842 29.1929 0
292 1 3.66403 26.6544 2.07269
293 1 1.46561 27.9236 2.07269
294 1 3.66403 29.1929 2.07269
53 1 4.39683 27.9236 0
564 1 0.622565 29.3001 4.34619
52 1 6.59525 26.6544 0
54 1 6.59525 29.1929 0
322 1 8.06086 26.6544 2.07269
323 1 5.86245 27.9236 2.07269
324 1 8.06086 29.1929 2.07269
82 1 10.9921 26.6544 0
83 1 8.79367 27.9236 0
84 1 10.9921 29.1929 0
352 1 12.4577 26.6544 2.07269
353 1 10.2593 27.9236 2.07269
354 1 12.4577 29.1929 2.07269
113 1 13.1905 27.9236 0
25 1 0 30.4622 0
26 1 2.19842 31.7314 0
27 1 0 33.0007 0
295 1 1.46561 30.4622 2.07269
296 1 3.66403 31.7314 2.07269
297 1 1.46561 33.0007 2.07269
55 1 4.39683 30.4622 0
57 1 4.39683 33.0007 0
56 1 6.59525 31.7314 0
325 1 5.86245 30.4622 2.07269
326 1 8.06086 31.7314 2.07269
327 1 5.86245 33.0007 2.07269
85 1 8.79367 30.4622 0
86 1 10.9921 31.7314 0
87 1 8.79367 33.0007 0
355 1 10.2593 30.4622 2.07269
356 1 12.4577 31.7314 2.07269
357 1 10.2593 33.0007 2.07269
115 1 13.1905 30.4622 0
117 1 13.1905 33.0007 0
28 1 2.19842 34.2699 0
29 1 0 35.5392 0
30 1 2.19842 36.8084 0
298 1 3.66403 34.2699 2.07269
299 1 1.46561 35.5392 2.07269
300 1 3.66403 36.8084 2.07269
59 1 4.39683 35.5392 0
568 1 0.888063 34.1247 4.31037
58 1 6.59525 34.2699 0
60 1 6.59525 36.8084 0
328 1 8.06086 34.2699 2.07269
329 1 5.86245 35.5392 2.07269
330 1 8.06086 36.8084 2.07269
88 1 10.9921 34.2699 0
89 1 8.79367 35.5392 0
90 1 10.9921 36.8084 0
358 1 12.4577 34.2699 2.07269
359 1 10.2593 35.5392 2.07269
360 1 12.4577 36.8084 2.07269
119 1 13.1905 35.5392 0
543 1 2.81615 2.57116 4.2662
542 1 0.708709 1.37773 4.46509
544 1 0.712449 3.93716 4.30743
812 1 2.10669 1.27215 6.64434
814 1 2.07619 3.71504 6.36794
843 1 4.30877 2.25865 6.54523
541 1 2.78346 38.0438 4.33916
572 1 4.97123 1.14872 4.06055
573 1 7.16006 2.49355 4.12232
574 1 5.19681 3.70713 4.35805
842 1 6.40028 1.19807 6.21544
844 1 6.57512 3.74952 6.41377
873 1 8.81524 2.58467 6.51174
603 1 11.6727 2.46651 4.40875
604 1 9.49585 3.74593 4.12166
602 1 9.42133 1.27294 4.34429
872 1 11.0437 1.34209 6.38321
874 1 10.8333 3.65773 6.37495
547 1 2.93276 7.81554 4.17281
546 1 0.775189 6.35755 4.37158
545 1 2.91206 5.22875 4.40502
816 1 2.20069 6.27139 6.67196
845 1 4.27115 4.88884 6.3882
817 1 0.12294 7.53415 6.52071
847 1 4.45566 7.54007 6.65712
576 1 5.03494 6.47002 4.5516
575 1 7.25836 5.12798 4.26335
846 1 6.50746 6.40522 6.37665
875 1 8.84024 4.9905 6.4028
877 1 8.98147 7.53756 6.38948
606 1 9.39428 6.21208 4.21594
607 1 11.879 7.53137 4.31845
605 1 11.7407 5.0596 4.40908
876 1 11.0254 6.2384 6.36796
907 1 13.34 7.71446 6.46992
549 1 3.06935 10.1793 4.22183
548 1 0.78564 8.79712 4.33794
550 1 0.898853 11.3913 4.21536
818 1 2.22361 8.77837 6.29417
820 1 2.29359 11.2576 6.71185
849 1 4.60738 10.0523 6.40214
851 1 4.54743 12.3532 6.43285
579 1 7.50136 10.0938 4.22243
578 1 5.22605 8.97585 4.27525
580 1 5.40417 11.2534 4.10182
848 1 6.8404 8.73666 6.39288
850 1 6.73693 11.2377 6.52772
879 1 8.74528 10.0854 6.45293
881 1 8.88487 12.7153 6.1714
608 1 9.6104 8.8527 4.14303
610 1 9.61432 11.3873 4.09363
609 1 11.7295 10.1838 4.28041
878 1 11.0184 8.78128 6.55886
880 1 11.0178 11.3802 6.53145
551 1 3.05358 12.8415 4.3003
552 1 0.988886 13.9397 4.28577
554 1 0.670973 16.4128 4.22446
553 1 2.87742 15.4029 4.44131
822 1 2.09204 13.7767 6.33566
824 1 2.14729 16.4347 6.61122
1627 1 10.9808 24.564 12.7015
1650 1 10.7559 22.0656 13.1826
581 1 7.35058 12.6955 4.20676
853 1 4.49304 15.052 6.17322
582 1 5.06707 13.7428 4.14994
584 1 5.04526 16.6172 4.23081
583 1 7.25301 15.2139 4.10021
852 1 6.6517 14.0223 6.3807
854 1 6.56199 16.5773 6.35596
883 1 8.71979 15.3743 6.39967
611 1 11.8272 12.6423 4.24201
612 1 9.61164 13.9737 4.09875
613 1 11.8732 15.2112 4.11387
614 1 9.68507 16.389 4.30689
882 1 10.915 14.1053 6.30269
884 1 10.9862 16.6434 6.40358
555 1 3.01053 17.6552 4.1655
557 1 2.95343 20.1654 4.18116
556 1 0.688733 18.9908 4.28677
826 1 2.23541 18.9245 6.51751
857 1 4.40017 20.1548 6.59459
855 1 4.23462 17.6789 6.52846
586 1 4.96501 19.0835 4.29356
587 1 7.30588 20.1227 4.35323
585 1 7.25915 17.5697 4.13053
856 1 6.57956 18.9646 6.57328
885 1 8.82618 17.8086 6.16978
887 1 8.6776 20.1425 6.43762
616 1 9.57921 18.9622 4.26666
615 1 11.7907 17.7026 4.41571
617 1 11.6094 20.2059 4.15253
886 1 11.0085 19.201 6.44308
560 1 0.787816 24.2496 4.29903
559 1 2.91527 22.5915 4.19163
558 1 0.806022 21.4881 4.09579
828 1 2.19332 21.6184 6.27052
830 1 2.30946 23.9146 6.40001
859 1 4.35019 22.8202 6.42422
588 1 5.28561 21.4512 4.2877
589 1 7.35594 22.6556 3.99452
590 1 5.14538 24.1953 4.35109
858 1 6.47066 21.3961 6.38154
860 1 6.56181 24.1149 6.38976
591 1 7.4302 25.3946 4.13877
889 1 8.93005 22.8617 6.67365
891 1 8.68697 25.451 6.37583
619 1 11.7006 22.7707 4.38711
620 1 9.56092 23.9836 4.43554
618 1 9.48224 21.4849 4.62937
888 1 10.9337 21.6041 6.73525
890 1 11.2911 24.1861 6.43671
621 1 11.5748 25.4311 4.11673
831 1 -0.0940548 25.3441 6.42592
561 1 3.04626 25.4598 4.2246
563 1 2.98926 28.032 4.25909
562 1 0.7397 26.8228 4.11184
832 1 2.14542 26.6002 6.31982
834 1 2.14463 29.0536 6.39523
833 1 -0.0794088 28.0308 6.44589
861 1 4.38567 25.4235 6.35684
863 1 4.34587 28.0865 6.47252
594 1 5.13794 29.0623 4.48434
592 1 5.05559 26.7528 4.22564
593 1 7.33444 27.8615 4.01586
862 1 6.53355 26.7279 6.35914
864 1 6.53716 29.404 6.27771
923 1 13.2829 28.049 6.10279
893 1 8.64314 27.981 6.27846
624 1 9.54393 29.2306 4.34151
623 1 11.8274 27.9211 4.01628
622 1 9.44934 26.7342 4.21488
892 1 11.0457 26.6928 6.09849
894 1 10.8501 29.1343 6.45321
566 1 0.631993 31.7621 4.24603
567 1 3.0155 32.9524 4.25642
565 1 2.7495 30.4842 4.35576
836 1 2.2471 31.8761 6.37048
835 1 0.0422226 30.4467 6.41512
867 1 4.65836 33.0688 6.42091
596 1 5.12135 31.5202 4.41239
865 1 4.36862 30.584 6.45523
597 1 7.24744 32.9387 4.28955
595 1 7.33025 30.3737 4.32774
866 1 6.84094 31.8159 6.40668
895 1 8.7866 30.43 6.34414
627 1 11.7063 33.0273 4.18095
625 1 11.7381 30.4477 4.10273
897 1 8.82005 33.0769 6.29884
626 1 9.48214 31.4904 4.35809
896 1 11.0723 31.6945 6.35236
1639 1 6.36899 24.0603 12.3838
841 1 4.49039 37.754 6.31222
839 1 0.0557516 35.5378 6.26392
811 1 -0.140322 -0.263501 6.50819
570 1 0.831501 36.9206 4.20997
569 1 3.14883 35.5355 4.22496
838 1 2.44298 34.3185 6.5199
840 1 2.26203 36.8484 6.39502
571 1 7.32001 38.1203 4.21386
869 1 4.50732 35.4071 6.3564
599 1 7.36984 35.6678 4.2188
598 1 5.09701 34.1548 4.34398
600 1 5.26328 36.7855 4.2153
868 1 6.71643 34.4096 6.32118
870 1 6.80535 36.8445 7.10118
871 1 8.66386 0.242307 6.49795
899 1 8.95634 35.6294 6.55397
601 1 11.8014 0.0365154 4.14485
628 1 9.42972 34.2273 4.22056
630 1 9.51449 36.9052 4.42253
629 1 11.6477 35.5993 4.50095
898 1 10.9176 34.21 6.44026
900 1 11.0746 37.0497 6.34415
929 1 13.1345 35.6479 6.43866
901 1 13.2066 0.00936604 6.44522
1082 1 3.84363 1.43578 8.77145
1083 1 1.59927 2.60822 8.78281
1084 1 3.61178 3.9272 8.64326
1352 1 0.91577 1.2155 11.1031
1353 1 3.08013 2.72725 10.7701
1354 1 0.744762 3.8017 10.6354
1112 1 8.18191 1.21043 8.83385
1113 1 6.04227 2.75536 8.41397
1114 1 8.0709 3.92838 8.62316
1382 1 5.19987 1.26522 11.2111
1383 1 7.44162 2.45363 10.8155
1384 1 5.27579 4.12209 11.0128
1381 1 7.4385 37.9959 10.9943
1142 1 12.5505 1.21732 8.49484
1143 1 10.3691 2.61843 8.56597
1144 1 12.5805 3.60646 8.53867
1412 1 9.37639 0.954877 10.6834
1413 1 11.45 2.74373 10.7945
1414 1 9.48296 3.85156 10.8795
1141 1 10.4456 38.2501 8.7911
1411 1 11.5688 0.304888 10.9414
1085 1 1.45466 5.15378 8.61896
1086 1 3.56137 6.56773 8.88299
1087 1 1.41592 7.60501 8.79959
1355 1 3.19493 5.10929 11.5508
1356 1 0.91133 6.38696 11.0227
1357 1 3.12281 7.68534 11.1598
1115 1 5.71866 5.19542 8.70945
1116 1 7.9501 6.30915 8.42647
1117 1 5.75226 7.67581 8.70498
1385 1 7.45076 5.27606 10.5864
1386 1 5.10496 6.43269 10.8456
1387 1 7.42804 7.6173 11.2768
1147 1 10.1063 7.59124 8.64938
1146 1 12.5245 6.29859 8.70898
1145 1 10.108 5.07428 8.45374
1415 1 11.534 5.05553 10.5305
1416 1 9.3792 6.39682 10.4657
1417 1 11.7244 7.51172 10.6858
1090 1 3.71483 11.6565 8.79253
1088 1 3.62475 8.93415 8.79716
1089 1 1.57648 10.141 8.7807
1358 1 0.650781 8.92537 10.7836
1359 1 2.77496 10.0603 10.8038
1360 1 0.7459 11.4696 10.923
1361 1 2.89152 12.6385 10.8914
1388 1 5.24135 8.98883 10.9855
1120 1 8.35772 11.6096 8.25852
1118 1 8.0245 8.88699 8.81419
1119 1 5.6689 10.3412 8.64666
1389 1 7.22888 10.1308 10.7892
1390 1 5.2834 11.5416 10.7208
1121 1 5.8127 12.8064 8.34709
1391 1 7.40779 12.9951 11.3015
1148 1 12.4944 8.68932 8.84982
1150 1 12.3662 11.5906 8.72479
1149 1 10.3828 10.2727 8.54952
1418 1 9.37091 9.03102 10.7855
1419 1 11.6609 10.1508 10.7238
1420 1 9.48241 11.4663 10.6811
1151 1 10.3805 12.9314 8.36433
1091 1 1.51765 12.7212 8.80528
1092 1 3.84609 14.1713 8.32707
1093 1 1.5811 15.0716 8.43495
1094 1 3.73861 16.5615 8.64237
1362 1 0.878218 14.0734 10.8146
1363 1 2.86301 15.3 10.8618
1364 1 0.873756 16.4553 10.5347
1124 1 8.13705 16.6657 8.509
1122 1 8.00012 13.9604 8.76975
1123 1 5.95072 15.2836 8.47011
1392 1 4.99314 14.1065 10.6914
1393 1 7.435 15.4997 10.7855
1394 1 4.95183 16.6244 10.7021
1421 1 11.7517 12.4981 10.7179
1152 1 12.4836 14.0853 8.72476
1153 1 10.0241 15.1464 8.72146
1154 1 12.5017 16.6553 8.46739
1422 1 9.50406 13.9116 10.7153
1423 1 11.541 15.482 10.5948
1424 1 9.57297 16.6454 10.6642
1097 1 1.22803 20.2431 8.44097
1095 1 1.43085 17.8486 8.57386
1096 1 3.88845 18.8604 8.64591
1365 1 2.90265 17.8407 10.9934
1366 1 0.367617 19.1914 10.6136
1367 1 2.86637 20.2843 10.413
1127 1 5.92747 20.2852 8.73116
1125 1 6.1317 17.8916 8.81675
1126 1 8.26727 19.2137 8.84117
1395 1 7.49808 17.8691 10.8575
1396 1 5.182 19.0204 10.9712
1397 1 7.40757 20.4586 10.797
1155 1 10.3206 17.7361 8.65225
1156 1 12.4351 19.3568 8.71343
1157 1 10.4904 20.5985 9.18645
1425 1 11.6241 17.9188 10.7014
1426 1 9.56452 19.1332 11.0282
1427 1 12.0276 20.5765 11.5508
1368 1 0.576614 21.705 10.679
1098 1 3.78355 21.401 8.47509
1099 1 1.51858 22.7951 8.56524
1100 1 3.5923 23.9967 8.49108
1369 1 2.79022 22.8795 10.59
1370 1 0.612506 24.166 10.3065
1101 1 1.55017 25.3076 8.2863
1371 1 2.76653 25.472 10.2956
1400 1 5.10954 24.0907 10.4117
1128 1 8.11762 21.5857 8.43521
1129 1 5.81108 22.716 8.47281
1130 1 7.91928 24.13 8.5737
1398 1 5.1557 21.696 10.677
1399 1 7.42665 22.9024 10.6895
1131 1 5.75941 25.4532 8.34051
1428 1 9.71612 21.9315 11.0141
1158 1 12.5606 21.6047 8.48827
1159 1 10.348 23.1774 8.75938
1160 1 12.6129 24.3503 8.44225
1429 1 11.9671 23.1015 10.9518
1430 1 9.51048 24.2655 10.7183
1431 1 11.6172 25.3578 10.3182
1102 1 3.45722 26.728 8.45536
1103 1 1.3783 28.0827 8.34004
1104 1 3.61444 29.3116 8.57965
1372 1 0.728248 26.6568 10.6899
1373 1 2.94948 27.9863 10.4142
1374 1 0.979587 29.1284 10.8232
1401 1 7.18423 25.5181 10.582
1134 1 8.13334 29.2668 8.67408
1132 1 7.91694 26.8297 8.41041
1133 1 5.7854 28.2219 8.29952
1402 1 5.11261 26.6941 10.4697
1403 1 7.33392 27.9393 10.3951
1404 1 5.29161 29.3834 10.6906
1161 1 10.1953 25.4694 8.22074
1162 1 12.518 26.6466 8.15136
1163 1 10.3156 27.8301 8.53064
1164 1 12.1874 29.2992 8.22862
1432 1 9.45342 26.7251 10.6036
1433 1 11.5711 27.8974 10.6273
1434 1 9.48488 29.3518 10.6766
1105 1 1.53974 30.5265 8.67082
1106 1 3.68667 31.7525 8.79281
1107 1 1.49209 33.0938 8.63522
1375 1 3.11689 30.4201 10.8335
1376 1 0.867697 31.6974 10.7469
1377 1 2.84216 33.0503 11.0402
1136 1 8.12886 31.796 8.49726
1135 1 5.85701 30.5266 8.58861
1137 1 5.69938 32.9081 8.69521
1405 1 7.26636 30.5027 11.0079
1406 1 5.17714 31.7651 11.1171
1407 1 7.23815 33.1154 10.873
1165 1 10.13 30.6709 8.42729
1166 1 12.5152 31.9311 8.57834
1167 1 10.3347 33.0257 8.58898
1435 1 11.5607 30.547 10.5213
1436 1 9.39593 31.8849 10.6475
1437 1 11.5142 33.0352 10.7266
1351 1 3.21865 -0.0737442 11.106
1081 1 1.46232 0.0253161 8.86673
1109 1 1.33295 35.6581 8.59551
1378 1 0.616994 34.0735 10.5274
1108 1 3.53643 34.5719 8.708
1380 1 0.63928 36.7288 10.8199
1379 1 2.57537 35.6049 10.6741
1110 1 3.713 36.8529 8.75351
1111 1 6.05846 38.3605 8.75036
1138 1 7.91719 34.3081 8.60334
1408 1 5.00277 34.1048 10.7268
1409 1 7.35951 35.6015 11.0729
1139 1 5.85563 35.4981 8.89878
1140 1 8.07407 36.6124 8.9338
1410 1 5.10649 36.6462 11.064
1438 1 9.32923 34.3698 10.6023
1170 1 12.3679 36.8552 8.63469
1439 1 11.5977 35.7551 10.7729
1169 1 10.245 35.5394 8.54135
1168 1 12.5649 34.4949 8.94104
1440 1 9.61597 36.8308 10.7558
1670 1 2.467 1.59267 12.8665
1668 1 2.06022 4.14174 13.2642
1676 1 4.52333 2.96837 12.9681
1667 1 1.90386 6.51281 13.2009
1662 1 -0.149208 8.00421 13.109
1682 1 2.01071 8.94546 12.9216
1688 1 6.17559 16.7884 12.6878
1646 1 4.03425 20.6252 12.5987
1640 1 6.56103 21.6724 13.0081
1649 1 8.76972 20.6068 12.9769
1648 1 6.54502 19.1318 12.8759
1637 1 8.69426 23.4539 12.8914
1642 1 2.22919 22.0002 14.0012
1630 1 4.26131 23.01 12.7071
1679 1 2.31146 24.3225 12.4361
903 1 13.3091 2.39402 6.52266
905 1 13.3223 5.03818 6.51513
911 1 13.1513 12.6794 6.45593
913 1 13.2486 15.1752 6.57103
915 1 13.2832 17.7662 6.47112
917 1 13.0995 20.1846 6.1682
919 1 13.1887 22.6696 6.21827
927 1 13.3624 33.126 6.43782
819 1 0.0469483 9.94498 6.52421
827 1 0.148411 20.2979 6.30756
1681 1 0.385318 22.5172 12.9124
1657 1 1.44993 20.1994 12.4979
92 1 15.3889 1.26926 0
94 1 15.3889 3.80777 0
361 1 14.6561 2.31199e-16 2.07269
362 1 16.8545 1.26926 2.07269
363 1 14.6561 2.53851 2.07269
364 1 16.8545 3.80777 2.07269
121 1 17.5873 0 0
123 1 17.5873 2.53851 0
122 1 19.7858 1.26926 0
124 1 19.7858 3.80777 0
391 1 19.0529 2.31199e-16 2.07269
392 1 21.2514 1.26926 2.07269
393 1 19.0529 2.53851 2.07269
394 1 21.2514 3.80777 2.07269
151 1 21.9842 0 0
152 1 24.1826 1.26926 0
153 1 21.9842 2.53851 0
154 1 24.1826 3.80777 0
421 1 23.4498 2.31199e-16 2.07269
422 1 25.6482 1.26926 2.07269
423 1 23.4498 2.53851 2.07269
424 1 25.6482 3.80777 2.07269
181 1 26.381 0 0
183 1 26.381 2.53851 0
96 1 15.3889 6.34628 0
365 1 14.6561 5.07703 2.07269
366 1 16.8545 6.34628 2.07269
367 1 14.6561 7.61554 2.07269
125 1 17.5873 5.07703 0
127 1 17.5873 7.61554 0
635 1 16.3604 4.99259 3.98446
126 1 19.7858 6.34628 0
395 1 19.0529 5.07703 2.07269
396 1 21.2514 6.34628 2.07269
397 1 19.0529 7.61554 2.07269
155 1 21.9842 5.07703 0
156 1 24.1826 6.34628 0
157 1 21.9842 7.61554 0
425 1 23.4498 5.07703 2.07269
426 1 25.6482 6.34628 2.07269
427 1 23.4498 7.61554 2.07269
185 1 26.381 5.07703 0
187 1 26.381 7.61554 0
98 1 15.3889 8.8848 0
100 1 15.3889 11.4233 0
368 1 16.8545 8.8848 2.07269
369 1 14.6561 10.1541 2.07269
370 1 16.8545 11.4233 2.07269
129 1 17.5873 10.1541 0
639 1 16.06 10.2679 4.22908
128 1 19.7858 8.8848 0
130 1 19.7858 11.4233 0
398 1 21.2514 8.8848 2.07269
399 1 19.0529 10.1541 2.07269
400 1 21.2514 11.4233 2.07269
158 1 24.1826 8.8848 0
159 1 21.9842 10.1541 0
160 1 24.1826 11.4233 0
428 1 25.6482 8.8848 2.07269
429 1 23.4498 10.1541 2.07269
430 1 25.6482 11.4233 2.07269
189 1 26.381 10.1541 0
371 1 14.6561 12.6926 2.07269
131 1 17.5873 12.6926 0
102 1 15.3889 13.9618 0
104 1 15.3889 16.5003 0
372 1 16.8545 13.9618 2.07269
373 1 14.6561 15.2311 2.07269
374 1 16.8545 16.5003 2.07269
133 1 17.5873 15.2311 0
401 1 19.0529 12.6926 2.07269
132 1 19.7858 13.9618 0
134 1 19.7858 16.5003 0
402 1 21.2514 13.9618 2.07269
403 1 19.0529 15.2311 2.07269
404 1 21.2514 16.5003 2.07269
161 1 21.9842 12.6926 0
431 1 23.4498 12.6926 2.07269
162 1 24.1826 13.9618 0
163 1 21.9842 15.2311 0
164 1 24.1826 16.5003 0
432 1 25.6482 13.9618 2.07269
433 1 23.4498 15.2311 2.07269
434 1 25.6482 16.5003 2.07269
191 1 26.381 12.6926 0
193 1 26.381 15.2311 0
106 1 15.3889 19.0389 0
375 1 14.6561 17.7696 2.07269
376 1 16.8545 19.0389 2.07269
377 1 14.6561 20.3081 2.07269
135 1 17.5873 17.7696 0
137 1 17.5873 20.3081 0
646 1 13.9322 18.9778 4.14408
136 1 19.7858 19.0389 0
405 1 19.0529 17.7696 2.07269
406 1 21.2514 19.0389 2.07269
407 1 19.0529 20.3081 2.07269
165 1 21.9842 17.7696 0
166 1 24.1826 19.0389 0
167 1 21.9842 20.3081 0
435 1 23.4498 17.7696 2.07269
436 1 25.6482 19.0389 2.07269
437 1 23.4498 20.3081 2.07269
195 1 26.381 17.7696 0
197 1 26.381 20.3081 0
108 1 15.3889 21.5774 0
110 1 15.3889 24.1159 0
378 1 16.8545 21.5774 2.07269
379 1 14.6561 22.8466 2.07269
380 1 16.8545 24.1159 2.07269
381 1 14.6561 25.3851 2.07269
139 1 17.5873 22.8466 0
141 1 17.5873 25.3851 0
138 1 19.7858 21.5774 0
140 1 19.7858 24.1159 0
408 1 21.2514 21.5774 2.07269
409 1 19.0529 22.8466 2.07269
410 1 21.2514 24.1159 2.07269
411 1 19.0529 25.3851 2.07269
168 1 24.1826 21.5774 0
169 1 21.9842 22.8466 0
170 1 24.1826 24.1159 0
171 1 21.9842 25.3851 0
438 1 25.6482 21.5774 2.07269
439 1 23.4498 22.8466 2.07269
440 1 25.6482 24.1159 2.07269
441 1 23.4498 25.3851 2.07269
199 1 26.381 22.8466 0
201 1 26.381 25.3851 0
112 1 15.3889 26.6544 0
114 1 15.3889 29.1929 0
382 1 16.8545 26.6544 2.07269
383 1 14.6561 27.9236 2.07269
384 1 16.8545 29.1929 2.07269
143 1 17.5873 27.9236 0
652 1 13.9355 26.6638 4.08839
142 1 19.7858 26.6544 0
144 1 19.7858 29.1929 0
412 1 21.2514 26.6544 2.07269
413 1 19.0529 27.9236 2.07269
414 1 21.2514 29.1929 2.07269
172 1 24.1826 26.6544 0
173 1 21.9842 27.9236 0
174 1 24.1826 29.1929 0
442 1 25.6482 26.6544 2.07269
443 1 23.4498 27.9236 2.07269
444 1 25.6482 29.1929 2.07269
203 1 26.381 27.9236 0
116 1 15.3889 31.7314 0
385 1 14.6561 30.4622 2.07269
386 1 16.8545 31.7314 2.07269
387 1 14.6561 33.0007 2.07269
145 1 17.5873 30.4622 0
147 1 17.5873 33.0007 0
146 1 19.7858 31.7314 0
415 1 19.0529 30.4622 2.07269
416 1 21.2514 31.7314 2.07269
417 1 19.0529 33.0007 2.07269
175 1 21.9842 30.4622 0
176 1 24.1826 31.7314 0
177 1 21.9842 33.0007 0
445 1 23.4498 30.4622 2.07269
446 1 25.6482 31.7314 2.07269
447 1 23.4498 33.0007 2.07269
205 1 26.381 30.4622 0
207 1 26.381 33.0007 0
118 1 15.3889 34.2699 0
120 1 15.3889 36.8084 0
388 1 16.8545 34.2699 2.07269
389 1 14.6561 35.5392 2.07269
390 1 16.8545 36.8084 2.07269
149 1 17.5873 35.5392 0
148 1 19.7858 34.2699 0
150 1 19.7858 36.8084 0
418 1 21.2514 34.2699 2.07269
419 1 19.0529 35.5392 2.07269
420 1 21.2514 36.8084 2.07269
661 1 20.5799 0.0646964 4.16966
178 1 24.1826 34.2699 0
179 1 21.9842 35.5392 0
180 1 24.1826 36.8084 0
448 1 25.6482 34.2699 2.07269
449 1 23.4498 35.5392 2.07269
450 1 25.6482 36.8084 2.07269
209 1 26.381 35.5392 0
632 1 13.9609 1.32385 4.09308
633 1 16.1314 2.46937 4.26482
634 1 13.9336 3.74983 4.27945
902 1 15.5189 1.37015 6.57216
904 1 15.5879 3.82077 6.47048
933 1 17.7711 2.64899 6.35187
931 1 17.6535 38.2128 6.17777
631 1 16.14 0.0548673 4.255
1663 1 21.8831 28.1979 12.3125
662 1 18.4339 1.27827 4.07788
664 1 18.3943 3.79891 4.27455
663 1 20.5574 2.55549 4.45724
932 1 19.7734 1.19106 6.30628
934 1 19.8138 4.01837 6.42614
963 1 22.1149 2.5063 6.34826
693 1 25.0034 2.52584 4.50138
694 1 22.8381 3.94908 4.2521
692 1 22.8019 1.34973 4.05434
962 1 24.245 1.19414 6.46859
964 1 24.1515 4.01054 6.62898
636 1 14.0842 6.31823 4.14354
637 1 16.2931 7.4824 4.07547
906 1 15.693 6.59003 6.32746
935 1 17.7668 4.96162 6.65458
1654 1 19.7777 29.4188 12.6291
937 1 17.6849 7.80847 6.38239
666 1 18.3677 6.42517 4.31554
667 1 20.5276 7.75578 4.13051
665 1 20.6362 5.22897 4.27231
936 1 19.9616 6.54139 6.19658
967 1 22.1042 7.80006 6.38796
965 1 22.0082 5.18293 6.51593
697 1 24.8089 7.8781 4.39642
695 1 24.9389 5.25236 4.30993
696 1 22.7532 6.61285 4.2118
966 1 24.2179 6.54758 6.31847
638 1 14.0371 8.80549 4.18617
640 1 13.8899 11.2731 4.3064
908 1 15.4048 9.06425 6.28721
910 1 15.371 11.5204 6.53186
939 1 17.619 10.1318 6.49068
941 1 17.5394 12.8375 6.59378
909 1 13.1021 10.099 6.47391
1629 1 19.8157 26.7983 12.7564
669 1 20.585 10.2563 4.18893
668 1 18.4167 8.87397 4.19606
670 1 18.3342 11.5435 4.2355
938 1 19.8927 9.10981 6.53089
940 1 19.8522 11.556 6.37347
671 1 20.4632 12.7108 4.23956
969 1 21.9379 10.5315 6.28214
699 1 24.7514 10.1138 4.18005
700 1 22.6966 11.5643 4.27277
698 1 22.676 9.07765 4.10187
968 1 23.8766 9.28072 6.47035
970 1 24.0495 11.7492 6.52515
1660 1 17.4715 28.1292 12.9464
1665 1 15.1261 26.6513 12.8524
1635 1 24.0216 23.9097 12.6587
641 1 16.2074 12.5421 4.377
644 1 13.9406 16.6173 4.35751
643 1 16.0962 15.131 4.10385
642 1 13.9944 14.0457 4.1894
912 1 15.4011 13.9898 5.97563
914 1 15.386 16.5298 6.31587
943 1 17.5859 15.4003 6.56819
673 1 20.4642 15.2405 4.20081
672 1 18.0397 14.1153 4.28289
674 1 18.4702 16.571 4.42812
942 1 19.81 14.0015 6.25325
944 1 19.8146 16.6134 6.40705
971 1 21.9726 12.9741 6.45292
973 1 21.946 15.3249 6.13834
702 1 22.6712 13.9922 4.12055
701 1 24.9509 12.7346 4.34894
704 1 22.71 16.4439 4.07866
703 1 24.9468 15.1722 4.31343
972 1 24.137 14.1568 6.49616
974 1 24.172 16.6159 6.5684
647 1 16.0112 20.2176 4.20504
645 1 16.1854 17.7879 4.23874
916 1 15.3465 19.0215 6.27169
947 1 17.468 20.4584 6.37855
1673 1 21.8918 25.2139 12.6188
1644 1 22.0407 22.7671 12.8108
676 1 18.1468 18.8949 4.36177
945 1 17.6073 17.8734 6.37816
675 1 20.5439 17.7701 4.27868
677 1 20.3506 20.339 4.13556
946 1 19.7655 19.1223 6.3818
977 1 22.0635 20.5057 6.41808
975 1 22.0679 17.7505 6.32546
707 1 24.7917 20.2997 4.49246
705 1 24.8773 17.7715 4.11649
706 1 22.4567 19.1778 4.08786
976 1 24.1212 19.1466 6.68236
1007 1 26.3591 20.3895 6.44145
1631 1 19.8106 21.5673 13.0339
650 1 13.9272 24.1578 4.26768
648 1 13.7643 21.5996 4.14057
649 1 15.9423 22.7558 4.28028
918 1 15.4495 21.5688 6.35311
920 1 15.4422 24.1476 6.41784
949 1 17.6587 22.828 6.44471
1636 1 19.7583 24.0663 12.476
679 1 20.4342 23.0578 4.12548
680 1 18.2242 23.9601 4.33249
678 1 18.2492 21.6774 4.05085
948 1 19.8383 21.6287 6.40927
950 1 19.9872 24.2586 6.36443
979 1 22.212 22.785 6.07692
710 1 22.8695 23.9299 4.17873
709 1 24.9561 22.7143 4.1093
708 1 22.692 21.5895 4.10974
978 1 24.3443 21.828 6.42923
980 1 24.1841 24.2091 6.455
1634 1 17.7234 22.9624 12.6673
1647 1 15.6313 24.3279 12.63
654 1 13.8553 29.2302 4.06923
651 1 16.0426 25.3473 4.25492
653 1 16.1568 27.9152 4.39453
922 1 15.4587 26.8761 6.49352
924 1 15.4328 29.3317 6.45286
953 1 17.4357 28.039 6.17707
921 1 13.4744 25.6004 6.33817
981 1 22.0234 25.3877 6.5013
951 1 17.5918 25.515 6.35862
681 1 20.6685 25.4512 4.22123
682 1 18.4694 26.6497 4.26813
683 1 20.6119 27.8881 4.35545
684 1 18.4982 29.2272 4.11612
952 1 19.6754 26.8424 6.29949
954 1 19.864 29.4919 6.37997
983 1 22.0978 28.2107 6.19271
711 1 24.8104 25.2583 4.02439
712 1 22.8213 26.5279 4.12628
714 1 22.7926 29.3552 4.27912
713 1 24.9318 27.9899 4.30656
982 1 24.0603 26.766 6.15977
984 1 24.2205 29.4031 6.41684
1658 1 15.4078 21.8378 12.5795
657 1 16.0111 33.1361 4.36188
655 1 15.8203 30.6397 4.29505
656 1 13.8921 32.0108 4.0818
926 1 15.3166 31.8827 6.71133
957 1 17.6479 33.1229 6.66286
955 1 17.5195 30.5677 6.33376
686 1 18.3705 31.572 4.19806
685 1 20.54 30.6729 4.27326
687 1 20.3596 33.1961 4.21211
956 1 19.6575 31.7815 6.42841
987 1 21.962 33.1034 6.5345
985 1 21.8647 30.7771 6.38523
717 1 24.7282 33.0126 4.06409
715 1 24.8642 30.5751 4.15693
716 1 22.5612 31.8693 4.27102
986 1 24.2461 31.8455 6.27447
1632 1 17.6148 25.5685 12.542
658 1 13.9828 34.3205 4.44089
660 1 14.1236 36.7652 4.28719
659 1 16.2637 35.5827 4.53017
928 1 15.4654 34.56 6.85956
930 1 15.5466 37.044 6.37567
961 1 22.1811 0.00712582 6.40883
959 1 17.6703 35.7215 6.52636
689 1 20.4014 35.6137 4.08472
688 1 18.1413 34.1911 4.32351
690 1 18.2809 36.8621 4.04934
958 1 19.7745 34.5049 6.50591
960 1 19.8899 36.8272 6.28162
989 1 22.0506 35.5387 6.53861
691 1 24.9244 38.2663 4.226
719 1 24.8514 35.6654 4.18613
718 1 22.5369 34.3223 4.44694
720 1 22.7754 36.8311 4.31266
988 1 24.0573 34.1872 6.33764
990 1 24.2479 36.8488 6.51132
1664 1 24.113 19.1587 12.9136
1172 1 16.8819 1.47455 8.93102
1173 1 14.8837 2.59607 8.90129
1174 1 16.9763 3.84191 8.81711
1442 1 13.6816 1.51126 10.7284
1443 1 16.0055 2.75385 11.0779
1444 1 13.8432 3.96056 10.6976
1171 1 14.732 0.0744134 8.48131
1203 1 19.0093 2.53591 8.37438
1202 1 21.6004 1.3337 8.51503
1204 1 21.276 4.14089 8.70891
1472 1 18.3912 1.67959 11.124
1473 1 20.543 2.6955 10.9993
1474 1 18.1461 4.15697 10.9764
1201 1 19.1455 38.1708 8.21457
1233 1 23.5003 2.73525 8.84362
1232 1 25.5844 1.50626 8.67197
1502 1 22.8031 1.43316 10.7185
1503 1 24.9402 2.49503 10.8476
1234 1 25.7143 3.97562 8.77366
1504 1 22.7581 4.0735 10.9178
1231 1 23.6718 38.2605 8.7199
1501 1 24.9532 38.1834 10.9591
1177 1 14.7453 7.54966 8.43916
1175 1 14.6553 5.2517 8.58204
1176 1 16.8851 6.42685 8.73116
1445 1 15.9667 5.16288 10.8662
1446 1 13.9153 6.54029 10.7556
1447 1 16.1411 7.97088 10.4934
1205 1 19.0135 5.16219 8.70301
1206 1 21.2691 6.61082 8.61768
1207 1 19.2954 7.84086 8.30977
1475 1 20.4525 5.47839 10.8277
1476 1 18.1529 6.6721 10.9265
1477 1 20.6804 7.98446 10.6621
1237 1 23.3115 7.8204 8.48365
1235 1 23.5127 5.24982 8.67863
1236 1 25.52 6.57395 8.58527
1505 1 25.0015 5.09462 10.796
1506 1 22.7206 6.7236 11.0463
1507 1 24.8563 7.68095 10.7422
1180 1 16.8473 11.5831 8.61976
1178 1 17.0152 9.17743 8.53439
1179 1 14.5298 10.0195 8.54567
1448 1 14.0322 8.90371 10.9508
1449 1 16.0554 10.2461 11.108
1450 1 14.096 11.5547 10.6486
1451 1 16.0572 12.6923 10.8146
1209 1 19.1768 10.4529 8.62972
1478 1 18.1789 9.19557 10.8194
1208 1 21.3907 9.14794 8.46328
1210 1 21.2462 11.7729 8.34274
1479 1 20.7509 10.3432 10.5598
1480 1 18.4487 11.6325 10.6624
1481 1 20.6522 12.8209 10.6591
1508 1 23.0204 9.19369 10.8871
1238 1 25.7733 8.84934 8.6552
1239 1 23.2417 10.4173 8.70574
1240 1 25.6594 11.4287 8.57815
1509 1 25.0452 10.3946 10.6225
1510 1 22.8135 11.7144 10.8921
1511 1 24.9283 12.8717 10.7714
1241 1 23.4361 12.8264 8.66546
1181 1 14.5294 12.8234 8.72288
1182 1 16.7418 14.0018 8.71258
1183 1 14.8118 15.2221 8.4387
1184 1 16.8091 16.5634 8.48738
1452 1 13.548 13.9208 10.9117
1453 1 16.1679 15.3618 10.7071
1454 1 14.0909 16.5228 10.6925
1211 1 19.0309 12.9128 8.50466
1212 1 21.4869 14.2671 8.38141
1213 1 19.044 15.3622 8.57333
1214 1 21.5209 16.6915 8.48816
1482 1 18.308 13.8597 10.7581
1483 1 20.707 15.4657 10.6232
1484 1 18.4455 16.8129 10.6486
1242 1 25.6355 14.0102 8.64661
1243 1 23.4602 15.4932 8.58053
1244 1 25.6802 16.6187 8.48088
1512 1 22.8225 14.3242 10.6917
1513 1 25.0796 15.3206 10.6315
1514 1 22.8913 16.7098 10.8258
1185 1 14.647 17.7329 8.64068
1456 1 13.8045 18.8094 10.6988
1187 1 14.9048 20.4654 8.44539
1186 1 16.9528 19.1103 8.6273
1455 1 16.2635 17.6892 10.6126
1457 1 15.8658 20.1611 10.8921
1216 1 21.3069 19.1724 8.26916
1215 1 19.2112 17.9434 8.44191
1217 1 18.9407 20.5983 8.39896
1485 1 20.6675 18.0889 10.3067
1486 1 18.3885 19.3532 10.5591
1487 1 20.7743 20.3184 10.4957
1245 1 23.6805 17.9003 8.63014
1246 1 25.7882 19.0576 8.65072
1247 1 23.443 20.3913 8.5582
1515 1 24.9535 17.7083 10.8069
1516 1 23.0191 19.366 10.7189
1517 1 25.2476 20.1831 11.131
1458 1 13.9527 21.6004 10.695
1190 1 16.8372 24.1413 8.2534
1188 1 16.9888 21.6194 8.74183
1189 1 14.6279 22.761 8.54599
1459 1 16.047 22.8959 10.5071
1460 1 13.3961 25.0553 12.1627
1461 1 16.0181 25.5813 10.7139
1488 1 18.5054 21.6624 10.9007
1218 1 21.2975 21.5864 8.68258
1219 1 19.034 22.9277 8.45731
1220 1 21.3381 24.0995 8.49839
1489 1 20.4954 22.9082 10.625
1490 1 18.3761 24.3686 10.4081
1491 1 20.6807 25.7818 10.6087
1249 1 23.5291 22.8694 8.51138
1518 1 22.7818 21.8047 10.6164
1248 1 25.7701 21.4077 8.60193
1250 1 25.7412 23.8989 8.79656
1519 1 25.1472 22.6421 10.9333
1520 1 22.9166 24.322 10.5044
1251 1 23.4177 25.6393 8.52131
1521 1 25.1174 25.4231 10.9476
1191 1 14.7344 25.4453 8.63455
1192 1 16.7205 26.8726 8.38763
1193 1 14.4789 28.0771 8.53452
1194 1 16.9752 29.27 8.65155
1462 1 13.7668 27.1242 10.9149
1463 1 15.872 28.273 11.1601
1464 1 13.7892 29.4227 10.4485
1221 1 19.0285 25.5818 8.54245
1222 1 21.2133 26.9498 8.34361
1223 1 19.0204 27.9321 8.45314
1224 1 21.4625 29.1872 8.45008
1492 1 18.2893 26.7485 10.5648
1493 1 20.4705 28.1695 10.4789
1494 1 18.2888 29.4083 10.8709
1252 1 25.6269 26.6143 8.79122
1253 1 23.4179 27.9001 8.28891
1522 1 23.0238 26.6216 11.1151
1523 1 25.1996 27.9793 11.2191
1254 1 25.8309 29.2826 8.61713
1524 1 23.1214 29.1714 10.6113
1196 1 16.8355 31.7895 8.73592
1195 1 14.415 30.5803 8.43383
1197 1 14.5991 33.1589 8.76399
1465 1 15.9429 30.8015 11.1293
1466 1 13.7 31.8987 10.6746
1467 1 16.018 33.2225 11.0618
1225 1 19.0521 30.4509 8.59857
1226 1 21.1806 31.9353 8.83388
1227 1 19.1494 33.0338 8.91818
1495 1 20.5486 30.4836 10.5256
1496 1 18.2169 31.85 10.7042
1497 1 20.5215 33.1215 11.055
1255 1 23.5086 30.3687 8.57956
1256 1 25.7988 31.7896 8.77722
1257 1 23.5182 33.0461 8.72299
1525 1 25.1852 30.5382 10.8351
1526 1 22.7424 31.7497 10.8725
1527 1 24.9161 33.0591 10.9002
1441 1 15.8893 38.4215 10.8296
1468 1 13.9151 34.6852 10.8007
1198 1 16.786 34.3179 8.9371
1470 1 13.8503 37.1893 10.9897
1199 1 14.6445 35.7521 8.82292
1200 1 16.9219 36.9327 8.6629
1469 1 16.2982 36.0491 10.9969
1471 1 20.705 38.475 10.6918
1498 1 18.2372 34.4108 10.8311
1500 1 18.409 37.3312 10.7819
1228 1 21.2189 34.4297 8.9319
1499 1 20.2943 35.6755 10.8931
1229 1 19.0775 35.4926 8.66075
1230 1 21.2639 36.9046 8.8133
1259 1 23.6395 35.6109 8.55942
1258 1 25.5236 34.3363 8.44579
1260 1 25.7008 36.9361 8.95573
1528 1 22.7605 34.2525 10.8409
1529 1 25.0264 35.4442 10.6416
1530 1 22.8585 36.6909 10.7635
1689 1 24.6717 6.56736 12.7093
1686 1 19.8535 16.6094 12.7785
1661 1 17.5165 18.172 12.6268
1638 1 17.5716 20.4935 12.9333
1651 1 19.6444 18.9573 12.8453
1666 1 21.9322 17.8326 12.834
1655 1 21.8208 20.3825 12.8271
1625 1 24.1481 21.4107 13.227
991 1 26.3366 38.2422 6.58532
1013 1 26.0893 27.8317 6.59941
1015 1 26.343 30.6098 6.51308
1685 1 26.1726 18.2338 12.7364
1659 1 13.2382 22.8035 12.8333
925 1 13.2358 30.6114 6.08424
182 1 28.5794 1.26926 0
184 1 28.5794 3.80777 0
451 1 27.8466 2.31199e-16 2.07269
452 1 30.045 1.26926 2.07269
453 1 27.8466 2.53851 2.07269
454 1 30.045 3.80777 2.07269
211 1 30.7778 0 0
213 1 30.7778 2.53851 0
212 1 32.9763 1.26926 0
214 1 32.9763 3.80777 0
481 1 32.2434 2.31199e-16 2.07269
482 1 34.4419 1.26926 2.07269
483 1 32.2434 2.53851 2.07269
484 1 34.4419 3.80777 2.07269
241 1 35.1747 0 0
242 1 37.3731 1.26926 0
243 1 35.1747 2.53851 0
244 1 37.3731 3.80777 0
511 1 36.6403 2.31199e-16 2.07269
512 1 38.8387 1.26926 2.07269
513 1 36.6403 2.53851 2.07269
514 1 38.8387 3.80777 2.07269
186 1 28.5794 6.34628 0
455 1 27.8466 5.07703 2.07269
456 1 30.045 6.34628 2.07269
457 1 27.8466 7.61554 2.07269
215 1 30.7778 5.07703 0
217 1 30.7778 7.61554 0
725 1 29.2695 5.15998 4.15194
216 1 32.9763 6.34628 0
485 1 32.2434 5.07703 2.07269
486 1 34.4419 6.34628 2.07269
487 1 32.2434 7.61554 2.07269
245 1 35.1747 5.07703 0
246 1 37.3731 6.34628 0
247 1 35.1747 7.61554 0
515 1 36.6403 5.07703 2.07269
516 1 38.8387 6.34628 2.07269
517 1 36.6403 7.61554 2.07269
785 1 38.1712 5.19921 4.46572
188 1 28.5794 8.8848 0
190 1 28.5794 11.4233 0
458 1 30.045 8.8848 2.07269
459 1 27.8466 10.1541 2.07269
460 1 30.045 11.4233 2.07269
219 1 30.7778 10.1541 0
218 1 32.9763 8.8848 0
220 1 32.9763 11.4233 0
488 1 34.4419 8.8848 2.07269
489 1 32.2434 10.1541 2.07269
490 1 34.4419 11.4233 2.07269
248 1 37.3731 8.8848 0
249 1 35.1747 10.1541 0
250 1 37.3731 11.4233 0
518 1 38.8387 8.8848 2.07269
519 1 36.6403 10.1541 2.07269
520 1 38.8387 11.4233 2.07269
461 1 27.8466 12.6926 2.07269
221 1 30.7778 12.6926 0
192 1 28.5794 13.9618 0
194 1 28.5794 16.5003 0
462 1 30.045 13.9618 2.07269
463 1 27.8466 15.2311 2.07269
464 1 30.045 16.5003 2.07269
223 1 30.7778 15.2311 0
491 1 32.2434 12.6926 2.07269
222 1 32.9763 13.9618 0
224 1 32.9763 16.5003 0
492 1 34.4419 13.9618 2.07269
493 1 32.2434 15.2311 2.07269
494 1 34.4419 16.5003 2.07269
251 1 35.1747 12.6926 0
521 1 36.6403 12.6926 2.07269
252 1 37.3731 13.9618 0
253 1 35.1747 15.2311 0
254 1 37.3731 16.5003 0
522 1 38.8387 13.9618 2.07269
523 1 36.6403 15.2311 2.07269
524 1 38.8387 16.5003 2.07269
196 1 28.5794 19.0389 0
465 1 27.8466 17.7696 2.07269
466 1 30.045 19.0389 2.07269
467 1 27.8466 20.3081 2.07269
225 1 30.7778 17.7696 0
227 1 30.7778 20.3081 0
226 1 32.9763 19.0389 0
495 1 32.2434 17.7696 2.07269
496 1 34.4419 19.0389 2.07269
497 1 32.2434 20.3081 2.07269
255 1 35.1747 17.7696 0
256 1 37.3731 19.0389 0
257 1 35.1747 20.3081 0
525 1 36.6403 17.7696 2.07269
526 1 38.8387 19.0389 2.07269
527 1 36.6403 20.3081 2.07269
198 1 28.5794 21.5774 0
200 1 28.5794 24.1159 0
468 1 30.045 21.5774 2.07269
469 1 27.8466 22.8466 2.07269
470 1 30.045 24.1159 2.07269
471 1 27.8466 25.3851 2.07269
229 1 30.7778 22.8466 0
231 1 30.7778 25.3851 0
228 1 32.9763 21.5774 0
230 1 32.9763 24.1159 0
498 1 34.4419 21.5774 2.07269
499 1 32.2434 22.8466 2.07269
500 1 34.4419 24.1159 2.07269
501 1 32.2434 25.3851 2.07269
258 1 37.3731 21.5774 0
259 1 35.1747 22.8466 0
260 1 37.3731 24.1159 0
261 1 35.1747 25.3851 0
528 1 38.8387 21.5774 2.07269
529 1 36.6403 22.8466 2.07269
530 1 38.8387 24.1159 2.07269
531 1 36.6403 25.3851 2.07269
202 1 28.5794 26.6544 0
204 1 28.5794 29.1929 0
472 1 30.045 26.6544 2.07269
473 1 27.8466 27.9236 2.07269
474 1 30.045 29.1929 2.07269
233 1 30.7778 27.9236 0
232 1 32.9763 26.6544 0
234 1 32.9763 29.1929 0
502 1 34.4419 26.6544 2.07269
503 1 32.2434 27.9236 2.07269
504 1 34.4419 29.1929 2.07269
262 1 37.3731 26.6544 0
263 1 35.1747 27.9236 0
264 1 37.3731 29.1929 0
532 1 38.8387 26.6544 2.07269
533 1 36.6403 27.9236 2.07269
534 1 38.8387 29.1929 2.07269
804 1 35.8463 29.1367 4.07003
206 1 28.5794 31.7314 0
475 1 27.8466 30.4622 2.07269
476 1 30.045 31.7314 2.07269
477 1 27.8466 33.0007 2.07269
235 1 30.7778 30.4622 0
237 1 30.7778 33.0007 0
236 1 32.9763 31.7314 0
505 1 32.2434 30.4622 2.07269
506 1 34.4419 31.7314 2.07269
507 1 32.2434 33.0007 2.07269
265 1 35.1747 30.4622 0
266 1 37.3731 31.7314 0
267 1 35.1747 33.0007 0
535 1 36.6403 30.4622 2.07269
536 1 38.8387 31.7314 2.07269
537 1 36.6403 33.0007 2.07269
208 1 28.5794 34.2699 0
210 1 28.5794 36.8084 0
478 1 30.045 34.2699 2.07269
479 1 27.8466 35.5392 2.07269
480 1 30.045 36.8084 2.07269
239 1 30.7778 35.5392 0
238 1 32.9763 34.2699 0
240 1 32.9763 36.8084 0
508 1 34.4419 34.2699 2.07269
509 1 32.2434 35.5392 2.07269
510 1 34.4419 36.8084 2.07269
778 1 31.4205 34.1045 4.20376
268 1 37.3731 34.2699 0
269 1 35.1747 35.5392 0
270 1 37.3731 36.8084 0
538 1 38.8387 34.2699 2.07269
539 1 36.6403 35.5392 2.07269
540 1 38.8387 36.8084 2.07269
722 1 27.0654 1.32807 4.46757
723 1 29.2566 2.48014 4.12054
724 1 27.2357 3.83069 4.28771
992 1 28.4438 1.35929 6.55448
994 1 28.7437 3.72487 6.59719
993 1 26.3237 2.74467 6.51705
1684 1 37.3238 36.8625 12.6318
754 1 31.2453 3.76442 4.25416
1023 1 30.7082 2.53328 6.32852
753 1 33.5904 2.77814 4.28758
752 1 31.5445 1.19953 4.21773
1022 1 33.0676 1.31076 6.24604
1024 1 32.762 3.9405 6.34529
751 1 33.6101 -0.0532942 4.43905
1053 1 35.2493 2.61691 6.40734
1021 1 30.6976 37.9955 6.17866
1051 1 35.1305 38.2047 6.45064
783 1 38.0364 2.78026 4.1007
782 1 35.8169 1.17827 4.15187
784 1 35.8774 3.7152 4.09303
1052 1 37.4354 1.31752 6.44798
1054 1 37.3051 3.81981 6.41529
813 1 39.6779 2.67654 6.63508
781 1 38.1384 0.309538 4.38808
726 1 27.0363 6.30564 4.06159
727 1 29.2619 7.79661 4.24535
996 1 28.437 6.15814 6.27313
997 1 26.4813 7.71598 6.41195
1025 1 30.7093 5.04917 6.32986
1027 1 30.6307 7.58939 6.26863
995 1 26.2022 5.25632 6.50566
756 1 31.4245 6.61625 4.08318
755 1 33.6286 5.22418 4.20053
757 1 33.6189 7.79256 4.48188
1026 1 32.8253 6.41432 6.34372
786 1 35.8415 6.30817 4.14859
1057 1 35.0851 7.63814 6.45946
1055 1 35.1095 5.12506 6.21163
787 1 38.1342 7.6046 4.20915
1056 1 37.3402 6.41808 6.45624
815 1 39.5665 5.03977 6.66638
729 1 29.4498 10.3342 4.21706
730 1 27.1269 11.2937 4.12258
728 1 26.9885 9.03976 4.23349
998 1 28.4807 9.06698 6.34303
1000 1 28.4937 11.5957 6.24876
1029 1 30.6425 10.0474 6.35784
760 1 31.5839 11.5069 4.1634
759 1 33.6883 10.179 4.14454
758 1 31.4809 8.86795 4.26642
1028 1 32.9527 8.95551 6.27968
1030 1 32.9164 11.5289 6.45819
1059 1 35.223 10.1092 6.17365
761 1 33.7022 12.5721 4.16817
1061 1 35.0989 12.71 6.39324
789 1 38.1954 10.2246 4.22375
790 1 35.8169 11.347 4.18876
788 1 35.9805 8.78836 4.26466
1058 1 37.4632 8.91532 6.30047
1060 1 37.3928 11.4259 6.28206
791 1 38.1819 12.799 4.09702
1680 1 35.3502 38.2274 12.8131
731 1 29.2856 12.7629 4.10139
732 1 27.1497 13.863 4.16785
734 1 26.9705 16.4609 4.19969
733 1 29.4438 15.2874 4.1408
1002 1 28.7495 14.0152 6.12386
1004 1 28.3855 16.5361 6.59309
1003 1 26.2569 15.1617 6.53695
1031 1 30.626 12.646 6.2664
1033 1 30.8007 15.2503 6.27012
763 1 33.7516 15.1259 4.178
764 1 31.5535 16.4998 4.22693
762 1 31.4596 14.0046 4.2309
1032 1 32.8018 13.8106 6.21016
1034 1 32.9655 16.2309 6.30274
1063 1 35.1418 15.0786 6.60583
792 1 35.9423 13.8146 4.18577
793 1 38.0257 15.1843 4.1723
794 1 36.0812 16.3732 4.38503
1062 1 37.4247 13.8809 6.3772
1064 1 37.4638 16.2806 6.23318
735 1 29.3205 17.6502 4.43684
736 1 26.9535 19.059 4.26124
737 1 29.2444 20.3109 4.03062
1006 1 28.5652 19.1275 6.34184
1037 1 30.7683 20.0522 6.4641
1035 1 30.524 17.6656 6.43612
765 1 33.82 17.7641 4.23117
766 1 31.6562 19.0869 4.201
767 1 33.7974 20.4269 4.22663
1036 1 32.9994 18.8451 6.42501
1065 1 35.3917 17.6271 6.31722
1067 1 35.0641 20.2734 6.28112
796 1 35.8554 18.943 4.12606
797 1 38.1429 20.4758 4.39552
795 1 38.0961 17.7969 4.21225
1066 1 37.4317 18.9829 6.33201
1687 1 33.0096 36.7926 12.6511
825 1 39.5731 17.7237 6.44437
738 1 26.8937 21.5257 4.12041
739 1 29.1851 22.7504 4.27332
740 1 27.2385 24.0236 4.24727
1008 1 28.6157 21.5779 6.30131
1010 1 28.5394 23.9863 6.42859
741 1 29.425 25.3374 4.33789
1039 1 30.8056 22.641 6.40172
1041 1 30.9041 25.3673 6.39345
770 1 31.4612 23.9803 4.30836
769 1 33.7935 22.7897 4.21581
768 1 31.6623 21.5344 4.18766
1038 1 32.8203 21.7121 6.24071
1040 1 32.9714 23.999 6.46671
771 1 33.565 25.3681 4.1283
1069 1 35.0374 22.697 6.48796
799 1 38.038 22.8572 4.05866
829 1 39.5399 22.9702 6.33313
798 1 36.0285 21.4834 4.33524
800 1 35.9017 24.1195 4.15865
1068 1 37.1635 21.5987 6.37557
1070 1 37.2939 24.0101 6.13817
743 1 29.1965 28.0011 4.03318
744 1 26.9172 29.2653 4.30673
742 1 26.9311 26.5198 4.33407
1012 1 28.6026 26.6008 6.34756
1014 1 28.5718 29.105 6.14761
1043 1 30.6831 27.8416 6.22555
1643 1 31.0023 0.205736 12.8515
772 1 31.5214 26.4967 4.18436
774 1 31.231 29.2031 4.16835
773 1 33.7092 27.8419 4.27225
1042 1 33.0215 26.676 6.27181
1044 1 32.7161 29.0834 6.57358
1073 1 35.3576 27.8058 6.34829
1071 1 35.3288 25.1539 6.48502
801 1 38.2427 25.5392 4.26133
803 1 37.9872 28.0567 4.30714
802 1 35.7865 26.5879 4.27154
1072 1 37.3143 26.5201 6.52317
1074 1 37.3283 29.4822 6.21361
746 1 26.8653 31.8799 4.13019
747 1 29.1791 33.1562 4.37132
745 1 29.3256 30.5947 4.12341
1016 1 28.4126 31.6965 6.2956
1045 1 30.5907 30.4002 6.31219
1047 1 30.657 33.0065 6.3437
1672 1 37.1593 9.22116 12.8319
776 1 31.4252 31.7124 4.08043
775 1 33.4401 30.5215 4.2262
777 1 33.8227 32.9515 4.42018
1046 1 32.9549 31.5495 6.54206
1075 1 35.1243 30.3285 6.34566
1077 1 35.1901 32.8675 6.57796
806 1 35.6826 31.6005 4.27631
807 1 38.1456 33.1435 4.00535
805 1 37.9664 30.532 4.08385
1076 1 37.3155 31.7568 6.196
837 1 39.5443 32.9489 6.46389
721 1 29.3388 38.2508 4.26687
749 1 29.2717 35.5793 4.12253
748 1 27.1338 34.339 4.30526
750 1 26.9972 36.9189 4.16934
1018 1 28.6098 34.4716 6.4834
1020 1 28.4885 37.0383 6.20977
1049 1 30.7047 35.5363 6.24378
779 1 33.614 35.5163 4.13917
780 1 31.4075 36.618 4.08038
1048 1 33.0123 34.2421 6.4883
1050 1 33.1269 36.7714 6.38449
1079 1 35.2199 35.4539 6.28568
810 1 35.7874 36.9198 4.318
808 1 35.9713 34.1244 4.16662
809 1 37.8661 35.766 4.3266
1078 1 37.5641 34.1865 6.17424
1080 1 37.2103 36.7575 6.53683
1264 1 30.0771 3.81287 8.60077
1262 1 30.1388 1.17414 8.61852
1263 1 27.9295 2.45901 8.7141
1532 1 27.126 0.9365 10.7903
1533 1 29.3268 2.57835 10.7142
1534 1 27.1747 3.83846 10.7451
1294 1 34.427 3.9831 8.37509
1292 1 34.383 1.41527 8.47168
1293 1 32.3233 2.58502 8.22946
1562 1 31.5073 1.25768 10.6622
1563 1 33.4686 2.76584 10.4678
1564 1 31.1829 3.839 10.6789
1291 1 32.2191 38.1616 8.56772
1323 1 36.5474 2.4558 8.72568
1322 1 38.9997 1.40971 8.66033
1324 1 38.66 3.82184 8.72396
1592 1 35.9308 1.25487 10.9963
1593 1 38.1954 2.63503 10.9093
1594 1 35.7654 4.08397 10.4538
1321 1 36.7969 0.176855 8.65804
1591 1 38.3851 0.210147 10.8342
1266 1 29.948 6.30699 8.25462
1265 1 27.9339 5.04518 8.48228
1267 1 27.7775 7.7624 8.63208
1535 1 29.17 5.23259 10.7169
1536 1 27.2469 6.45513 10.7844
1537 1 29.3006 7.67227 10.5178
1297 1 32.1805 7.64124 8.35365
1295 1 32.0723 5.09903 8.57406
1296 1 34.3353 6.4078 8.59919
1565 1 33.4639 5.41525 10.7553
1566 1 31.274 6.51986 10.7177
1567 1 33.4655 7.81484 10.5926
1325 1 36.6024 5.04665 8.57018
1326 1 38.6509 6.43932 8.61069
1327 1 36.4637 7.43666 8.52955
1595 1 38.1741 5.30309 10.9237
1596 1 35.7428 6.60594 10.8501
1597 1 38.1378 7.59882 10.7199
1270 1 30.0067 11.364 8.34489
1268 1 30.0236 8.9849 8.44948
1269 1 27.7993 10.346 8.49332
1538 1 27.0486 9.04511 10.9364
1539 1 29.1595 10.1925 10.7011
1540 1 27.225 11.7562 10.5475
1271 1 27.8937 12.9094 8.37908
1568 1 31.2833 8.928 11.0116
1299 1 32.152 10.157 8.42768
1298 1 34.3117 8.89733 8.46365
1300 1 34.3776 11.1313 9.10055
1569 1 33.6467 10.0037 11.4307
1570 1 31.1307 11.4374 10.6817
1571 1 33.6724 12.6433 11.053
1598 1 35.7052 9.07466 10.5803
1328 1 38.6833 8.9161 8.63597
1329 1 36.5675 10.1555 8.45859
1330 1 39.1761 11.3214 8.46301
1599 1 38.1009 10.2323 10.6959
1600 1 36.0181 11.3855 11.1768
1541 1 29.2862 12.8176 10.4745
1272 1 30.1848 13.9065 8.32733
1273 1 27.7105 15.1363 8.45033
1274 1 29.966 16.4778 8.55154
1542 1 27.4083 14.0816 10.9957
1543 1 29.5258 15.2453 10.6932
1544 1 27.2083 16.5824 10.7954
1301 1 32.2509 12.5116 8.59107
1303 1 32.1621 15.1255 8.4861
1302 1 34.2767 13.9007 8.4319
1304 1 34.3983 16.5784 8.4628
1572 1 31.666 13.9668 10.7893
1573 1 33.891 15.2646 10.645
1574 1 31.7212 16.5105 10.838
1601 1 38.0413 12.7021 10.4249
1331 1 36.2805 12.4946 8.80573
1332 1 38.9902 13.9367 8.54803
1333 1 36.6952 15.1477 8.6386
1334 1 38.8744 16.4368 8.67161
1602 1 35.9554 14.0534 10.7567
1603 1 38.2087 15.111 10.626
1604 1 36.0511 16.5218 10.7725
1275 1 27.9395 17.7005 8.90219
1276 1 30.0392 18.9852 8.60802
1277 1 28.03 20.4832 8.56037
1545 1 29.6053 17.5874 10.7757
1546 1 27.5691 19.0042 10.8602
1547 1 29.5521 20.1838 10.7656
1305 1 32.1408 17.6371 8.39043
1306 1 34.456 19.0252 8.34227
1307 1 32.36 20.2661 8.62786
1575 1 33.8055 17.7495 10.7462
1576 1 31.5437 19.0431 10.554
1577 1 33.6877 20.2565 10.7023
1578 1 31.5326 21.8539 10.6945
1337 1 36.6147 20.301 8.34983
1336 1 38.8347 18.9106 8.49291
1335 1 36.6425 17.704 8.58079
1605 1 38.1852 17.8975 10.8849
1606 1 35.9669 19.0674 10.5422
1607 1 38.1565 20.5392 10.8153
1278 1 30.1992 21.6255 8.66047
1279 1 28.0685 22.8745 8.59854
1280 1 30.2005 24.1828 8.31227
1548 1 27.2765 21.6762 10.506
1549 1 29.4989 23.157 10.5702
1550 1 27.2376 24.0725 10.9072
1551 1 29.5094 25.4366 10.7347
1281 1 27.8617 25.4051 8.84011
1308 1 34.5314 21.4106 8.65765
1309 1 32.4211 22.7709 8.41214
1310 1 34.4914 23.9837 8.72119
1579 1 33.7388 23.1031 10.8586
1580 1 31.604 24.2325 10.3033
1581 1 33.7196 25.4797 10.6142
1311 1 32.4949 25.4223 8.39254
1340 1 38.6585 23.986 8.3025
1338 1 38.8249 21.4066 8.60897
1339 1 36.3898 22.8306 8.57248
1608 1 35.9255 21.8178 10.7029
1609 1 38.0963 22.9563 10.8131
1610 1 35.7775 24.2663 10.9977
1282 1 30.075 26.6361 8.57145
1283 1 27.984 27.8572 8.47069
1284 1 29.9934 29.2042 8.3978
1552 1 27.3459 26.5919 10.8177
1553 1 29.4708 27.7811 10.6541
1554 1 27.5079 29.3005 10.6762
1312 1 34.5293 26.8612 8.43594
1313 1 32.1975 27.8566 8.70925
1582 1 31.6488 26.8249 10.7963
1583 1 33.8099 27.9138 10.5756
1584 1 31.5508 29.4442 10.9422
1314 1 34.4243 29.2416 8.26974
1611 1 38.0494 25.6122 10.6592
1341 1 36.4877 25.4382 8.56732
1342 1 38.8446 26.6003 8.44925
1343 1 36.6669 27.9551 8.61607
1344 1 38.9248 29.147 8.43233
1612 1 36.0347 26.7936 10.6324
1613 1 38.2369 28.0762 10.657
1614 1 35.8533 29.1451 11.184
1287 1 27.7331 33.0325 8.36732
1286 1 30.0311 31.6915 8.8493
1285 1 27.9934 30.3631 8.52044
1555 1 29.4886 30.5492 10.9165
1556 1 27.228 31.7969 10.6874
1557 1 29.2727 32.9915 10.6334
1315 1 32.1358 30.3315 8.56309
1316 1 34.4329 31.5985 8.54249
1317 1 32.1931 32.9408 8.51285
1585 1 33.792 30.3737 10.87
1586 1 31.3179 31.8294 10.9372
1587 1 33.5444 32.9505 10.6968
1345 1 36.8015 30.4885 8.36729
1346 1 38.7556 31.7313 8.68345
1347 1 36.6743 33.0457 8.47668
1615 1 38.1827 30.2367 10.5855
1616 1 36.0234 31.5674 10.5298
1617 1 37.9029 33.0146 10.7725
1261 1 27.7557 38.0628 8.51345
1531 1 29.4101 37.8375 10.8727
1288 1 29.9811 34.148 8.60722
1289 1 27.7787 35.6832 8.70202
1560 1 27.2596 36.5279 11.0782
1559 1 29.2531 35.2542 10.6651
1558 1 27.0159 34.1039 10.3438
1290 1 30.0989 36.7269 8.77823
1561 1 33.8061 0.26999 10.6275
1588 1 31.5677 34.1853 10.8412
1319 1 32.2511 35.5749 8.57286
1590 1 31.7371 36.8946 10.8156
1589 1 33.8099 35.5792 10.7594
1318 1 34.5177 34.2474 8.70503
1320 1 34.5831 36.8127 8.55306
1348 1 38.9329 34.2612 8.45559
1619 1 38.0919 35.2867 10.87
1618 1 35.8098 34.2004 10.8646
1620 1 35.9432 36.8664 10.6652
1349 1 36.8265 35.4411 8.53589
1350 1 38.7708 36.9494 8.7802
1683 1 28.7743 1.11454 12.7512
1674 1 28.4304 3.61447 12.9922
1677 1 26.418 2.30477 13.0799
1623 1 30.7405 2.62591 12.7695
1652 1 32.7337 4.1022 12.7292
1671 1 33.0804 1.54143 12.7594
1669 1 39.613 0.00309818 12.9864
1656 1 35.2442 2.85904 12.9462
1641 1 37.4418 1.4836 12.9554
1633 1 37.507 3.94379 13.12
1645 1 39.6436 2.61324 12.8485
1626 1 30.6331 5.0864 12.6476
1675 1 26.7236 5.35961 12.7023
1621 1 34.7093 8.12144 12.703
1624 1 32.6722 6.66796 12.723
1628 1 34.7925 5.33239 12.6712
1653 1 37.1284 6.57062 12.838
1622 1 39.4191 5.24833 13.0869
821 1 39.5267 12.7179 6.28706
823 1 39.4448 15.0298 6.4077
1678 1 39.2631 24.7742 12.5201
1001 1 26.3885 12.7663 6.0787
999 1 26.1506 10.3608 6.16765
1005 1 26.2957 17.9649 6.54069
1011 1 26.4521 25.3394 6.84536
1009 1 26.549 22.7702 6.46533
1017 1 26.234 33.2137 6.21019
1019 1 26.3696 35.6749 6.54034
1690 1 28.792623425088394 10.86488189077429 38
