# LAMMPS data file written by OVITO Basic 3.7.11
2173 atoms
1 atom types
0.0 39.57150679 xlo xhi
0.0 38.07770017 ylo yhi
0.0 40.4361248 zlo zhi

Masses

1 63.550  # Cu

Atoms  

1 1 0 0 0
2 1 2.19842 1.26926 0
3 1 0 2.53851 0
4 1 2.19842 3.80777 0
271 1 1.46561 2.31199e-16 2.07269
272 1 3.66403 1.26926 2.07269
273 1 1.46561 2.53851 2.07269
274 1 3.66403 3.80777 2.07269
31 1 4.39683 0 0
33 1 4.39683 2.53851 0
544 1 0.569629 3.96074 4.14223
32 1 6.59525 1.26926 0
34 1 6.59525 3.80777 0
301 1 5.86245 2.31199e-16 2.07269
302 1 8.06086 1.26926 2.07269
303 1 5.86245 2.53851 2.07269
304 1 8.06086 3.80777 2.07269
574 1 5.11312 3.86087 4.23715
61 1 8.79367 0 0
62 1 10.9921 1.26926 0
63 1 8.79367 2.53851 0
64 1 10.9921 3.80777 0
331 1 10.2593 2.31199e-16 2.07269
332 1 12.4577 1.26926 2.07269
333 1 10.2593 2.53851 2.07269
334 1 12.4577 3.80777 2.07269
91 1 13.1905 0 0
93 1 13.1905 2.53851 0
5 1 0 5.07703 0
6 1 2.19842 6.34628 0
7 1 0 7.61554 0
275 1 1.46561 5.07703 2.07269
276 1 3.66403 6.34628 2.07269
277 1 1.46561 7.61554 2.07269
35 1 4.39683 5.07703 0
37 1 4.39683 7.61554 0
36 1 6.59525 6.34628 0
305 1 5.86245 5.07703 2.07269
306 1 8.06086 6.34628 2.07269
307 1 5.86245 7.61554 2.07269
576 1 5.06785 6.22757 4.15291
65 1 8.79367 5.07703 0
66 1 10.9921 6.34628 0
67 1 8.79367 7.61554 0
335 1 10.2593 5.07703 2.07269
336 1 12.4577 6.34628 2.07269
337 1 10.2593 7.61554 2.07269
95 1 13.1905 5.07703 0
97 1 13.1905 7.61554 0
8 1 2.19842 8.8848 0
9 1 0 10.1541 0
10 1 2.19842 11.4233 0
278 1 3.66403 8.8848 2.07269
279 1 1.46561 10.1541 2.07269
280 1 3.66403 11.4233 2.07269
39 1 4.39683 10.1541 0
38 1 6.59525 8.8848 0
40 1 6.59525 11.4233 0
308 1 8.06086 8.8848 2.07269
309 1 5.86245 10.1541 2.07269
310 1 8.06086 11.4233 2.07269
68 1 10.9921 8.8848 0
69 1 8.79367 10.1541 0
70 1 10.9921 11.4233 0
338 1 12.4577 8.8848 2.07269
339 1 10.2593 10.1541 2.07269
340 1 12.4577 11.4233 2.07269
99 1 13.1905 10.1541 0
11 1 0 12.6926 0
281 1 1.46561 12.6926 2.07269
41 1 4.39683 12.6926 0
12 1 2.19842 13.9618 0
13 1 0 15.2311 0
14 1 2.19842 16.5003 0
282 1 3.66403 13.9618 2.07269
283 1 1.46561 15.2311 2.07269
284 1 3.66403 16.5003 2.07269
43 1 4.39683 15.2311 0
311 1 5.86245 12.6926 2.07269
42 1 6.59525 13.9618 0
44 1 6.59525 16.5003 0
312 1 8.06086 13.9618 2.07269
313 1 5.86245 15.2311 2.07269
314 1 8.06086 16.5003 2.07269
71 1 8.79367 12.6926 0
341 1 10.2593 12.6926 2.07269
72 1 10.9921 13.9618 0
73 1 8.79367 15.2311 0
74 1 10.9921 16.5003 0
342 1 12.4577 13.9618 2.07269
343 1 10.2593 15.2311 2.07269
344 1 12.4577 16.5003 2.07269
101 1 13.1905 12.6926 0
103 1 13.1905 15.2311 0
15 1 0 17.7696 0
16 1 2.19842 19.0389 0
17 1 0 20.3081 0
285 1 1.46561 17.7696 2.07269
286 1 3.66403 19.0389 2.07269
287 1 1.46561 20.3081 2.07269
45 1 4.39683 17.7696 0
47 1 4.39683 20.3081 0
46 1 6.59525 19.0389 0
315 1 5.86245 17.7696 2.07269
316 1 8.06086 19.0389 2.07269
317 1 5.86245 20.3081 2.07269
75 1 8.79367 17.7696 0
76 1 10.9921 19.0389 0
77 1 8.79367 20.3081 0
345 1 10.2593 17.7696 2.07269
346 1 12.4577 19.0389 2.07269
347 1 10.2593 20.3081 2.07269
105 1 13.1905 17.7696 0
107 1 13.1905 20.3081 0
18 1 2.19842 21.5774 0
19 1 0 22.8466 0
20 1 2.19842 24.1159 0
21 1 0 25.3851 0
288 1 3.66403 21.5774 2.07269
289 1 1.46561 22.8466 2.07269
290 1 3.66403 24.1159 2.07269
291 1 1.46561 25.3851 2.07269
49 1 4.39683 22.8466 0
51 1 4.39683 25.3851 0
48 1 6.59525 21.5774 0
50 1 6.59525 24.1159 0
318 1 8.06086 21.5774 2.07269
319 1 5.86245 22.8466 2.07269
320 1 8.06086 24.1159 2.07269
321 1 5.86245 25.3851 2.07269
78 1 10.9921 21.5774 0
79 1 8.79367 22.8466 0
80 1 10.9921 24.1159 0
81 1 8.79367 25.3851 0
348 1 12.4577 21.5774 2.07269
349 1 10.2593 22.8466 2.07269
350 1 12.4577 24.1159 2.07269
351 1 10.2593 25.3851 2.07269
109 1 13.1905 22.8466 0
111 1 13.1905 25.3851 0
22 1 2.19842 26.6544 0
23 1 0 27.9236 0
24 1 2.19842 29.1929 0
292 1 3.66403 26.6544 2.07269
293 1 1.46561 27.9236 2.07269
294 1 3.66403 29.1929 2.07269
53 1 4.39683 27.9236 0
52 1 6.59525 26.6544 0
54 1 6.59525 29.1929 0
322 1 8.06086 26.6544 2.07269
323 1 5.86245 27.9236 2.07269
324 1 8.06086 29.1929 2.07269
592 1 4.86761 26.7592 4.29399
82 1 10.9921 26.6544 0
83 1 8.79367 27.9236 0
84 1 10.9921 29.1929 0
352 1 12.4577 26.6544 2.07269
353 1 10.2593 27.9236 2.07269
354 1 12.4577 29.1929 2.07269
113 1 13.1905 27.9236 0
25 1 0 30.4622 0
26 1 2.19842 31.7314 0
27 1 0 33.0007 0
295 1 1.46561 30.4622 2.07269
296 1 3.66403 31.7314 2.07269
297 1 1.46561 33.0007 2.07269
55 1 4.39683 30.4622 0
57 1 4.39683 33.0007 0
566 1 0.799087 31.8964 4.1609
56 1 6.59525 31.7314 0
325 1 5.86245 30.4622 2.07269
326 1 8.06086 31.7314 2.07269
327 1 5.86245 33.0007 2.07269
85 1 8.79367 30.4622 0
86 1 10.9921 31.7314 0
87 1 8.79367 33.0007 0
355 1 10.2593 30.4622 2.07269
356 1 12.4577 31.7314 2.07269
357 1 10.2593 33.0007 2.07269
115 1 13.1905 30.4622 0
117 1 13.1905 33.0007 0
28 1 2.19842 34.2699 0
29 1 0 35.5392 0
30 1 2.19842 36.8084 0
298 1 3.66403 34.2699 2.07269
299 1 1.46561 35.5392 2.07269
300 1 3.66403 36.8084 2.07269
59 1 4.39683 35.5392 0
58 1 6.59525 34.2699 0
60 1 6.59525 36.8084 0
328 1 8.06086 34.2699 2.07269
329 1 5.86245 35.5392 2.07269
330 1 8.06086 36.8084 2.07269
88 1 10.9921 34.2699 0
89 1 8.79367 35.5392 0
90 1 10.9921 36.8084 0
358 1 12.4577 34.2699 2.07269
359 1 10.2593 35.5392 2.07269
360 1 12.4577 36.8084 2.07269
119 1 13.1905 35.5392 0
542 1 0.766832 1.15954 4.07989
543 1 2.8739 2.54692 4.26465
812 1 2.29516 1.31755 6.48445
814 1 2.41915 3.86247 6.34339
843 1 4.44066 2.47668 6.37522
572 1 5.08603 1.323 4.17373
573 1 7.6546 2.57194 4.213
842 1 6.73126 1.28002 6.13286
844 1 6.63152 3.60306 6.15975
873 1 8.88544 2.65061 6.22096
571 1 7.43977 0.213413 4.18477
871 1 8.75936 38.2194 6.33705
604 1 9.53474 4.12394 4.19237
603 1 11.7621 2.86844 4.23628
602 1 9.7078 1.40356 4.45476
872 1 10.8838 1.30032 6.67689
874 1 10.9555 3.95148 6.27378
1662 1 0.113072 7.94687 12.8904
1705 1 13.1878 22.8087 12.8568
547 1 2.96246 7.52207 4.367
545 1 2.92357 5.00793 4.08923
546 1 0.663397 6.36989 4.1199
816 1 2.08733 6.41134 6.24694
847 1 4.2631 7.6157 6.51917
2158 1 4.64266 35.7464 17.0041
845 1 4.4307 4.99476 6.58993
575 1 7.2604 4.97058 4.17602
577 1 7.30197 7.58121 4.1533
846 1 6.46607 6.26476 6.24159
877 1 8.5348 7.65916 6.24781
875 1 8.73405 4.84142 6.45227
606 1 9.41227 6.54614 4.31027
605 1 11.6468 5.32047 4.20527
607 1 11.5591 7.70989 4.2433
876 1 10.8342 6.44088 6.21058
549 1 2.87145 10.198 4.00141
550 1 0.813226 11.5064 4.20966
548 1 0.629349 9.00551 4.11762
818 1 2.07353 8.84176 6.0565
820 1 2.15388 11.5597 6.31955
849 1 4.364 10.1449 6.09121
551 1 2.96055 12.6127 4.26141
851 1 4.35427 12.7538 6.48916
580 1 5.25321 11.3368 4.16072
578 1 5.13063 8.78403 3.96866
579 1 7.32804 10.1726 4.20526
848 1 6.46289 8.9642 6.46521
850 1 6.59259 11.3741 6.22747
879 1 8.63595 10.1945 6.3437
608 1 9.60034 8.98512 4.11967
610 1 9.45411 11.7076 4.13434
609 1 11.7623 10.258 4.14833
878 1 10.7651 8.89993 6.2767
880 1 10.8291 11.2374 6.51253
921 1 13.37 25.4055 6.5228
554 1 0.839426 16.6436 4.37194
553 1 3.08366 15.0912 4.01576
552 1 0.774542 13.9578 4.23443
822 1 2.15269 13.9292 6.29382
824 1 2.14266 16.5711 6.61843
853 1 4.23758 15.3241 6.37354
581 1 7.24734 12.7376 4.26352
584 1 5.23367 16.4791 4.11543
583 1 7.36311 15.2823 4.27229
582 1 5.1377 14.1117 4.07681
852 1 6.46827 13.8816 6.39009
854 1 6.62789 16.8049 6.3408
883 1 8.55924 15.3195 6.32325
611 1 11.5946 12.8086 4.34292
881 1 8.78967 12.7265 6.23755
614 1 9.59844 16.5182 4.21188
613 1 11.7459 15.1532 3.98706
612 1 9.62777 14.1028 4.29688
882 1 10.8254 13.8789 6.38456
884 1 11.0739 16.3556 6.30956
556 1 0.719749 19.0975 4.00173
557 1 3.09827 20.4478 4.26125
555 1 2.96632 17.9192 4.31529
826 1 2.20978 19.181 6.40021
855 1 4.3924 18.0757 6.21682
857 1 4.2664 20.5416 6.26848
587 1 7.58306 20.2161 4.27005
586 1 5.2289 19.1928 4.2671
585 1 7.29936 17.9051 4.08327
856 1 6.50852 19.1815 6.43126
887 1 8.95943 20.4898 6.31931
885 1 8.86686 17.8172 6.44855
617 1 11.7765 20.37 4.06018
615 1 11.8286 17.6317 4.35406
616 1 9.59611 18.9669 4.20648
886 1 11.1038 18.9951 6.39116
2160 1 6.69753 34.5523 17.073
915 1 13.1874 17.7939 6.62118
558 1 0.784788 21.6442 4.17798
560 1 0.952389 24.0962 4.38011
559 1 3.07495 22.7947 4.39996
828 1 2.09778 21.6274 6.21631
830 1 2.19061 24.0561 6.50821
561 1 2.85869 25.3649 4.06233
859 1 4.42304 22.9492 6.23913
919 1 12.9632 22.8167 6.24193
590 1 5.20717 24.1032 4.2692
589 1 7.2545 22.8318 4.11154
588 1 5.19445 21.5776 4.10107
858 1 6.52792 21.7375 6.40086
860 1 6.54034 24.183 6.4118
591 1 7.21529 25.3556 4.28311
889 1 8.7087 22.851 6.44543
618 1 9.74617 21.7079 4.42708
619 1 11.7276 22.9244 4.1653
620 1 9.44251 23.9364 4.09211
888 1 10.9421 21.7758 6.43626
890 1 10.891 24.2478 6.38561
891 1 8.67243 25.3839 6.4761
564 1 0.613874 29.1643 4.30127
563 1 2.90247 28.0715 4.32211
562 1 0.780434 26.631 4.08661
832 1 2.16775 26.5338 6.73855
834 1 2.30304 28.9089 6.59992
911 1 13.0677 13.0462 6.70835
2170 1 12.5263 28.1269 17.3472
861 1 4.47605 25.4261 6.48186
863 1 4.32869 27.8158 6.54252
594 1 5.04551 29.2393 4.13306
593 1 7.29544 27.9431 4.08145
862 1 6.69272 26.8658 6.05075
864 1 6.67763 29.2251 6.50367
621 1 11.7249 25.555 4.39194
623 1 11.7878 27.9037 4.19237
893 1 8.81533 28.0032 6.50685
622 1 9.42131 26.5978 4.2848
624 1 9.39661 29.3663 4.28409
892 1 10.912 26.7255 6.54972
894 1 10.7956 29.39 6.31464
923 1 13.0996 27.8827 6.21959
567 1 2.91281 33.1237 4.25468
565 1 2.77142 30.5145 4.2979
836 1 2.38984 31.7914 6.34367
817 1 -0.148908 7.60307 6.3378
595 1 7.07585 30.617 4.34592
867 1 4.36302 33.1616 6.27732
865 1 4.34219 30.3361 6.27001
597 1 7.24559 33.2185 3.96572
596 1 4.93037 31.7764 3.96074
866 1 6.3647 31.8615 6.15362
895 1 8.73623 30.5939 6.50952
897 1 8.67399 33.1373 6.36461
627 1 11.6725 33.0594 4.10342
626 1 9.23744 31.9511 4.12842
625 1 11.5192 30.5592 4.20801
896 1 10.861 31.9973 6.22265
541 1 2.96314 38.1698 4.33837
1761 1 -0.0161676 30.2232 12.9049
841 1 4.52156 38.0781 6.49447
568 1 0.59869 34.3978 4.36123
570 1 0.693949 36.8696 4.2501
569 1 2.86009 35.4533 4.1732
838 1 2.16945 34.3633 6.65566
840 1 2.20481 37.0478 6.37359
869 1 4.27186 35.5976 6.47758
839 1 -0.0802653 35.5431 6.48268
599 1 7.50155 35.8246 4.38559
598 1 5.21046 34.2691 4.27197
600 1 5.17351 36.8149 4.08231
868 1 6.72091 34.3562 6.15516
870 1 6.59562 36.7782 6.41729
601 1 11.8374 -0.0023275 4.17079
899 1 8.82081 35.5988 6.33056
628 1 9.36918 34.1501 4.27647
630 1 9.60625 36.9363 4.08923
629 1 11.7228 35.6219 4.19002
898 1 10.9191 34.486 6.1137
900 1 11.062 36.8676 6.42379
929 1 13.1261 35.6324 6.47607
1083 1 1.40834 2.45138 8.41389
1082 1 3.8261 1.27276 8.59851
1352 1 0.82185 1.36209 10.8933
1353 1 2.92845 2.59055 10.4334
1354 1 0.647397 4.05869 10.7121
1084 1 3.61316 3.84203 8.50301
1351 1 2.86504 -0.0997675 10.5624
1112 1 7.97582 1.3595 8.29064
1113 1 5.95195 2.65311 8.45994
1114 1 8.05168 3.89184 8.7213
1382 1 5.0423 1.18958 10.7678
1383 1 7.2953 2.62955 10.5938
1384 1 5.13457 3.73949 10.7012
1143 1 10.2401 2.69215 8.54579
1142 1 12.4478 1.32118 8.4995
1412 1 9.59796 1.24963 10.559
1413 1 11.7528 2.56203 10.5241
1144 1 12.3869 3.89065 8.36672
1414 1 9.41379 3.70726 10.9847
1085 1 1.45378 5.08024 8.63765
1086 1 3.72703 6.48966 8.43768
1087 1 1.5861 7.85957 8.44348
1355 1 3.10645 5.08399 10.6686
1356 1 0.746716 6.41023 10.7438
1357 1 3.0638 7.62102 10.4624
1117 1 6.13517 7.47826 8.55387
1116 1 8.11606 6.29703 8.6689
1115 1 5.86554 5.00318 8.41828
1385 1 7.29394 4.91192 10.8127
1386 1 5.19337 6.51219 10.7862
1387 1 7.5164 7.52288 10.6825
1147 1 10.3644 7.5594 8.57055
1145 1 10.2341 5.16582 8.51242
1146 1 12.6339 6.28159 8.45004
1416 1 9.70606 6.25942 10.6514
1800 1 11.9432 4.91784 10.6749
1832 1 11.8267 7.69622 10.6227
1088 1 3.69278 8.86409 8.43882
1358 1 0.73492 8.99522 10.7006
1089 1 1.42405 10.3569 8.2891
1090 1 3.58527 11.4298 8.54994
1359 1 0.792641 11.3835 10.5465
1672 1 2.79918 10.0221 11.0765
1388 1 5.11534 8.86613 10.7191
1118 1 8.08273 8.83713 8.53889
1120 1 8.17606 11.3858 8.33004
1119 1 5.90243 9.95538 8.69638
1390 1 5.1694 11.4146 10.5754
1389 1 7.48018 10.0696 10.5557
1391 1 7.34982 12.7186 10.4954
1418 1 9.56929 8.85119 10.8232
1717 1 9.37493 11.3602 11.0147
1148 1 12.3977 8.77525 8.31306
1150 1 12.3464 11.35 8.5016
1149 1 10.1761 9.92741 8.72805
1419 1 11.9091 10.2245 10.8175
1151 1 10.1895 12.5591 8.49171
1421 1 11.5467 12.655 10.6507
1360 1 2.8972 12.6925 10.5774
1091 1 1.32979 12.8651 8.32157
1092 1 3.6104 14.031 8.43796
1094 1 3.83005 16.6578 8.61002
1093 1 1.6041 15.4054 8.52347
1362 1 0.767462 13.9769 10.6817
1363 1 2.94974 15.1675 10.6293
1364 1 0.642279 16.3904 10.7619
1121 1 5.78552 12.6571 8.43088
1124 1 8.0304 16.5795 8.54541
1122 1 7.91553 14.0155 8.24093
1123 1 5.85592 15.1398 8.45457
1392 1 5.06186 13.862 10.574
1393 1 7.15562 15.284 10.5216
1394 1 5.07659 16.4491 10.4584
1152 1 12.2427 14.0467 8.677
1153 1 10.1982 15.126 8.79654
1422 1 9.31738 13.9871 10.685
1423 1 11.4828 15.2077 10.8967
1154 1 12.202 16.4197 8.67775
1424 1 9.40231 16.5701 10.8745
1095 1 1.19668 17.8302 8.63851
1096 1 3.55253 19.1585 8.64405
1097 1 1.29548 20.2673 8.45948
1365 1 2.81746 17.6491 10.6466
1366 1 0.710757 18.9005 10.913
1367 1 2.85421 20.2417 10.7907
1126 1 8.11709 19.0642 8.53644
1127 1 5.81907 20.4425 8.50283
1125 1 5.65963 17.8065 8.38644
1395 1 7.17753 17.7261 10.4777
1396 1 4.87946 18.9665 10.5058
1397 1 7.40185 20.2504 10.6203
1155 1 10.1468 17.8881 8.69372
1156 1 12.3459 18.9425 8.51802
1157 1 10.3033 20.3517 8.45788
1425 1 11.5632 17.9414 10.7477
1426 1 9.3702 19.1002 10.7331
1427 1 11.4571 20.5156 10.7127
1099 1 1.31094 22.7341 8.67499
1098 1 3.66364 21.5317 8.48035
1368 1 0.44459 21.6523 10.5813
1100 1 3.71813 24.0722 8.34648
1369 1 2.80974 22.9332 10.6317
1370 1 0.60966 24.1184 10.5532
1129 1 5.82135 23.0119 8.55512
1398 1 4.93564 21.6573 10.6032
1128 1 8.12715 21.567 8.47674
1130 1 8.02637 24.1354 8.57001
1399 1 7.48124 22.8579 10.6324
1400 1 4.86111 24.2285 10.5942
1428 1 9.56706 21.6173 10.6971
1158 1 12.5451 21.6452 8.77294
1160 1 12.1498 24.0286 8.35059
1159 1 10.1885 22.9383 8.63083
1429 1 11.7017 22.9253 10.8144
1430 1 9.43099 24.2334 10.7477
1161 1 10.1257 25.5079 8.57181
1371 1 2.85808 25.401 10.4632
1101 1 1.43755 25.2313 8.52418
1102 1 3.6539 26.6176 8.54196
1103 1 1.28214 27.8239 8.59963
1372 1 0.584636 26.6816 10.8508
1373 1 2.83471 27.9958 10.7714
1775 1 0.651704 29.0289 10.7127
1104 1 3.66058 29.1941 8.71658
1401 1 7.21564 25.4861 10.7132
1131 1 5.90715 25.6108 8.47542
1132 1 7.90262 26.6647 8.66249
1133 1 5.78441 28.0452 8.64421
1402 1 4.95919 26.7464 11.0848
1404 1 5.18179 29.2056 10.8221
1134 1 7.96916 28.9555 8.78559
1403 1 7.38677 27.973 10.8134
1431 1 11.905 25.3519 10.7232
1162 1 12.3245 26.6004 8.52164
1163 1 10.3811 27.9636 8.76382
1432 1 9.50454 26.7536 10.7085
1433 1 11.8168 27.9394 10.9877
1164 1 12.5324 29.2693 8.55503
1818 1 9.5264 29.1067 10.9316
1105 1 1.49392 30.5248 8.69783
1107 1 1.53187 32.8104 8.47053
1106 1 3.71513 31.7282 8.56937
1375 1 2.99933 30.4704 10.6435
1377 1 2.9902 33.0526 10.6318
1376 1 0.703087 31.5384 10.5631
1135 1 5.84974 30.4936 8.55781
1787 1 5.23129 31.7451 10.5793
1136 1 8.02251 31.6328 8.6736
1137 1 5.98244 33.0053 8.32115
1405 1 7.29538 30.44 10.9327
1438 1 7.32453 32.9013 10.7778
1167 1 10.1881 32.9746 8.38566
1894 1 11.6947 32.843 10.5606
1165 1 10.2909 30.302 8.48559
1166 1 12.3226 31.7727 8.23227
1436 1 9.37654 31.7577 10.7098
1435 1 11.6196 30.3816 10.5952
1081 1 1.60609 38.188 8.5752
1109 1 1.35823 35.3741 8.7281
1378 1 0.668922 34.1411 10.6326
1379 1 3.11549 35.5176 10.8586
1108 1 3.70583 34.2608 8.79673
1380 1 0.81279 36.8229 10.7033
1110 1 3.58302 36.8665 8.58321
1111 1 5.9719 38.0652 8.56779
1381 1 7.47527 -0.0456135 10.4629
1138 1 8.05789 34.3024 8.42926
1408 1 5.14663 34.3268 10.7987
1409 1 7.31945 35.5977 10.6435
1139 1 5.8654 35.6327 8.45812
1140 1 8.13438 36.7884 8.47221
1410 1 5.24482 36.7342 10.9079
1411 1 11.6902 38.0171 10.8062
1141 1 10.3627 38.162 8.69708
1170 1 12.4579 36.8275 8.70912
1835 1 9.37847 34.198 10.6152
1439 1 11.6342 35.2513 10.6377
1169 1 10.3132 35.4933 8.6355
1168 1 12.4353 34.2401 8.41706
1440 1 9.63487 36.7839 10.6046
2124 1 1.49883 2.58314 14.9976
2114 1 3.61511 1.33179 14.9009
1670 1 2.37877 1.41256 12.8012
1668 1 2.14152 3.81217 12.839
2115 1 3.52981 3.86115 14.8863
1676 1 4.62046 2.62235 12.987
2151 1 8.12339 1.34267 15.0461
2136 1 5.97013 2.39036 15.2127
1731 1 6.74371 1.28495 12.5905
1721 1 6.72842 3.80624 13.0323
1760 1 8.92379 2.66122 13.2846
1772 1 10.8872 1.39016 12.7094
1415 1 12.4572 1.50579 14.8362
1861 1 10.9218 3.91893 13.6041
2120 1 12.9327 3.95395 15.0084
1813 1 13.0333 2.39631 12.9138
2154 1 1.36344 7.46403 15.2133
1964 1 1.33065 5.16299 15.1636
1667 1 2.02186 6.38328 12.9202
2143 1 3.6017 6.42167 14.4787
1727 1 4.32321 7.94673 12.7164
1694 1 4.60431 5.15605 12.6736
2166 1 10.874 26.02 17.2087
1935 1 10.9683 33.7057 12.7938
1961 1 5.50472 4.99321 14.8255
1791 1 6.56515 6.41612 12.927
1854 1 8.69359 7.53109 12.7573
1773 1 8.7842 5.07976 12.8381
2161 1 12.6248 6.21971 14.8409
1904 1 11.1055 6.35064 13.0025
1906 1 13.269 4.93795 12.7607
2041 1 13.0637 27.8419 13.0012
917 1 13.2252 20.3245 6.67439
1825 1 2.20073 11.4488 13.2182
1682 1 2.3804 8.9284 13.2904
1732 1 4.45167 10.1992 12.9353
1871 1 6.62676 8.6508 12.9589
1816 1 6.66793 11.1335 12.6073
1420 1 8.04438 11.4624 14.7588
1831 1 8.80321 9.92746 12.9796
2150 1 12.4643 8.79373 14.8661
2148 1 10.243 10.4136 14.7609
2063 1 12.4667 11.3264 15.0768
1830 1 10.9317 8.81331 12.9144
1900 1 11.048 11.3083 12.7349
2101 1 10.2208 12.6762 15.0084
1716 1 13.2564 15.182 13.1242
1361 1 4.53983 12.6226 12.5819
2144 1 1.6657 14.9774 14.9836
1646 1 2.2546 13.9093 12.7001
1726 1 2.11785 16.4268 13.0874
2043 1 3.79652 13.708 14.9026
1985 1 3.87188 16.2664 15.1234
1747 1 4.33656 15.0458 12.6598
2138 1 5.71769 12.3707 14.6013
2123 1 7.77532 14.0206 15.4191
2098 1 5.90208 15.107 14.7702
1801 1 6.63549 13.8107 12.6372
1648 1 6.39193 16.3119 12.4955
2099 1 8.12121 16.4679 15.1431
1768 1 8.78697 38.2146 13.126
1728 1 8.58932 15.3204 12.8569
1774 1 12.4676 16.453 15.0943
2103 1 10.0741 15.1366 14.9276
2040 1 12.6094 13.9654 15.195
1759 1 10.9443 13.8942 12.8395
1729 1 11.0434 16.3914 13.1243
927 1 13.2866 32.9916 6.00795
1853 1 12.479 34.0566 15.1732
2051 1 1.42877 17.5262 15.3321
1969 1 3.64499 19.0277 14.9672
1988 1 1.45025 20.1633 14.7541
1657 1 2.20036 19.0443 12.8134
1715 1 4.24569 17.5498 12.876
2061 1 10.1475 35.3728 14.9783
1709 1 4.41327 20.3076 12.8312
2087 1 5.64097 20.1913 14.762
2036 1 7.78497 18.9323 14.8816
1640 1 6.41216 18.8889 12.5619
1976 1 5.75322 17.6243 14.9103
1688 1 8.79302 17.9349 12.8067
1649 1 8.62337 20.3914 12.7618
2064 1 10.0842 17.6998 15.0332
1898 1 12.3068 19.0809 14.9499
2021 1 9.94671 20.1655 14.9562
1696 1 11.1137 19.2207 12.8481
1828 1 10.9785 36.7203 12.925
1913 1 10.1815 -0.258386 14.952
1956 1 3.52516 21.4265 14.6898
1642 1 1.89882 21.7636 12.7368
1930 1 1.34611 22.6997 15.33
1751 1 1.93551 24.2248 12.5325
1908 1 3.45224 23.8595 14.6325
1630 1 4.28857 22.7736 12.6869
1872 1 1.2532 25.019 14.9055
1954 1 7.70834 21.5294 14.9973
1639 1 6.46559 21.5795 12.8106
1679 1 6.44313 24.2047 12.5525
1936 1 5.66478 22.9925 14.6895
2009 1 8.07794 23.921 14.9759
1740 1 8.52514 22.837 12.5875
1931 1 5.60687 25.346 15.0091
1802 1 8.67443 25.5144 12.7348
1658 1 12.2447 21.5451 14.9164
1650 1 10.8546 21.6368 12.8451
1659 1 12.0382 24.0172 15.1829
2019 1 10.1033 22.5633 14.9943
1627 1 10.9826 24.0937 12.9969
2013 1 9.99595 25.2973 14.9898
1730 1 13.2869 25.323 12.9698
1837 1 1.38968 27.8244 15.0019
1880 1 3.25389 26.3215 14.8867
1771 1 2.27472 26.6365 12.7968
1839 1 3.56188 29.1076 15.0558
1777 1 2.18664 29.25 12.8035
1803 1 4.33566 25.402 12.7287
1794 1 4.35103 27.996 13.1376
1932 1 5.6018 27.8351 15.1307
1866 1 6.50539 26.6872 13.0578
1937 1 7.74957 26.4539 15.1798
1812 1 6.33082 29.3661 13.1423
2027 1 8.00744 29.1628 15.5519
1865 1 8.59622 28.0188 13.4108
2147 1 12.4116 29.2872 15.1813
2023 1 9.85042 27.5502 15.7457
1637 1 10.9971 26.519 12.9668
1819 1 10.8213 28.9407 13.0541
2149 1 12.2367 26.6775 15.2855
2105 1 12.314 36.7712 15.0226
1878 1 1.44023 32.9257 15.0768
1736 1 2.02071 31.7308 12.6748
1876 1 3.49753 32.0944 14.8773
1855 1 1.36107 30.2445 15.0282
1406 1 4.57952 33.0379 12.807
1762 1 4.18065 30.508 12.9732
2094 1 7.5942 31.5314 15.2447
1996 1 6.52257 31.7656 13.0611
1893 1 5.46522 30.5534 15.4082
2048 1 5.65553 33.1992 15.0155
1918 1 8.7318 32.7719 12.6959
1434 1 8.55682 30.3265 13.0314
2111 1 12.3473 31.7792 14.9587
2079 1 10.113 30.3165 15.1827
1437 1 10.8898 31.4198 12.8726
2118 1 10.1713 32.8728 15.2486
2006 1 5.93407 38.2601 15.0132
1821 1 13.0024 30.3495 12.6217
1711 1 4.18 35.4895 13.1352
1708 1 4.46149 38.0823 12.9177
2082 1 1.4085 0.0581515 14.9079
2000 1 3.64473 36.9756 15.2409
2024 1 1.32885 35.4766 15.3624
1779 1 2.18298 36.9119 12.6693
1924 1 3.46933 34.404 15.1212
1757 1 2.29064 34.1355 12.9324
1795 1 8.83135 35.6043 12.7381
2035 1 7.89937 34.0923 15.1039
1783 1 6.65699 34.5358 12.8052
1981 1 7.93708 36.6678 14.8987
1965 1 5.677 35.7683 14.8891
1780 1 6.63813 36.9499 12.7957
1456 1 13.149 17.8952 12.7748
1860 1 12.9824 32.8538 12.5956
1987 1 13.161 35.3195 13.158
909 1 13.174 10.3673 6.18601
913 1 13.1145 15.3603 6.39136
1916 1 13.1923 20.4289 12.8149
925 1 13.1672 30.4074 6.19221
815 1 0.145474 5.05623 6.18371
827 1 -0.220558 20.3843 6.02584
835 1 0.24729 30.5126 6.30122
837 1 0.12249 33.1681 6.2463
829 1 -0.109903 22.7765 6.47734
819 1 0.0229098 10.2081 6.48799
821 1 -0.130621 12.8034 6.32136
1797 1 -0.0636312 12.5593 13.2152
1806 1 0.168865 10.2291 12.8463
1669 1 0.162013 0.0861194 12.911
92 1 15.3889 1.26926 0
94 1 15.3889 3.80777 0
361 1 14.6561 2.31199e-16 2.07269
362 1 16.8545 1.26926 2.07269
363 1 14.6561 2.53851 2.07269
364 1 16.8545 3.80777 2.07269
121 1 17.5873 0 0
123 1 17.5873 2.53851 0
633 1 16.1319 2.57946 4.16229
122 1 19.7858 1.26926 0
124 1 19.7858 3.80777 0
391 1 19.0529 2.31199e-16 2.07269
392 1 21.2514 1.26926 2.07269
393 1 19.0529 2.53851 2.07269
394 1 21.2514 3.80777 2.07269
151 1 21.9842 0 0
152 1 24.1826 1.26926 0
153 1 21.9842 2.53851 0
154 1 24.1826 3.80777 0
421 1 23.4498 2.31199e-16 2.07269
422 1 25.6482 1.26926 2.07269
423 1 23.4498 2.53851 2.07269
424 1 25.6482 3.80777 2.07269
181 1 26.381 0 0
183 1 26.381 2.53851 0
694 1 22.6645 3.91034 4.16746
96 1 15.3889 6.34628 0
365 1 14.6561 5.07703 2.07269
366 1 16.8545 6.34628 2.07269
367 1 14.6561 7.61554 2.07269
125 1 17.5873 5.07703 0
127 1 17.5873 7.61554 0
126 1 19.7858 6.34628 0
395 1 19.0529 5.07703 2.07269
396 1 21.2514 6.34628 2.07269
397 1 19.0529 7.61554 2.07269
155 1 21.9842 5.07703 0
156 1 24.1826 6.34628 0
157 1 21.9842 7.61554 0
425 1 23.4498 5.07703 2.07269
426 1 25.6482 6.34628 2.07269
427 1 23.4498 7.61554 2.07269
185 1 26.381 5.07703 0
187 1 26.381 7.61554 0
98 1 15.3889 8.8848 0
100 1 15.3889 11.4233 0
368 1 16.8545 8.8848 2.07269
369 1 14.6561 10.1541 2.07269
370 1 16.8545 11.4233 2.07269
129 1 17.5873 10.1541 0
638 1 14.0039 9.05683 4.19153
128 1 19.7858 8.8848 0
130 1 19.7858 11.4233 0
398 1 21.2514 8.8848 2.07269
399 1 19.0529 10.1541 2.07269
400 1 21.2514 11.4233 2.07269
158 1 24.1826 8.8848 0
159 1 21.9842 10.1541 0
160 1 24.1826 11.4233 0
428 1 25.6482 8.8848 2.07269
429 1 23.4498 10.1541 2.07269
430 1 25.6482 11.4233 2.07269
189 1 26.381 10.1541 0
371 1 14.6561 12.6926 2.07269
131 1 17.5873 12.6926 0
102 1 15.3889 13.9618 0
104 1 15.3889 16.5003 0
372 1 16.8545 13.9618 2.07269
373 1 14.6561 15.2311 2.07269
374 1 16.8545 16.5003 2.07269
133 1 17.5873 15.2311 0
401 1 19.0529 12.6926 2.07269
132 1 19.7858 13.9618 0
134 1 19.7858 16.5003 0
402 1 21.2514 13.9618 2.07269
403 1 19.0529 15.2311 2.07269
404 1 21.2514 16.5003 2.07269
161 1 21.9842 12.6926 0
431 1 23.4498 12.6926 2.07269
162 1 24.1826 13.9618 0
163 1 21.9842 15.2311 0
164 1 24.1826 16.5003 0
432 1 25.6482 13.9618 2.07269
433 1 23.4498 15.2311 2.07269
434 1 25.6482 16.5003 2.07269
191 1 26.381 12.6926 0
193 1 26.381 15.2311 0
106 1 15.3889 19.0389 0
375 1 14.6561 17.7696 2.07269
376 1 16.8545 19.0389 2.07269
377 1 14.6561 20.3081 2.07269
135 1 17.5873 17.7696 0
137 1 17.5873 20.3081 0
136 1 19.7858 19.0389 0
405 1 19.0529 17.7696 2.07269
406 1 21.2514 19.0389 2.07269
407 1 19.0529 20.3081 2.07269
165 1 21.9842 17.7696 0
166 1 24.1826 19.0389 0
167 1 21.9842 20.3081 0
435 1 23.4498 17.7696 2.07269
436 1 25.6482 19.0389 2.07269
437 1 23.4498 20.3081 2.07269
195 1 26.381 17.7696 0
197 1 26.381 20.3081 0
707 1 24.9541 20.2242 4.17801
108 1 15.3889 21.5774 0
110 1 15.3889 24.1159 0
378 1 16.8545 21.5774 2.07269
379 1 14.6561 22.8466 2.07269
380 1 16.8545 24.1159 2.07269
381 1 14.6561 25.3851 2.07269
139 1 17.5873 22.8466 0
141 1 17.5873 25.3851 0
648 1 13.9509 21.4517 4.26863
138 1 19.7858 21.5774 0
140 1 19.7858 24.1159 0
408 1 21.2514 21.5774 2.07269
409 1 19.0529 22.8466 2.07269
410 1 21.2514 24.1159 2.07269
411 1 19.0529 25.3851 2.07269
678 1 18.3468 21.4792 4.00552
679 1 20.6612 22.7869 4.20507
168 1 24.1826 21.5774 0
169 1 21.9842 22.8466 0
170 1 24.1826 24.1159 0
171 1 21.9842 25.3851 0
438 1 25.6482 21.5774 2.07269
439 1 23.4498 22.8466 2.07269
440 1 25.6482 24.1159 2.07269
441 1 23.4498 25.3851 2.07269
199 1 26.381 22.8466 0
201 1 26.381 25.3851 0
112 1 15.3889 26.6544 0
114 1 15.3889 29.1929 0
382 1 16.8545 26.6544 2.07269
383 1 14.6561 27.9236 2.07269
384 1 16.8545 29.1929 2.07269
143 1 17.5873 27.9236 0
142 1 19.7858 26.6544 0
144 1 19.7858 29.1929 0
412 1 21.2514 26.6544 2.07269
413 1 19.0529 27.9236 2.07269
414 1 21.2514 29.1929 2.07269
172 1 24.1826 26.6544 0
173 1 21.9842 27.9236 0
174 1 24.1826 29.1929 0
442 1 25.6482 26.6544 2.07269
443 1 23.4498 27.9236 2.07269
444 1 25.6482 29.1929 2.07269
203 1 26.381 27.9236 0
116 1 15.3889 31.7314 0
385 1 14.6561 30.4622 2.07269
386 1 16.8545 31.7314 2.07269
387 1 14.6561 33.0007 2.07269
145 1 17.5873 30.4622 0
147 1 17.5873 33.0007 0
146 1 19.7858 31.7314 0
415 1 19.0529 30.4622 2.07269
416 1 21.2514 31.7314 2.07269
417 1 19.0529 33.0007 2.07269
175 1 21.9842 30.4622 0
176 1 24.1826 31.7314 0
177 1 21.9842 33.0007 0
445 1 23.4498 30.4622 2.07269
446 1 25.6482 31.7314 2.07269
447 1 23.4498 33.0007 2.07269
205 1 26.381 30.4622 0
207 1 26.381 33.0007 0
717 1 24.9665 33.1336 4.30589
118 1 15.3889 34.2699 0
120 1 15.3889 36.8084 0
388 1 16.8545 34.2699 2.07269
389 1 14.6561 35.5392 2.07269
390 1 16.8545 36.8084 2.07269
149 1 17.5873 35.5392 0
148 1 19.7858 34.2699 0
150 1 19.7858 36.8084 0
418 1 21.2514 34.2699 2.07269
419 1 19.0529 35.5392 2.07269
420 1 21.2514 36.8084 2.07269
178 1 24.1826 34.2699 0
179 1 21.9842 35.5392 0
180 1 24.1826 36.8084 0
448 1 25.6482 34.2699 2.07269
449 1 23.4498 35.5392 2.07269
450 1 25.6482 36.8084 2.07269
209 1 26.381 35.5392 0
631 1 16.2622 38.098 4.33234
634 1 13.8913 4.14386 4.22421
632 1 13.8908 1.54338 4.37068
902 1 15.5117 1.30001 6.38117
904 1 15.3448 3.83932 6.32062
933 1 17.5308 2.48556 6.12075
663 1 20.5482 2.6721 4.22221
662 1 18.2807 1.1456 4.31335
664 1 18.2894 3.73557 4.08718
932 1 19.693 1.41129 6.36103
934 1 19.7375 3.81847 6.41135
963 1 22.0605 2.47874 6.32473
692 1 22.6512 1.23733 4.25756
693 1 25.0608 2.68302 4.27182
962 1 24.3262 1.3106 6.39472
964 1 24.1871 3.76423 6.33806
691 1 24.9813 38.3584 4.03376
961 1 21.8661 -0.035423 6.09797
2172 1 24.0511 26.7266 17.0915
637 1 16.1535 7.90889 4.17784
2167 1 13.8304 26.1049 17.124
636 1 13.9685 6.50857 4.00615
635 1 16.179 5.21129 4.19949
906 1 15.4868 6.355 6.2903
937 1 17.4726 7.75768 6.23881
907 1 13.1842 7.68953 6.21623
935 1 17.7675 5.28421 6.59557
667 1 20.5699 7.61109 4.16118
665 1 20.5683 5.14045 4.37755
666 1 18.2692 6.25621 4.28176
936 1 19.7553 6.61535 6.29274
965 1 21.7565 5.07647 6.45294
967 1 21.9069 7.52218 6.37884
695 1 24.9155 5.16516 4.15983
697 1 24.9131 7.69435 4.29601
696 1 22.8765 6.37113 4.30005
966 1 24.1251 6.29479 6.49658
901 1 13.1532 0.059651 6.39436
2146 1 24.182 24.0961 17.2822
639 1 16.1132 10.2454 4.36002
640 1 13.9023 11.679 4.30904
908 1 15.1879 8.94017 6.47993
910 1 15.2622 11.6857 6.40904
939 1 17.4108 10.3202 6.51943
941 1 17.5879 12.6434 6.41264
668 1 18.3645 8.94367 4.26941
670 1 18.2044 11.4723 4.24541
669 1 20.6 10.2433 4.11726
938 1 19.6495 9.06871 6.38814
940 1 19.7092 11.4301 6.39568
969 1 21.6965 10.2281 6.41907
971 1 21.936 12.5372 6.58871
671 1 20.6553 12.6874 4.34625
700 1 22.8154 11.6215 4.15594
698 1 22.7441 8.95195 4.18387
699 1 25.0723 10.3958 4.27993
968 1 24.0442 8.91898 6.30189
970 1 24.1365 11.296 6.55249
701 1 24.9557 12.832 4.31529
2159 1 23.9007 21.7118 17.4305
2131 1 21.51 23.0848 17.1207
903 1 13.0944 2.63734 6.34755
641 1 16.1278 12.6629 4.34237
642 1 13.9434 14.0967 4.25704
643 1 16.2333 15.3771 4.22869
644 1 13.9966 16.6741 4.21936
912 1 15.4213 14.0109 6.40793
914 1 15.4153 16.4624 6.29481
943 1 17.5827 15.0668 6.55077
2134 1 22.1119 25.5046 17.1096
673 1 20.4767 15.1759 4.12911
674 1 18.3128 16.5044 4.21222
672 1 18.4188 13.8725 4.22031
942 1 19.7736 13.9695 6.43917
944 1 19.8221 16.4339 6.59914
973 1 21.9206 15.3717 6.53582
703 1 24.9273 15.3059 4.21592
702 1 22.8787 14.0581 4.09868
704 1 22.6442 16.5674 4.54067
972 1 24.4149 14.2016 6.36963
974 1 24.1446 16.6901 6.6233
2165 1 25.9531 20.1955 16.9943
645 1 16.1829 17.7921 4.20557
646 1 13.9082 19.0079 4.27191
647 1 16.2206 20.2393 4.08304
916 1 15.4743 18.9612 6.35129
945 1 17.599 17.7514 6.4059
947 1 17.5221 20.3296 6.23998
675 1 20.6809 17.6929 4.06377
677 1 20.5914 20.3336 4.39028
676 1 18.3884 18.9474 4.22434
946 1 19.8023 19.0004 6.42543
977 1 21.988 20.4987 6.56108
975 1 21.8916 17.8269 6.45212
706 1 22.7198 18.8877 4.35816
705 1 24.8528 17.7635 4.3538
976 1 24.0884 19.0143 6.70084
2153 1 23.7622 19.2495 17.0397
1015 1 26.3007 30.3534 6.60981
650 1 13.8681 24.2501 4.12926
649 1 16.0874 22.8883 4.27246
918 1 15.5763 21.4096 6.17878
920 1 15.3186 23.9752 6.34783
2127 1 21.6728 20.4649 17.4274
2171 1 26.1707 4.59951 16.7394
949 1 17.5415 22.7905 6.28541
680 1 18.7355 24.1996 4.31095
948 1 19.659 21.5005 6.53597
950 1 19.7732 23.9935 6.31344
979 1 22.378 22.8417 6.59672
951 1 17.6714 25.2551 6.2884
981 1 22.1841 25.3966 6.54288
710 1 22.7039 24.1022 4.39745
708 1 22.7837 21.3914 4.42319
709 1 24.7179 22.7461 4.46272
978 1 24.366 21.5445 6.59107
980 1 24.5023 24.286 6.54405
711 1 24.9572 25.3884 4.13286
652 1 13.8685 26.6129 4.20471
651 1 15.9705 25.4473 4.27671
653 1 16.1258 27.8894 4.3947
654 1 13.9921 29.2426 4.12633
922 1 15.5789 26.4666 6.30312
924 1 15.2343 29.0072 6.38317
682 1 18.2904 26.5302 4.27088
681 1 20.5768 25.4896 4.14801
953 1 17.6567 27.8978 6.40495
683 1 20.6895 28.0478 4.22375
684 1 18.3035 29.0713 4.283
952 1 19.7614 26.6023 6.21561
954 1 19.7881 29.243 6.45688
1712 1 26.4874 12.6722 12.9394
983 1 21.837 27.8705 6.37813
714 1 22.7879 29.3945 4.15879
713 1 24.89 27.9196 4.20124
712 1 22.7546 26.7143 4.34144
982 1 24.2075 26.6764 6.29897
984 1 24.1295 29.3398 6.22461
657 1 16.1769 32.8401 4.18021
655 1 16.1104 30.3521 4.20542
656 1 14.0307 31.6439 4.22856
926 1 15.5785 31.705 6.37419
1781 1 26.4871 15.3019 12.8452
2142 1 26.3953 25.2927 17.5125
686 1 18.2129 31.6392 4.24925
955 1 17.652 30.5864 6.41879
685 1 20.6339 30.6004 4.35366
957 1 17.5603 33.0298 6.49903
687 1 20.6074 33.1133 4.28992
956 1 19.842 31.8086 6.44206
987 1 21.9423 32.8963 6.43678
985 1 21.808 30.4246 6.66361
716 1 22.7485 31.6819 4.20709
715 1 24.94 30.4871 4.10511
986 1 24.1912 31.6041 6.47454
2169 1 25.7924 2.3199 17.149
1017 1 26.2538 33.1606 6.56824
931 1 17.5332 38.0746 6.41561
659 1 16.2626 35.56 4.17804
658 1 13.9501 34.2766 4.12573
660 1 14.0162 36.7714 4.2097
928 1 15.429 34.3235 6.07837
930 1 15.4369 36.7721 6.42002
959 1 17.5271 35.5707 6.46023
661 1 20.4347 0.0662189 4.20162
689 1 20.6299 35.4353 4.38004
958 1 19.7472 34.2065 6.52516
688 1 18.4186 34.1353 4.48649
690 1 18.4074 36.57 4.3597
960 1 19.8227 36.7932 6.2686
989 1 21.8971 35.3292 6.40147
1939 1 18.9258 35.4785 15.0309
718 1 22.9282 34.4828 4.16616
719 1 24.8214 35.6333 4.14939
720 1 22.7519 36.9534 4.03092
988 1 24.1272 34.195 6.2851
990 1 24.1665 36.5789 6.17521
1173 1 14.5456 2.72859 8.60677
1174 1 16.7698 3.74112 8.36466
1172 1 16.7283 1.31345 8.68823
1442 1 13.7005 1.25454 10.7819
1443 1 16.0274 2.4791 10.777
1444 1 13.7747 3.67435 10.6249
1171 1 14.5024 38.1835 8.56322
1204 1 21.3229 3.78774 8.4913
1203 1 19.116 2.61206 8.49256
1202 1 21.2331 1.26848 8.26238
1472 1 18.2073 1.26742 10.6751
1473 1 20.4438 2.5563 10.6134
1474 1 18.0812 3.59869 10.621
1233 1 23.4168 2.58428 8.25429
1232 1 25.6307 1.32421 8.49573
1723 1 24.6907 2.61268 10.6384
1793 1 22.5607 1.4664 10.5573
1504 1 22.768 4.03217 10.8486
1234 1 25.4094 4.04379 8.61745
1176 1 16.824 6.26889 8.58906
1177 1 14.6068 7.64398 8.1558
1446 1 13.8376 6.27168 10.7372
1175 1 14.7537 5.19718 8.64053
1476 1 15.9941 4.94895 10.8629
1417 1 16.0556 7.54164 10.7042
1207 1 18.9191 7.64976 8.58148
1205 1 18.9937 4.97123 8.71295
1206 1 21.1953 6.27852 8.44324
1477 1 20.4145 7.72993 10.6166
1826 1 20.6595 5.18899 10.4459
1475 1 18.2982 6.20413 10.7709
1235 1 23.5365 5.2652 8.71804
1237 1 23.4683 7.64212 8.51746
1236 1 25.8952 6.62364 8.48469
1505 1 24.9274 5.214 10.6755
1506 1 22.5492 6.42921 10.9222
1507 1 24.8603 7.54799 10.6865
1448 1 14.0677 8.86881 10.5241
1178 1 16.6347 8.81903 8.59043
1180 1 16.7043 11.5546 8.56552
1179 1 14.5958 10.1997 8.49116
1450 1 13.8941 11.4755 10.7165
1449 1 16.0446 10.1454 10.6266
1181 1 14.5723 12.7006 8.54561
1478 1 18.135 8.60548 10.9289
1210 1 21.1207 11.4898 8.58447
1208 1 21.0798 9.02468 8.54875
1209 1 18.7468 10.0423 9.02057
1479 1 20.549 10.1941 10.878
1480 1 18.24 11.5319 10.9833
1211 1 18.8547 12.6798 8.55433
1481 1 20.5044 12.7663 10.7921
1756 1 22.6647 8.86661 10.5561
1238 1 25.7104 8.76602 8.5594
1240 1 25.7084 11.4352 8.52482
1239 1 23.507 10.123 8.55094
1509 1 24.9222 10.0145 10.7612
1510 1 22.7256 11.3872 10.6915
1451 1 16.0552 12.7698 10.6117
1182 1 16.679 14.0753 8.51503
1183 1 14.379 15.4221 8.69179
1452 1 13.8829 14.0492 10.7306
1453 1 16.0915 15.3886 10.5325
1454 1 13.6665 16.4625 10.7573
1184 1 16.8038 16.5907 8.45128
1214 1 21.3947 16.3569 8.79016
1212 1 21.065 13.9321 8.6185
1213 1 19.0927 15.325 8.70577
1482 1 18.3133 13.9478 10.6685
1483 1 20.4236 15.0799 10.9382
1484 1 18.1089 16.4662 10.9589
1511 1 24.7932 12.6106 10.6887
1241 1 23.5389 12.7621 8.50845
1242 1 25.6153 14.0436 8.54714
1244 1 25.5467 16.6393 8.65481
1243 1 23.3832 15.2537 8.57208
1512 1 22.5926 13.9867 10.603
1514 1 22.5558 16.6167 10.9102
1513 1 24.8795 15.3822 10.831
1187 1 14.7274 20.3021 8.26529
1185 1 14.6451 17.6721 8.76587
1186 1 16.828 18.9984 8.52255
1455 1 16.1501 17.8779 10.827
1457 1 15.8897 20.3399 10.7191
1700 1 13.6765 19.0397 10.6568
1217 1 18.8964 20.3751 8.5523
1216 1 21.4631 19.1219 8.67249
1215 1 19.2337 17.8511 8.57211
1485 1 20.4026 17.6155 10.8994
1486 1 18.1824 19.0336 10.7196
1487 1 20.4264 20.1716 10.8569
1246 1 25.6396 19.1875 8.60411
1247 1 23.4663 20.4328 8.68439
1245 1 23.3754 17.9011 8.87596
1515 1 24.8643 17.6694 10.93
1516 1 22.5172 18.994 10.9248
1517 1 24.6866 20.3071 10.8964
1189 1 14.6242 22.8061 8.49202
1190 1 16.7973 23.9626 8.49507
1458 1 13.901 21.7538 10.7851
1188 1 16.7608 21.5209 8.50457
1459 1 16.0665 22.8475 10.5295
1460 1 13.9673 24.1062 10.7287
1461 1 16.1053 25.3105 10.7685
1191 1 14.8244 25.3894 8.60087
1488 1 18.3632 21.4088 10.7439
1218 1 21.2435 21.5289 8.65301
1219 1 19.0759 22.9908 8.60662
1220 1 21.3488 24.1288 8.58952
1489 1 20.3679 22.9034 10.8386
1490 1 18.1997 24.1203 10.6527
1491 1 20.4252 25.3755 10.6131
1221 1 19.2498 25.416 8.51523
1248 1 25.6227 21.5577 8.78299
1249 1 23.5568 22.8911 8.70254
1518 1 22.6108 21.5344 10.803
1250 1 25.744 23.9349 8.70066
1519 1 24.8629 22.8764 10.7495
1520 1 22.6254 24.1329 10.8078
1251 1 23.5518 25.3573 8.75829
1193 1 14.525 27.9606 8.44314
1194 1 16.6846 28.9869 8.31806
1192 1 16.9589 26.644 8.52461
1462 1 13.8384 26.7277 10.7748
1463 1 16.0398 27.8253 10.614
1464 1 13.8804 29.0168 10.4376
1222 1 21.266 26.631 8.52351
1223 1 19.1244 27.915 8.37822
1224 1 21.1839 29.1219 8.74271
1492 1 18.1757 26.6386 10.6278
1493 1 20.4016 27.7485 10.6137
1494 1 18.3595 29.1901 10.6185
1521 1 24.7761 25.3577 10.8684
1254 1 25.4741 29.2075 8.65483
1252 1 25.6857 26.6296 8.80592
1253 1 23.5626 27.9714 8.34048
1522 1 22.6746 26.6567 10.7201
1523 1 24.7686 27.971 10.6807
1524 1 22.5025 29.2601 10.7757
1465 1 15.9044 30.229 10.567
1195 1 14.5735 30.4909 8.38278
1196 1 16.522 31.722 8.71015
1197 1 14.6675 33.0364 8.11622
1466 1 14.0108 31.6435 10.4375
1467 1 16.0024 32.9324 10.6923
1225 1 19.0775 30.4817 8.54559
1497 1 20.5329 32.8695 10.8538
1226 1 21.1379 31.826 8.59587
1227 1 18.9848 32.8161 8.59428
1495 1 20.3879 30.3834 10.8799
1496 1 18.2499 31.6655 10.8374
1255 1 23.242 30.5742 8.51723
1256 1 25.5403 31.5842 8.76909
1257 1 23.4962 33.1125 8.57979
1526 1 22.7609 31.7599 10.8828
1527 1 24.9865 32.8819 10.8459
1525 1 24.7512 30.2935 10.9911
1441 1 15.9183 37.8895 10.8353
1200 1 16.7963 36.9295 8.46103
1199 1 14.4917 35.6901 8.42459
1468 1 13.8119 34.314 10.6417
1470 1 13.8306 36.713 10.6827
1198 1 16.8402 34.2664 8.60477
1469 1 16.0308 35.4198 10.7292
1471 1 20.3894 -0.176695 10.4649
1201 1 19.0585 37.9737 8.36895
1228 1 21.3408 34.4745 8.84401
1230 1 21.2703 36.9445 8.46766
1498 1 18.3932 34.0028 10.6475
1499 1 20.6132 35.4362 10.7333
1229 1 18.9471 35.4356 8.55406
1500 1 18.3208 36.6575 10.6621
1501 1 24.7602 -0.205606 10.7008
1231 1 23.5426 0.00435786 8.50135
1528 1 22.7777 34.196 10.8517
1259 1 23.4412 35.5403 8.57058
1258 1 25.7403 34.344 8.83658
1260 1 25.6781 36.8677 8.44586
1529 1 24.8147 35.3762 10.7635
1530 1 22.7425 36.7125 10.8406
2042 1 16.8978 1.34498 14.8267
1755 1 15.2409 0.994397 12.8969
2086 1 14.7018 2.5006 14.9021
2034 1 16.8511 3.837 15.3602
1445 1 15.247 3.52917 12.7922
1899 1 17.6286 2.4629 12.7415
1952 1 19.095 2.70887 14.7709
2002 1 21.3189 1.48796 14.8453
1868 1 19.9081 1.3634 12.7769
1847 1 19.6978 3.95511 12.5596
1882 1 21.3761 3.75397 15.2402
1817 1 21.9489 0.0190263 12.8522
1502 1 21.8444 2.60729 12.7927
2005 1 19.0366 0.13031 14.5545
1822 1 24.2646 1.28284 13.0216
1933 1 23.4642 2.50876 15.0336
1912 1 25.6929 1.19847 15.0238
1917 1 25.6629 3.64206 14.7364
1769 1 24.3635 3.71839 12.7087
1970 1 23.4318 38.1531 15.0754
1778 1 19.9266 36.8234 12.6469
1896 1 21.2193 36.9972 15.1102
2129 1 14.7609 7.61671 14.9468
2122 1 14.9701 5.15521 14.94
2092 1 17.0665 6.48768 15.1357
1447 1 15.6919 6.20256 12.8879
1706 1 17.6961 4.86623 12.9386
2047 1 17.602 7.52675 12.9579
1922 1 19.2031 7.55923 15.0553
1960 1 19.1281 5.03716 15.3073
1836 1 19.7277 6.39792 12.7825
1799 1 21.3304 6.17594 14.977
1873 1 22.1279 7.72669 12.985
2057 1 21.8729 5.14787 12.822
2050 1 23.4005 7.5884 15.3093
2090 1 23.6633 5.04258 15.0209
1823 1 24.2068 6.26809 12.7913
2066 1 25.7224 6.4154 15.0211
1733 1 26.3768 7.4502 12.5621
1718 1 19.723 34.2645 12.9092
2084 1 16.9607 8.97528 15.1589
2097 1 14.9262 10.1441 15.0182
1920 1 15.7044 8.85692 12.5588
1879 1 15.5279 11.3945 13.0244
1974 1 16.8532 11.6345 15.2728
1749 1 17.8225 10.0929 13.1199
2065 1 14.5984 12.6816 14.9311
2085 1 21.4207 8.75613 15.1351
2060 1 19.072 10.0427 15.3174
1856 1 19.9378 8.96406 12.9513
1698 1 19.7317 11.2881 13.2119
1742 1 21.5038 11.2829 14.9115
1883 1 22.2203 9.95069 13.0091
1788 1 22.1056 12.6888 12.8533
1953 1 23.5196 35.5584 15.4157
2037 1 25.8007 8.75726 15.3977
1508 1 24.3732 8.81564 12.9567
2030 1 23.5101 9.98118 15.153
1993 1 24.2436 11.368 12.8414
2072 1 25.588 11.1422 14.8329
2016 1 23.4217 12.6808 15.0186
1766 1 22.0561 35.632 13.022
1834 1 17.5335 12.8399 12.9004
2032 1 16.9706 13.9896 15.179
2004 1 14.7195 15.0751 15.0944
1702 1 15.4079 14.0309 12.9886
1693 1 15.2473 16.5373 13.1256
1995 1 16.7607 16.6499 15.303
1703 1 17.2978 15.3743 12.975
2001 1 19.1258 12.641 15.0618
1978 1 21.3106 13.9626 15.1617
1743 1 19.8979 13.8411 12.901
1915 1 18.9889 15.1061 14.9377
1686 1 19.5418 16.4279 12.9627
1925 1 21.3019 16.4422 15.0689
1685 1 21.9834 15.1669 12.9866
1991 1 25.6469 13.837 15.0829
1971 1 23.4402 15.3276 15.2765
1748 1 24.2319 13.9397 13.0114
1690 1 24.1192 16.4139 13.2498
1959 1 25.7838 16.4071 15.1813
2010 1 14.5914 17.8383 15.139
2007 1 16.8027 18.9852 15.4307
1811 1 15.235 19.1725 12.8705
1895 1 14.5648 20.3818 15.22
1661 1 17.3987 17.7612 12.974
1638 1 17.6959 20.4343 13.0186
1884 1 18.9805 17.8013 14.961
1887 1 21.1229 19.1721 14.9764
1909 1 19.0467 20.1834 14.8618
1651 1 19.6367 19.1179 12.7921
1666 1 21.7319 17.8663 12.877
1655 1 21.8276 20.3266 12.8901
1914 1 23.1406 17.8442 15.129
1955 1 25.3352 18.734 15.1362
1927 1 23.265 20.4169 15.0045
1902 1 24.059 19.0148 12.9871
1692 1 24.2695 34.2779 12.7738
1984 1 16.7086 21.6119 15.1389
1973 1 14.4094 22.8094 15.0496
1647 1 15.4812 23.9881 12.9623
1967 1 15.5254 21.5548 12.8116
1926 1 16.6534 24.2294 15.1433
2093 1 14.4715 25.2637 15.0732
1744 1 24.3079 36.8967 12.9895
1634 1 17.6057 22.9669 12.9744
1881 1 20.8808 21.8422 15.1385
1664 1 18.7648 22.9157 15.1699
1631 1 19.754 21.5895 12.9521
1636 1 19.7224 24.1822 12.9103
1990 1 21.0888 24.2519 15.195
1632 1 17.4367 25.4673 12.7788
1885 1 18.9293 25.1942 15.4623
1874 1 25.6567 36.9785 14.8996
1644 1 22.0621 22.8415 12.9256
2053 1 25.5747 23.8258 14.8692
2054 1 25.5325 21.5292 15.0301
2008 1 23.248 22.7808 15.2565
1625 1 24.2174 21.4776 12.9605
1982 1 24.2214 24.2536 12.9399
1673 1 22.0105 25.3244 12.8956
1901 1 25.6827 34.409 14.8648
2076 1 14.5222 28.0506 15.3716
2126 1 16.5428 29.1776 14.9258
2110 1 16.6351 26.8103 15.2505
1665 1 15.2537 26.7619 12.9851
1738 1 15.2316 29.0573 12.784
1660 1 17.5365 27.8904 12.7181
1770 1 17.5289 35.3496 12.9311
1629 1 19.7057 26.5342 12.8189
1968 1 19.5164 29.2622 13.1152
2025 1 21.1987 26.6473 15.0308
1966 1 18.7734 27.7524 14.9446
1663 1 21.7757 27.895 12.9833
1635 1 23.4954 25.5118 15.1852
1654 1 23.0095 28.0959 15.3178
1767 1 24.0601 26.7904 13.1323
2031 1 25.7003 26.5243 15.0996
1784 1 24.0161 29.168 13.1046
2067 1 25.4075 29.0621 15.3273
1903 1 21.0505 34.5506 15.2075
1994 1 14.4459 32.9673 15.0856
2096 1 16.6267 31.7414 15.0757
1707 1 15.1365 31.4186 12.8154
1745 1 14.3785 30.65 15.1887
1785 1 17.4415 32.9516 12.8037
2068 1 20.9433 29.2472 14.8958
1776 1 17.2995 30.4275 12.8918
2029 1 18.7147 30.3949 15.2935
1897 1 19.7147 31.7772 13.0077
1929 1 21.0881 31.8117 15.0046
1958 1 18.7943 32.9878 15.1519
1714 1 22.1069 33.0518 13.0761
1763 1 21.7577 30.4507 12.9684
1725 1 24.2482 31.5772 13.0667
1877 1 23.273 33.1049 15.0808
1890 1 23.4185 30.599 15.2149
2020 1 25.7181 31.4759 15.2446
1815 1 17.5307 38.0151 12.8996
1805 1 15.3952 36.5599 12.9943
1923 1 14.7434 37.9306 15.0197
1852 1 15.255 34.0779 12.7371
1691 1 16.8865 36.7604 15.0199
2108 1 14.5981 35.3903 15.1826
2083 1 16.5021 34.2927 15.0593
1842 1 26.4208 20.4022 13.1176
1792 1 26.2777 17.8838 13.0006
1841 1 26.4241 30.2066 13.0767
1695 1 26.3884 32.7603 12.96
2132 1 26.163 22.6151 17.4579
1005 1 26.5837 17.6605 6.43472
1003 1 26.6073 15.1281 6.39784
999 1 26.3257 10.0356 6.45282
905 1 13.2345 5.16489 6.4097
2080 1 13.4239 7.75663 12.7208
1407 1 13.1193 37.8078 12.8642
1891 1 13.556 10.0439 12.7566
1946 1 13.2646 12.6349 12.7875
182 1 28.5794 1.26926 0
184 1 28.5794 3.80777 0
451 1 27.8466 2.31199e-16 2.07269
452 1 30.045 1.26926 2.07269
453 1 27.8466 2.53851 2.07269
454 1 30.045 3.80777 2.07269
211 1 30.7778 0 0
213 1 30.7778 2.53851 0
212 1 32.9763 1.26926 0
214 1 32.9763 3.80777 0
481 1 32.2434 2.31199e-16 2.07269
482 1 34.4419 1.26926 2.07269
483 1 32.2434 2.53851 2.07269
484 1 34.4419 3.80777 2.07269
241 1 35.1747 0 0
242 1 37.3731 1.26926 0
243 1 35.1747 2.53851 0
244 1 37.3731 3.80777 0
511 1 36.6403 2.31199e-16 2.07269
512 1 38.8387 1.26926 2.07269
513 1 36.6403 2.53851 2.07269
514 1 38.8387 3.80777 2.07269
186 1 28.5794 6.34628 0
455 1 27.8466 5.07703 2.07269
456 1 30.045 6.34628 2.07269
457 1 27.8466 7.61554 2.07269
215 1 30.7778 5.07703 0
217 1 30.7778 7.61554 0
216 1 32.9763 6.34628 0
485 1 32.2434 5.07703 2.07269
486 1 34.4419 6.34628 2.07269
487 1 32.2434 7.61554 2.07269
245 1 35.1747 5.07703 0
246 1 37.3731 6.34628 0
247 1 35.1747 7.61554 0
515 1 36.6403 5.07703 2.07269
516 1 38.8387 6.34628 2.07269
517 1 36.6403 7.61554 2.07269
787 1 38.0145 7.76459 4.32304
188 1 28.5794 8.8848 0
190 1 28.5794 11.4233 0
458 1 30.045 8.8848 2.07269
459 1 27.8466 10.1541 2.07269
460 1 30.045 11.4233 2.07269
219 1 30.7778 10.1541 0
218 1 32.9763 8.8848 0
220 1 32.9763 11.4233 0
488 1 34.4419 8.8848 2.07269
489 1 32.2434 10.1541 2.07269
490 1 34.4419 11.4233 2.07269
760 1 31.6576 11.5325 4.08365
248 1 37.3731 8.8848 0
249 1 35.1747 10.1541 0
250 1 37.3731 11.4233 0
518 1 38.8387 8.8848 2.07269
519 1 36.6403 10.1541 2.07269
520 1 38.8387 11.4233 2.07269
461 1 27.8466 12.6926 2.07269
221 1 30.7778 12.6926 0
192 1 28.5794 13.9618 0
194 1 28.5794 16.5003 0
462 1 30.045 13.9618 2.07269
463 1 27.8466 15.2311 2.07269
464 1 30.045 16.5003 2.07269
223 1 30.7778 15.2311 0
734 1 27.0269 16.3874 4.55008
491 1 32.2434 12.6926 2.07269
222 1 32.9763 13.9618 0
224 1 32.9763 16.5003 0
492 1 34.4419 13.9618 2.07269
493 1 32.2434 15.2311 2.07269
494 1 34.4419 16.5003 2.07269
251 1 35.1747 12.6926 0
521 1 36.6403 12.6926 2.07269
252 1 37.3731 13.9618 0
253 1 35.1747 15.2311 0
254 1 37.3731 16.5003 0
522 1 38.8387 13.9618 2.07269
523 1 36.6403 15.2311 2.07269
524 1 38.8387 16.5003 2.07269
793 1 38.2133 15.3391 4.31778
196 1 28.5794 19.0389 0
465 1 27.8466 17.7696 2.07269
466 1 30.045 19.0389 2.07269
467 1 27.8466 20.3081 2.07269
225 1 30.7778 17.7696 0
227 1 30.7778 20.3081 0
226 1 32.9763 19.0389 0
495 1 32.2434 17.7696 2.07269
496 1 34.4419 19.0389 2.07269
497 1 32.2434 20.3081 2.07269
255 1 35.1747 17.7696 0
256 1 37.3731 19.0389 0
257 1 35.1747 20.3081 0
525 1 36.6403 17.7696 2.07269
526 1 38.8387 19.0389 2.07269
527 1 36.6403 20.3081 2.07269
795 1 38.0131 17.8545 4.0965
198 1 28.5794 21.5774 0
200 1 28.5794 24.1159 0
468 1 30.045 21.5774 2.07269
469 1 27.8466 22.8466 2.07269
470 1 30.045 24.1159 2.07269
471 1 27.8466 25.3851 2.07269
229 1 30.7778 22.8466 0
231 1 30.7778 25.3851 0
228 1 32.9763 21.5774 0
230 1 32.9763 24.1159 0
498 1 34.4419 21.5774 2.07269
499 1 32.2434 22.8466 2.07269
500 1 34.4419 24.1159 2.07269
501 1 32.2434 25.3851 2.07269
770 1 31.4029 24.1073 4.20061
258 1 37.3731 21.5774 0
259 1 35.1747 22.8466 0
260 1 37.3731 24.1159 0
261 1 35.1747 25.3851 0
528 1 38.8387 21.5774 2.07269
529 1 36.6403 22.8466 2.07269
530 1 38.8387 24.1159 2.07269
531 1 36.6403 25.3851 2.07269
202 1 28.5794 26.6544 0
204 1 28.5794 29.1929 0
472 1 30.045 26.6544 2.07269
473 1 27.8466 27.9236 2.07269
474 1 30.045 29.1929 2.07269
233 1 30.7778 27.9236 0
232 1 32.9763 26.6544 0
234 1 32.9763 29.1929 0
502 1 34.4419 26.6544 2.07269
503 1 32.2434 27.9236 2.07269
504 1 34.4419 29.1929 2.07269
262 1 37.3731 26.6544 0
263 1 35.1747 27.9236 0
264 1 37.3731 29.1929 0
532 1 38.8387 26.6544 2.07269
533 1 36.6403 27.9236 2.07269
534 1 38.8387 29.1929 2.07269
206 1 28.5794 31.7314 0
475 1 27.8466 30.4622 2.07269
476 1 30.045 31.7314 2.07269
477 1 27.8466 33.0007 2.07269
235 1 30.7778 30.4622 0
237 1 30.7778 33.0007 0
745 1 29.303 30.358 4.14292
236 1 32.9763 31.7314 0
505 1 32.2434 30.4622 2.07269
506 1 34.4419 31.7314 2.07269
507 1 32.2434 33.0007 2.07269
775 1 33.9293 30.2895 4.32269
265 1 35.1747 30.4622 0
266 1 37.3731 31.7314 0
267 1 35.1747 33.0007 0
535 1 36.6403 30.4622 2.07269
536 1 38.8387 31.7314 2.07269
537 1 36.6403 33.0007 2.07269
806 1 35.9357 31.5617 4.08594
208 1 28.5794 34.2699 0
210 1 28.5794 36.8084 0
478 1 30.045 34.2699 2.07269
479 1 27.8466 35.5392 2.07269
480 1 30.045 36.8084 2.07269
239 1 30.7778 35.5392 0
238 1 32.9763 34.2699 0
240 1 32.9763 36.8084 0
508 1 34.4419 34.2699 2.07269
509 1 32.2434 35.5392 2.07269
510 1 34.4419 36.8084 2.07269
780 1 31.575 36.7213 4.27254
268 1 37.3731 34.2699 0
269 1 35.1747 35.5392 0
270 1 37.3731 36.8084 0
538 1 38.8387 34.2699 2.07269
539 1 36.6403 35.5392 2.07269
540 1 38.8387 36.8084 2.07269
781 1 38.0253 -0.126998 4.1725
723 1 29.4121 2.67065 4.26175
724 1 27.0908 3.83564 4.23982
722 1 27.2232 1.24369 4.17054
992 1 28.6559 1.2167 6.30239
994 1 28.4467 3.93211 6.33855
1023 1 30.9345 2.72517 6.31126
1021 1 30.9028 38.0857 6.15654
754 1 31.426 3.85196 4.02049
752 1 31.5412 1.47926 4.10074
753 1 33.6834 2.65942 4.24387
1022 1 33.0018 1.46796 6.36518
1024 1 32.9636 3.92745 6.724
1053 1 35.0673 2.55356 6.34031
784 1 35.9258 3.76438 4.42059
782 1 35.7282 1.3106 4.26713
783 1 38.0483 2.46392 4.38991
1052 1 37.2028 1.25963 6.49454
1054 1 37.2899 3.8098 6.39032
991 1 26.4548 0.117176 6.19859
726 1 27.0816 6.32862 3.99215
727 1 29.2943 7.71111 4.07418
725 1 29.3544 5.06964 4.20507
996 1 28.5639 6.46553 6.24468
1027 1 30.7092 7.59636 6.47986
1025 1 30.7233 5.1692 6.37423
755 1 33.6434 5.08369 4.17685
756 1 31.4655 6.44933 4.45795
757 1 33.6702 7.69529 4.07146
1026 1 33.0406 6.28374 6.40019
1055 1 34.9965 5.03357 6.4986
1057 1 35.3561 7.43609 6.48699
786 1 35.7313 6.35446 4.03681
785 1 37.8804 5.16768 4.22476
1056 1 37.4933 6.24937 6.28497
1007 1 26.3667 20.0878 6.31383
729 1 29.4169 10.0817 4.15024
728 1 27.0416 8.86977 4.15326
730 1 27.3287 11.2002 4.38188
998 1 28.7376 9.01443 6.18054
1000 1 28.7708 11.4595 6.30409
731 1 29.459 12.6668 4.18725
1029 1 30.969 10.1642 6.46565
758 1 31.5175 8.81567 4.11814
759 1 33.8115 10.1892 3.94012
1028 1 33.0283 8.92105 6.44814
1030 1 33.0573 11.3718 6.27674
1059 1 35.0976 10.1964 6.17704
788 1 35.9398 8.80945 4.18772
790 1 35.9134 11.3441 4.18914
789 1 37.9341 10.1451 4.15057
1058 1 37.3984 9.11362 6.64159
1060 1 37.2193 11.507 6.13324
2152 1 32.3013 26.6681 16.778
2164 1 30.5639 22.7404 17.407
733 1 29.226 15.1747 4.20971
732 1 27.1795 13.9617 4.2275
1002 1 28.7096 13.7681 6.33671
1004 1 28.6969 16.3687 6.4918
1031 1 30.9632 12.5668 6.43181
761 1 33.8373 12.7305 4.34062
1033 1 30.9895 15.0852 6.25958
762 1 31.6671 13.8615 4.39973
763 1 33.7929 15.3125 4.13503
764 1 31.3344 16.2793 4.16676
1032 1 33.1102 13.981 6.25248
1034 1 32.9806 16.5178 6.30365
1061 1 35.1833 12.6293 6.47014
1063 1 35.3551 15.2084 6.20023
792 1 35.9662 13.9613 4.07594
791 1 38.0126 12.7547 4.1086
794 1 36.0121 16.5394 4.29795
1062 1 37.5267 14.1822 6.2024
1064 1 37.3915 16.7311 6.42864
2145 1 35.2409 23.3906 16.9567
737 1 29.1773 20.4842 4.28743
735 1 29.3438 18.052 4.01223
736 1 27.0727 18.9866 4.16514
1006 1 28.5907 18.9294 6.34853
1035 1 30.6511 17.681 6.17813
1037 1 30.5878 20.067 6.34278
766 1 31.4221 19.0625 4.23621
767 1 33.6002 20.2538 4.12862
765 1 33.6689 17.7699 4.20944
1036 1 32.9001 19.2729 6.28291
1067 1 35.1496 20.4588 6.35635
1065 1 34.9507 17.9493 6.32552
797 1 38.1023 20.4734 3.95062
796 1 36.0879 19.0356 4.23268
1066 1 37.2954 19.2216 6.28106
1754 1 39.4585 32.7649 12.7527
2130 1 32.7254 21.884 16.8905
738 1 27.0659 21.6054 4.10896
739 1 29.288 22.9488 4.20935
740 1 26.9665 23.9657 4.25569
1008 1 28.3999 21.5074 6.41671
1010 1 28.5211 24.1514 6.31348
1746 1 26.3635 35.6781 12.8127
1013 1 26.2717 27.9202 6.44613
1039 1 30.7442 22.795 6.24142
769 1 33.6092 22.8031 4.20143
768 1 31.5865 21.4675 4.18213
1038 1 33.0283 21.7404 6.14976
1040 1 32.9639 23.9956 6.23558
801 1 38.1726 25.3089 4.23539
1069 1 35.0776 23.0211 6.33816
798 1 35.6808 21.5039 4.15647
800 1 35.9365 23.9044 4.24481
799 1 38.0768 22.7806 4.23217
1068 1 37.2158 21.5886 6.37529
1070 1 37.3591 24.1965 6.20987
741 1 29.1667 25.4889 4.32147
744 1 27.0648 29.168 4.21037
742 1 27.1909 26.6151 4.29102
743 1 29.3643 27.8665 4.25302
1012 1 28.6839 26.8161 6.47605
1014 1 28.6572 29.3061 6.20134
1043 1 30.8967 27.947 6.32954
771 1 33.8385 25.2207 4.13457
1041 1 30.6473 25.4793 6.33915
774 1 31.6469 29.1486 4.25022
773 1 33.9476 27.6706 4.36916
772 1 31.6224 26.6001 4.40336
1042 1 33.0398 26.6253 6.36677
1044 1 33.1047 29.2019 6.40231
802 1 35.9946 26.5097 4.05764
1071 1 35.1606 25.4444 6.41406
1073 1 35.3677 28.0162 6.32645
803 1 38.1934 27.6993 4.19771
804 1 36.1958 29.1028 4.25028
1072 1 37.2866 26.6522 6.50929
1074 1 37.6131 29.1396 6.34804
746 1 26.9089 31.6519 4.3601
747 1 29.4371 32.8563 4.15398
1016 1 28.6113 31.6582 6.34654
1047 1 30.7399 32.8517 6.27699
1045 1 30.7019 30.3535 6.45211
777 1 33.5688 32.8467 4.16245
776 1 31.5907 31.5038 4.08766
1046 1 32.9792 31.6649 6.47744
1075 1 35.4479 30.4399 6.52968
1077 1 35.1201 32.9007 6.53393
807 1 37.8706 33.0084 4.06708
805 1 38.227 30.3941 4.10617
1076 1 37.5433 31.7304 6.24229
831 1 39.5702 25.3696 6.49122
749 1 29.372 35.4123 4.27022
721 1 29.5742 38.1724 4.17755
748 1 27.2581 34.0883 4.21098
750 1 27.0605 36.6211 4.52247
1018 1 28.5532 33.9659 6.34501
1020 1 28.8619 36.8229 6.27447
2156 1 32.6155 24.2163 16.8396
751 1 33.8119 38.0883 4.27755
1049 1 30.842 35.3754 6.39291
778 1 31.3636 34.121 4.09266
779 1 33.7252 35.5617 4.08946
1048 1 32.9821 34.155 6.27007
1050 1 33.0945 36.8109 6.35075
1051 1 35.2116 38.161 6.34956
1079 1 35.1454 35.3671 6.39681
808 1 35.9068 34.4187 4.32509
810 1 35.9278 36.7351 4.20996
809 1 38.0544 35.5597 4.11029
1078 1 37.4166 34.2834 6.16823
1080 1 37.351 36.6695 6.11835
1262 1 30.1832 1.16487 8.38312
1263 1 27.8381 2.57043 8.41181
1533 1 29.2438 2.47752 10.6053
1532 1 27.0641 1.40436 10.7345
1264 1 30.038 3.85592 8.40324
1534 1 27.0782 3.79959 10.7206
1294 1 34.5518 3.8302 8.89012
1293 1 32.3869 2.5027 8.6185
1292 1 34.5016 1.33594 8.38701
1562 1 31.3307 1.3601 10.6428
1563 1 33.7417 2.47192 10.7019
1564 1 31.2757 3.84986 10.6329
1322 1 38.9064 1.33585 8.62812
1323 1 36.749 2.28755 8.69943
1592 1 36.0528 1.17619 10.6323
1593 1 37.9762 2.6089 10.9579
1324 1 38.9371 3.80462 8.5613
1594 1 35.9425 3.84082 10.8522
1266 1 29.9857 6.34004 8.62471
1267 1 27.9484 7.67691 8.33886
1265 1 27.8128 4.94973 8.38801
1536 1 27.3403 6.41744 10.4299
1537 1 29.4732 7.69505 10.6588
1535 1 29.26 5.14167 10.5608
1296 1 34.3948 6.2421 8.74339
1297 1 32.2938 7.66115 8.62504
1295 1 32.2534 5.07124 8.75453
1565 1 33.8076 4.93443 10.9647
1566 1 31.6244 6.31521 10.7441
1567 1 33.8541 7.57036 10.8786
1325 1 36.7804 4.86394 8.53314
1327 1 36.8644 7.43225 8.46537
1326 1 39.072 6.3033 8.49987
1595 1 38.1181 5.10064 10.8421
1596 1 36.0741 6.31777 10.5423
1597 1 38.2147 7.54144 10.9375
1269 1 27.6862 10.1215 8.38803
1538 1 27.1859 8.78869 10.6625
1268 1 30.0146 9.16548 8.64798
1270 1 30.213 11.625 8.65226
1540 1 27.0752 11.3007 10.7195
1539 1 29.4083 10.1851 10.8496
1541 1 29.2015 12.5864 10.6228
1271 1 27.8782 12.7934 8.59303
1298 1 34.5356 8.5951 8.72304
1299 1 32.4411 10.1351 8.77271
1300 1 34.5709 11.0716 8.59272
1569 1 33.7091 10.1039 10.9003
1570 1 31.5249 11.465 10.7129
1719 1 31.4901 8.66884 10.8785
1301 1 32.3696 12.708 8.36727
1329 1 36.6067 10.2248 8.74335
1328 1 38.8401 8.80184 8.74265
1330 1 38.6484 11.4912 8.37827
1599 1 38.3206 10.2062 10.8496
1600 1 35.6828 11.5141 10.7812
1598 1 35.9583 8.88703 10.6877
1331 1 36.6414 12.5989 8.59373
1274 1 29.9553 16.5155 8.50719
1273 1 27.7067 15.4609 8.64917
1272 1 29.8548 14.0046 8.48544
1542 1 26.9564 13.8675 10.8607
1543 1 29.1211 15.2328 10.7346
1544 1 27.1037 16.7031 10.7018
1571 1 33.6915 12.8814 10.6094
1304 1 34.4874 16.627 8.42436
1303 1 32.5144 15.2722 8.41971
1302 1 34.5392 13.8801 8.57705
1572 1 31.4781 13.7722 10.7557
1576 1 33.7719 15.1824 10.33
1574 1 31.3628 16.3279 10.6083
1601 1 38.3029 12.5084 10.7299
1334 1 38.7861 16.4826 8.67679
1332 1 38.785 13.9124 8.4998
1333 1 36.755 15.1037 8.69471
1602 1 35.9546 13.9854 10.5645
1603 1 38.2145 15.1522 10.7739
1604 1 36.1652 16.3766 10.6102
1277 1 27.8781 20.1745 8.86133
1275 1 27.6815 17.7405 8.51536
1276 1 29.8987 18.9927 8.57406
1545 1 29.2743 17.8503 10.7974
1546 1 26.9532 18.93 10.8481
1547 1 29.2041 20.2021 11.0067
1306 1 34.3563 19.0167 8.61531
1305 1 32.1048 17.9469 8.35573
1307 1 32.1366 20.3514 8.39844
1578 1 33.4772 20.3632 10.3954
1606 1 33.649 17.7504 10.4709
1724 1 31.5213 18.8127 10.7443
1335 1 36.6031 17.6844 8.59406
1337 1 36.5545 20.0968 8.46381
1336 1 38.8009 18.9672 8.64797
1605 1 38.0957 17.6805 10.9693
1607 1 37.9211 20.3909 10.7699
1892 1 36.0073 18.9467 10.6416
1278 1 29.7716 21.3592 8.533
1279 1 27.9364 22.9629 8.32917
1548 1 27.1769 21.5891 10.7172
1280 1 29.8927 24.2458 8.4971
1550 1 27.0588 24.1194 10.8163
1951 1 29.1078 22.797 10.7353
1551 1 29.1702 25.4635 10.8607
1579 1 31.2838 21.4413 10.4351
1310 1 34.5925 23.9958 8.39259
1308 1 34.4017 21.5951 8.17843
1309 1 31.9583 22.9659 8.41846
1580 1 31.3601 24.1396 10.5345
1858 1 33.7389 22.7277 10.5861
1581 1 33.5682 25.4346 10.5549
1340 1 38.7357 23.9037 8.53959
1338 1 38.6637 21.344 8.49643
1608 1 35.7532 21.547 10.6708
1339 1 36.556 22.677 8.3587
1610 1 35.7501 24.1236 10.7084
1758 1 37.8551 22.856 10.8241
1611 1 37.8431 25.3067 10.8202
1281 1 27.806 25.5175 8.62737
1284 1 29.9803 29.0861 8.2324
1282 1 30.2203 26.7603 8.72195
1283 1 27.8161 27.9475 8.50023
1552 1 26.9226 26.5193 10.7255
1553 1 29.3502 27.8658 10.7106
1697 1 27.3134 29.0253 10.7709
1311 1 32.2078 25.3902 8.45775
1312 1 34.5136 26.619 8.66904
1313 1 32.4012 27.9729 8.45146
1582 1 31.5087 26.5746 10.7206
1584 1 31.4276 29.0488 10.8888
1583 1 33.5548 27.9308 10.6648
1314 1 34.5561 29.1062 8.76313
1341 1 36.591 25.1784 8.56518
1344 1 38.7657 29.1852 8.43595
1342 1 38.6538 26.556 8.66703
1612 1 35.9285 26.5987 10.7753
1343 1 36.6951 27.9307 8.58391
1613 1 38.1157 27.6249 10.8516
1614 1 36.176 29.051 10.5751
1287 1 27.8005 33.0308 8.62015
1286 1 30.1673 31.7797 8.72551
1285 1 27.8955 30.4445 8.6067
1555 1 29.192 30.2727 10.4745
1556 1 27.1222 31.5765 10.9313
1557 1 29.2093 32.8712 10.6552
1315 1 32.1709 30.3494 8.52824
1316 1 34.4276 31.7358 8.76492
1317 1 32.3091 33.0054 8.4083
1585 1 33.5736 30.4911 10.6967
1586 1 31.5064 31.5958 10.6846
1587 1 33.5319 32.8207 10.7824
1346 1 38.8535 31.7558 8.5464
1347 1 36.6685 33.1696 8.38362
1345 1 36.6381 30.5594 8.86665
1615 1 38.0209 30.4386 10.8059
1616 1 35.781 31.6727 10.924
1617 1 37.921 32.9574 10.615
1531 1 29.1707 37.9134 10.5092
1261 1 27.7646 38.0559 8.52298
1288 1 30.141 34.293 8.56494
1558 1 27.167 34.0737 10.8418
1290 1 30.2035 36.8681 8.43863
1289 1 27.8967 35.5425 8.63901
1559 1 29.0847 35.4357 10.6118
1677 1 27.0161 36.888 10.7154
1561 1 33.6327 38.0813 10.6633
1291 1 32.3898 0.02706 8.37872
1319 1 32.3219 35.5698 8.44616
1588 1 31.4803 34.1382 10.5914
1318 1 34.3955 34.2059 8.41235
1590 1 31.4453 36.743 10.485
1589 1 33.5778 35.55 10.6393
1320 1 34.4566 36.802 8.59246
1591 1 38.3155 37.9937 10.8513
1321 1 36.588 37.8961 8.41683
1618 1 35.7952 33.9811 10.4594
1349 1 36.6977 35.4871 8.46242
1348 1 38.7945 34.3102 8.55236
1620 1 35.9474 36.816 10.6342
1619 1 38.0759 35.4611 10.6557
1350 1 38.995 36.8246 8.48494
2039 1 28.0651 2.51637 15.0838
2003 1 30.3339 1.33534 14.9157
1683 1 28.6773 1.41611 12.9758
1674 1 28.6939 4.04348 12.6945
2077 1 30.1159 3.85184 15.1409
1623 1 30.785 2.51578 12.9645
1671 1 33.0609 1.03968 12.7667
2015 1 34.5067 1.24382 15.7134
2075 1 32.3452 2.78753 15.3599
2095 1 34.5136 3.85557 15.3809
1652 1 33.04 3.74439 12.8946
1764 1 32.3511 0.0663269 15.1974
1656 1 35.2371 2.40224 12.7195
2091 1 36.6154 2.47354 15.0189
1641 1 37.4764 0.941561 13.0075
2058 1 39.1049 1.40613 15.104
1633 1 37.4648 3.80046 13.0114
2049 1 38.9974 3.78398 15.4228
825 1 39.5339 18.0731 6.4079
2102 1 27.9747 7.5929 14.8044
2070 1 27.9361 5.09055 15.0942
1739 1 30.1873 6.49822 15.251
1741 1 28.5781 6.44939 12.6872
1689 1 30.7502 7.56065 13.1245
1626 1 30.9475 5.15301 12.6803
2046 1 32.1716 5.09205 15.1923
1624 1 33.0092 6.3505 13.0693
1628 1 32.2909 7.50554 15.3563
2073 1 34.5642 6.54002 15.1134
2078 1 35.2152 4.97657 13.2519
1621 1 35.2757 7.62932 12.9428
2157 1 36.6264 7.75934 15.0897
2139 1 38.7088 6.42294 15.1272
2088 1 36.7327 5.23752 15.3068
1701 1 37.3288 6.4386 13.1119
2081 1 30.217 8.96202 15.1421
1765 1 28.0723 10.0697 15.0397
2089 1 28.5219 11.4605 12.8488
1737 1 28.6281 8.80317 12.6034
2106 1 30.2637 11.5738 15.3177
1568 1 30.7862 10.1169 12.9633
2026 1 27.7491 12.4194 15.1333
2113 1 34.6458 8.99511 15.1924
2162 1 34.475 11.4246 15.0843
1869 1 32.9313 8.86048 13.1279
2128 1 32.386 10.0858 15.1959
1809 1 33.0485 11.3512 12.8745
1846 1 35.1059 12.7041 12.9877
1814 1 35.1613 10.1315 13.0366
2119 1 39.0715 9.01866 14.9012
1838 1 36.7822 10.3617 15.1419
1734 1 37.5004 9.05007 12.9784
2133 1 37.4073 11.3908 12.9682
2141 1 28.4506 21.4646 17.485
2116 1 30.1907 13.9291 14.875
1859 1 28.5447 13.81 12.8183
2012 1 27.8119 14.9749 14.8155
1789 1 28.3919 16.6912 12.9492
2052 1 29.9285 16.3652 14.856
1849 1 30.6322 15.2014 12.8406
2109 1 32.3845 12.5831 14.9893
1786 1 30.9186 12.6602 12.9608
2125 1 32.4658 15.184 14.5868
1796 1 33.0963 13.8987 12.739
1573 1 33.0467 16.3871 12.482
2059 1 34.4606 16.5831 14.9314
1848 1 34.413 13.8354 15.1731
2056 1 35.0495 15.193 12.7887
1889 1 36.5836 14.8725 14.728
1704 1 37.2963 16.3273 12.9157
2100 1 37.1615 13.6637 12.7435
2121 1 38.8004 16.5244 15.0191
2137 1 28.3723 24.0555 17.311
2140 1 30.4105 25.2299 17.3008
2163 1 30.7983 20.1858 17.2713
1975 1 27.9518 17.4628 15.105
1977 1 27.6508 20.1185 15.181
1947 1 28.5784 18.9964 12.9998
2104 1 30.2094 18.7809 15.0112
1957 1 30.8843 17.78 12.8572
1851 1 30.6908 20.1687 12.8269
2155 1 32.2162 17.6924 15.0179
2117 1 32.9662 19.0484 12.8712
1575 1 32.3962 20.1375 15.1538
1886 1 34.7727 19.1804 14.6911
1681 1 35.0649 20.2718 12.2803
2045 1 35.3147 17.7008 12.8602
2022 1 38.9765 19.0582 15.1861
2062 1 36.6285 17.6921 15.0678
1945 1 36.7099 20.2736 15.2614
1934 1 37.3839 19.0346 13.1179
2112 1 29.8945 23.8263 15.5199
1720 1 28.5594 21.4371 12.8867
1735 1 28.6771 24.0504 12.9862
2044 1 27.6396 22.6907 15.2184
1910 1 30.0248 21.1169 15.0586
1713 1 30.6249 25.3121 12.913
2069 1 27.926 25.4266 15.3334
1549 1 30.6768 22.6373 12.887
1577 1 34.4542 21.5407 15.3557
1998 1 32.2098 22.8211 14.8662
2107 1 33.0206 24.1317 12.5617
1942 1 34.2554 24.0836 14.9227
2011 1 32.8783 21.4677 12.574
1857 1 35.1716 22.6765 13.0505
1986 1 38.9171 21.4626 15.3695
1850 1 37.2403 21.4619 12.995
2017 1 36.6917 22.4697 15.1467
1840 1 38.5994 24.0864 15.2979
1875 1 37.2634 24.0626 13.0592
1972 1 36.3449 25.3023 15.0415
1680 1 35.1673 37.9587 12.8895
2014 1 36.5644 -0.124298 15.1154
1554 1 27.8523 27.8245 15.2385
2055 1 30.1636 26.5128 15.3207
1798 1 28.6525 28.9417 12.8501
1862 1 28.5735 26.4549 12.9807
1997 1 30.0434 29.1616 15.0885
1827 1 30.9021 27.7256 12.9018
2074 1 32.2683 25.2394 14.6913
2038 1 32.0992 28.0884 14.8572
1963 1 34.1685 26.7192 14.9635
1919 1 32.9262 29.2453 12.952
1940 1 33.0401 26.5443 12.7712
1928 1 34.1236 29.5107 15.0257
1804 1 39.6049 27.8877 12.8968
1609 1 35.1634 25.4036 12.9136
1843 1 35.0104 27.9843 12.816
1911 1 38.5735 26.6653 15.192
1870 1 38.5406 29.1725 14.9055
1888 1 36.3944 27.9767 14.9409
1374 1 37.2505 26.7698 12.832
1844 1 37.2364 29.166 12.8548
1989 1 38.9242 34.2217 15.2087
1999 1 27.756 33.1837 14.9744
1944 1 29.7774 31.666 15.2586
1950 1 27.8958 30.3033 15.1525
1722 1 28.6873 31.5504 12.9739
1684 1 37.257 36.6432 12.5473
1833 1 30.7874 32.966 12.6232
1845 1 30.7969 30.4571 12.8024
1948 1 32.3504 33.0608 15.6636
1921 1 34.575 31.9871 14.9914
1810 1 33.0645 31.5868 12.9678
2028 1 31.9807 30.7518 15.2694
1829 1 35.259 32.8723 12.8899
1867 1 35.1286 30.3445 12.7688
1752 1 37.3083 31.5012 12.8958
1943 1 37.0084 33.0301 14.8819
1905 1 36.4572 30.6338 14.9125
1863 1 38.9184 31.6677 15.0147
1653 1 39.5253 15.0101 12.8712
2033 1 28.1265 0.194983 14.8296
1907 1 27.7979 35.6987 15.1038
1979 1 30.0567 36.8358 14.9788
1808 1 28.5306 33.9179 12.7685
1962 1 30.2018 34.147 15.0243
1675 1 28.6132 36.8912 12.7407
1983 1 30.7813 35.3533 12.9297
1643 1 30.8478 38.1225 12.8613
1750 1 35.0251 35.4962 12.7482
1820 1 32.719 34.1128 12.971
1992 1 34.4325 36.8478 14.7836
1687 1 32.87 36.7875 12.835
1941 1 34.7105 34.3995 14.9684
2018 1 32.2461 35.5759 15.4085
1710 1 39.6191 35.2651 12.995
1782 1 37.3229 34.0897 12.7222
1949 1 36.7866 35.4926 14.6864
1980 1 38.774 37.0433 14.9667
1699 1 39.3673 25.4288 12.789
833 1 39.7783 27.9045 6.31398
1824 1 39.4404 17.9157 12.9524
1622 1 39.5678 5.03182 13.0069
1678 1 39.4123 22.9498 12.9087
1753 1 39.302 20.3479 12.8611
823 1 39.566 15.6191 6.45068
811 1 39.485 0.136557 6.38205
1645 1 39.5471 2.68562 13.1295
813 1 39.7585 2.65228 6.40834
997 1 26.5074 7.67151 6.23791
993 1 26.4197 2.50984 6.44602
995 1 26.3644 5.05892 6.36181
1001 1 26.4438 12.6041 6.3154
2168 1 27.2818 6.73003 16.9025
1011 1 26.5485 25.6178 6.3248
1009 1 26.3474 22.7328 6.37719
1790 1 26.534 25.2928 13.0286
1864 1 26.4194 22.9096 12.9111
1938 1 26.418 27.8771 12.9704
1019 1 26.4037 35.5295 6.55988
1560 1 26.4845 0.0396679 13.0134
1503 1 26.457 2.3996 12.6478
1807 1 26.4725 4.91917 13.0205
2071 1 26.5005 9.97341 12.7611
2135 1 26.6094 27.3915 17.1839
2173 1 9.228630194942706 29.501910824915623 38
