# LAMMPS data file written by OVITO Basic 3.7.11
2311 atoms
1 atom types
0.0 39.57150679 xlo xhi
0.0 38.07770017 ylo yhi
0.0 40.4361248 zlo zhi

Masses

1 63.550  # Cu

Atoms  

1 1 0 0 0
2 1 2.19842 1.26926 0
3 1 0 2.53851 0
4 1 2.19842 3.80777 0
271 1 1.46561 2.31199e-16 2.07269
272 1 3.66403 1.26926 2.07269
273 1 1.46561 2.53851 2.07269
274 1 3.66403 3.80777 2.07269
31 1 4.39683 0 0
33 1 4.39683 2.53851 0
32 1 6.59525 1.26926 0
34 1 6.59525 3.80777 0
301 1 5.86245 2.31199e-16 2.07269
302 1 8.06086 1.26926 2.07269
303 1 5.86245 2.53851 2.07269
304 1 8.06086 3.80777 2.07269
61 1 8.79367 0 0
62 1 10.9921 1.26926 0
63 1 8.79367 2.53851 0
64 1 10.9921 3.80777 0
331 1 10.2593 2.31199e-16 2.07269
332 1 12.4577 1.26926 2.07269
333 1 10.2593 2.53851 2.07269
334 1 12.4577 3.80777 2.07269
91 1 13.1905 0 0
93 1 13.1905 2.53851 0
5 1 0 5.07703 0
6 1 2.19842 6.34628 0
7 1 0 7.61554 0
275 1 1.46561 5.07703 2.07269
276 1 3.66403 6.34628 2.07269
277 1 1.46561 7.61554 2.07269
35 1 4.39683 5.07703 0
37 1 4.39683 7.61554 0
36 1 6.59525 6.34628 0
305 1 5.86245 5.07703 2.07269
306 1 8.06086 6.34628 2.07269
307 1 5.86245 7.61554 2.07269
65 1 8.79367 5.07703 0
66 1 10.9921 6.34628 0
67 1 8.79367 7.61554 0
335 1 10.2593 5.07703 2.07269
336 1 12.4577 6.34628 2.07269
337 1 10.2593 7.61554 2.07269
95 1 13.1905 5.07703 0
97 1 13.1905 7.61554 0
606 1 9.55058 6.40577 4.31081
8 1 2.19842 8.8848 0
9 1 0 10.1541 0
10 1 2.19842 11.4233 0
278 1 3.66403 8.8848 2.07269
279 1 1.46561 10.1541 2.07269
280 1 3.66403 11.4233 2.07269
39 1 4.39683 10.1541 0
548 1 0.796961 8.83107 4.18887
38 1 6.59525 8.8848 0
40 1 6.59525 11.4233 0
308 1 8.06086 8.8848 2.07269
309 1 5.86245 10.1541 2.07269
310 1 8.06086 11.4233 2.07269
68 1 10.9921 8.8848 0
69 1 8.79367 10.1541 0
70 1 10.9921 11.4233 0
338 1 12.4577 8.8848 2.07269
339 1 10.2593 10.1541 2.07269
340 1 12.4577 11.4233 2.07269
99 1 13.1905 10.1541 0
11 1 0 12.6926 0
281 1 1.46561 12.6926 2.07269
41 1 4.39683 12.6926 0
12 1 2.19842 13.9618 0
13 1 0 15.2311 0
14 1 2.19842 16.5003 0
282 1 3.66403 13.9618 2.07269
283 1 1.46561 15.2311 2.07269
284 1 3.66403 16.5003 2.07269
43 1 4.39683 15.2311 0
311 1 5.86245 12.6926 2.07269
42 1 6.59525 13.9618 0
44 1 6.59525 16.5003 0
312 1 8.06086 13.9618 2.07269
313 1 5.86245 15.2311 2.07269
314 1 8.06086 16.5003 2.07269
71 1 8.79367 12.6926 0
341 1 10.2593 12.6926 2.07269
72 1 10.9921 13.9618 0
73 1 8.79367 15.2311 0
74 1 10.9921 16.5003 0
342 1 12.4577 13.9618 2.07269
343 1 10.2593 15.2311 2.07269
344 1 12.4577 16.5003 2.07269
101 1 13.1905 12.6926 0
103 1 13.1905 15.2311 0
15 1 0 17.7696 0
16 1 2.19842 19.0389 0
17 1 0 20.3081 0
285 1 1.46561 17.7696 2.07269
286 1 3.66403 19.0389 2.07269
287 1 1.46561 20.3081 2.07269
45 1 4.39683 17.7696 0
47 1 4.39683 20.3081 0
46 1 6.59525 19.0389 0
315 1 5.86245 17.7696 2.07269
316 1 8.06086 19.0389 2.07269
317 1 5.86245 20.3081 2.07269
75 1 8.79367 17.7696 0
76 1 10.9921 19.0389 0
77 1 8.79367 20.3081 0
345 1 10.2593 17.7696 2.07269
346 1 12.4577 19.0389 2.07269
347 1 10.2593 20.3081 2.07269
105 1 13.1905 17.7696 0
107 1 13.1905 20.3081 0
18 1 2.19842 21.5774 0
19 1 0 22.8466 0
20 1 2.19842 24.1159 0
21 1 0 25.3851 0
288 1 3.66403 21.5774 2.07269
289 1 1.46561 22.8466 2.07269
290 1 3.66403 24.1159 2.07269
291 1 1.46561 25.3851 2.07269
49 1 4.39683 22.8466 0
51 1 4.39683 25.3851 0
48 1 6.59525 21.5774 0
50 1 6.59525 24.1159 0
318 1 8.06086 21.5774 2.07269
319 1 5.86245 22.8466 2.07269
320 1 8.06086 24.1159 2.07269
321 1 5.86245 25.3851 2.07269
78 1 10.9921 21.5774 0
79 1 8.79367 22.8466 0
80 1 10.9921 24.1159 0
81 1 8.79367 25.3851 0
348 1 12.4577 21.5774 2.07269
349 1 10.2593 22.8466 2.07269
350 1 12.4577 24.1159 2.07269
351 1 10.2593 25.3851 2.07269
109 1 13.1905 22.8466 0
111 1 13.1905 25.3851 0
22 1 2.19842 26.6544 0
23 1 0 27.9236 0
24 1 2.19842 29.1929 0
292 1 3.66403 26.6544 2.07269
293 1 1.46561 27.9236 2.07269
294 1 3.66403 29.1929 2.07269
53 1 4.39683 27.9236 0
52 1 6.59525 26.6544 0
54 1 6.59525 29.1929 0
322 1 8.06086 26.6544 2.07269
323 1 5.86245 27.9236 2.07269
324 1 8.06086 29.1929 2.07269
82 1 10.9921 26.6544 0
83 1 8.79367 27.9236 0
84 1 10.9921 29.1929 0
352 1 12.4577 26.6544 2.07269
353 1 10.2593 27.9236 2.07269
354 1 12.4577 29.1929 2.07269
113 1 13.1905 27.9236 0
25 1 0 30.4622 0
26 1 2.19842 31.7314 0
27 1 0 33.0007 0
295 1 1.46561 30.4622 2.07269
296 1 3.66403 31.7314 2.07269
297 1 1.46561 33.0007 2.07269
55 1 4.39683 30.4622 0
57 1 4.39683 33.0007 0
565 1 2.95218 30.4662 4.24427
56 1 6.59525 31.7314 0
325 1 5.86245 30.4622 2.07269
326 1 8.06086 31.7314 2.07269
327 1 5.86245 33.0007 2.07269
85 1 8.79367 30.4622 0
86 1 10.9921 31.7314 0
87 1 8.79367 33.0007 0
355 1 10.2593 30.4622 2.07269
356 1 12.4577 31.7314 2.07269
357 1 10.2593 33.0007 2.07269
115 1 13.1905 30.4622 0
117 1 13.1905 33.0007 0
28 1 2.19842 34.2699 0
29 1 0 35.5392 0
30 1 2.19842 36.8084 0
298 1 3.66403 34.2699 2.07269
299 1 1.46561 35.5392 2.07269
300 1 3.66403 36.8084 2.07269
59 1 4.39683 35.5392 0
58 1 6.59525 34.2699 0
60 1 6.59525 36.8084 0
328 1 8.06086 34.2699 2.07269
329 1 5.86245 35.5392 2.07269
330 1 8.06086 36.8084 2.07269
88 1 10.9921 34.2699 0
89 1 8.79367 35.5392 0
90 1 10.9921 36.8084 0
358 1 12.4577 34.2699 2.07269
359 1 10.2593 35.5392 2.07269
360 1 12.4577 36.8084 2.07269
119 1 13.1905 35.5392 0
628 1 9.64035 34.21 4.21827
543 1 3.13002 2.41481 4.32879
544 1 0.664832 3.84347 4.1897
542 1 0.901141 1.0142 4.343
812 1 2.23278 1.29604 6.39662
814 1 2.30938 3.77167 6.41879
2220 1 11.8842 35.374 17.4941
2250 1 9.57239 34.0637 17.3444
843 1 4.52664 2.58142 6.47676
574 1 5.32941 3.70706 4.24579
572 1 5.25815 1.19078 4.22216
573 1 7.40834 2.38931 4.39392
842 1 6.73253 1.19046 6.71955
844 1 6.74113 3.95298 6.39509
873 1 8.95111 2.46172 6.30309
871 1 9.09133 38.052 6.17349
604 1 9.6221 3.71708 4.29881
602 1 9.67173 1.23808 4.33665
603 1 11.7172 2.50481 4.25295
872 1 11.1629 1.35651 6.72332
874 1 11.1246 3.7988 6.4706
811 1 0.0666719 37.7603 6.67123
901 1 13.148 38.1833 6.49184
545 1 2.95061 4.97893 4.11738
547 1 3.04374 7.84196 4.17155
546 1 0.949422 6.23528 4.55879
816 1 2.51529 6.07748 6.3289
2279 1 9.93313 36.6089 17.2112
2254 1 11.9326 38.1364 17.5082
845 1 4.65461 5.03036 6.2663
847 1 4.32479 7.69846 6.23471
576 1 5.38788 6.2878 4.132
575 1 7.36478 5.05102 4.1404
577 1 7.43624 7.69685 4.26462
846 1 6.90487 6.37623 6.36233
877 1 8.92645 7.76827 6.44696
605 1 11.6 4.99087 4.35176
875 1 8.86921 5.03797 6.63403
607 1 11.8466 7.60856 4.16686
876 1 11.1423 6.35243 6.62938
817 1 -0.0679377 7.38249 6.33297
550 1 0.664694 11.2151 4.12381
549 1 2.93488 10.3904 4.13689
818 1 2.16984 8.83999 6.28009
820 1 2.24968 11.4077 6.14871
551 1 2.78969 12.7257 4.07977
1710 1 0.221005 35.5677 12.9422
849 1 4.43193 10.2181 6.28372
578 1 5.15342 9.08293 4.18047
580 1 5.12565 11.4613 4.21135
579 1 7.35173 10.1905 4.22421
848 1 6.83505 9.01347 6.38063
850 1 6.6221 11.5325 6.31164
581 1 7.3443 12.6022 4.39624
881 1 9.0548 12.8239 6.24342
879 1 9.10911 10.2451 6.32476
610 1 9.55942 11.3761 4.15423
609 1 11.8399 10.2973 4.33489
608 1 9.51729 8.82358 4.38789
878 1 11.1661 8.69789 6.48684
880 1 11.3621 11.4385 6.30904
611 1 11.6328 12.8169 4.33779
552 1 0.826538 13.8967 4.23365
553 1 2.91105 15.432 4.21904
554 1 0.670511 16.6091 4.09556
822 1 2.13816 13.8186 6.05576
824 1 2.25879 16.5609 6.34207
2243 1 7.72684 35.4662 17.2299
851 1 4.46322 12.7433 6.23221
584 1 5.10027 16.4869 4.10711
853 1 4.46562 15.2842 6.20806
582 1 5.3341 13.8691 4.19464
583 1 7.25235 15.3961 4.29616
852 1 6.57712 13.9657 6.45687
854 1 6.70911 16.4847 6.3004
2205 1 9.50203 31.623 17.2291
883 1 8.73495 15.2662 6.48343
612 1 9.42181 14.0756 4.19321
613 1 11.8121 14.9812 4.43573
614 1 9.29928 16.4914 4.20433
882 1 10.9385 14.0193 6.67908
884 1 10.8893 16.5354 6.39328
2188 1 11.7497 30.5302 16.9898
556 1 0.653883 18.9028 4.14065
555 1 2.83047 17.8683 4.08077
557 1 2.88052 20.4108 4.30279
826 1 2.34605 19.0897 6.47373
855 1 4.49389 17.7528 6.31066
857 1 4.42003 20.233 6.29518
585 1 7.25837 17.8058 4.23648
587 1 7.32886 20.3593 4.1512
586 1 5.19071 19.0993 4.15141
856 1 6.47661 19.0019 6.40508
885 1 8.71839 17.6806 6.24625
887 1 8.83097 20.2539 6.4533
615 1 11.5516 17.6939 4.41924
616 1 9.49593 18.9277 4.01822
617 1 11.8017 20.1512 4.45785
886 1 10.9294 19.015 6.40014
559 1 2.8923 23.0531 4.30453
560 1 0.69642 24.053 4.25158
558 1 0.593413 21.5907 4.31418
828 1 1.9794 21.6951 6.37823
830 1 1.99841 24.0701 6.47954
859 1 4.48454 22.6243 6.4078
589 1 7.30403 22.8453 4.41803
590 1 5.14351 24.233 4.10039
588 1 5.08496 21.4276 4.1125
858 1 6.51692 21.405 6.35213
860 1 6.59408 24.0519 6.38637
889 1 8.66542 22.8201 6.64615
618 1 9.58941 21.4187 4.36479
620 1 9.39501 24.0012 4.22315
619 1 11.6868 22.9177 4.37529
888 1 10.8925 21.5438 6.52111
890 1 10.9504 23.9501 6.46736
2203 1 11.7259 32.8229 17.1881
561 1 3.01452 25.4818 4.25171
562 1 0.618776 26.8348 4.19909
563 1 2.89017 27.9816 4.24665
564 1 0.653985 29.3223 4.38917
832 1 2.31575 26.5683 6.30057
834 1 2.02256 29.1271 6.25541
863 1 4.25126 27.7752 6.65442
833 1 0.0625966 27.9674 6.45671
861 1 4.36085 25.0256 6.48109
591 1 7.22098 25.5513 4.16543
594 1 5.22758 29.1545 4.23932
592 1 5.13317 26.8271 4.37581
593 1 7.39156 27.9836 4.08653
862 1 6.43394 26.5683 6.4581
864 1 6.68468 28.9579 6.39831
893 1 8.78147 27.8676 6.24993
891 1 8.72658 25.346 6.16773
621 1 11.7514 25.4064 4.3108
622 1 9.56016 26.5475 4.0518
624 1 9.47334 29.0814 4.24558
623 1 11.6049 27.8867 4.13987
892 1 11.0394 26.4948 6.49098
894 1 10.869 29.161 6.3485
567 1 2.97647 33.0789 4.23888
566 1 0.644884 31.7599 4.16461
836 1 2.15094 31.8646 6.2874
867 1 4.35184 33.0571 6.29365
837 1 -0.0314647 33.0354 6.6044
825 1 0.0549883 17.669 6.09044
865 1 4.50537 30.2944 6.45647
597 1 7.4304 33.0543 4.34771
595 1 7.40266 30.4723 4.43465
596 1 5.07731 31.7275 4.2405
866 1 6.72566 31.5193 6.57921
897 1 8.80133 32.9147 6.51604
895 1 8.91447 30.2566 6.48092
627 1 11.7574 32.9587 4.40755
625 1 11.8408 30.3924 4.18311
626 1 9.56838 31.6065 4.2507
896 1 11.0756 31.8063 6.3969
1754 1 0.282916 32.9074 12.7683
570 1 0.725505 36.7694 4.19551
541 1 3.04538 38.1243 4.17004
568 1 0.850583 34.1939 4.20912
569 1 2.97783 35.4933 4.16649
838 1 2.2274 34.4097 6.34157
840 1 2.16722 36.6914 6.50382
571 1 7.50813 37.9578 4.38168
869 1 4.42797 35.6109 6.32704
841 1 4.37828 38.0957 6.19781
600 1 5.41699 36.6908 4.20389
598 1 5.19776 34.3728 4.35614
599 1 7.41461 35.3965 4.30824
868 1 6.58863 34.2904 6.44192
870 1 6.53292 36.7929 6.5403
899 1 8.89018 35.4724 6.26911
601 1 11.7631 38.0555 4.41213
629 1 11.7392 35.4932 4.25885
630 1 9.64876 36.7115 4.21699
898 1 11.0601 34.2967 6.61394
900 1 11.0423 36.739 6.51291
1084 1 3.96248 3.99484 8.7133
1082 1 3.78579 1.18115 8.49245
1083 1 1.70314 2.66618 8.49846
1352 1 0.589602 1.59457 10.6696
1353 1 2.89863 2.65609 10.5094
1354 1 0.751975 4.01986 10.7543
1114 1 7.98185 3.55828 8.69912
1112 1 8.07947 1.24136 8.79533
1113 1 5.89976 2.51268 8.57239
1382 1 5.37463 1.19279 10.8659
1383 1 7.35782 2.48452 10.9711
1384 1 5.15832 3.73238 10.821
1381 1 7.45911 -0.257135 10.7298
1144 1 12.4556 3.95877 8.74425
1143 1 10.4345 2.56303 8.55076
1142 1 12.5884 1.28249 8.88497
1412 1 9.65387 1.34785 10.8007
1413 1 11.6902 2.53812 11.0442
1414 1 9.78958 3.91351 10.6444
1141 1 10.3795 -0.0968502 8.58963
1086 1 3.56045 6.38229 8.59907
1087 1 1.42726 7.61417 8.30316
1085 1 1.45761 5.21393 8.60802
1355 1 2.84105 5.27478 10.7358
1356 1 0.838433 6.59036 10.7648
1667 1 3.02564 7.71328 10.4426
1115 1 5.99698 5.25552 8.54089
1117 1 5.90344 7.69319 8.25291
1116 1 8.15797 6.41958 8.70474
1385 1 7.36229 4.99583 10.7368
1387 1 7.39367 7.60218 10.7969
1694 1 5.20995 6.38356 10.5838
1147 1 10.263 7.56233 8.70182
1145 1 10.2565 5.07633 8.60438
1146 1 12.541 6.31498 8.76361
1416 1 9.50173 6.5495 10.9398
1800 1 12.0244 5.17759 11.2235
1832 1 11.8961 7.77541 10.6295
1357 1 3.17423 9.9532 10.5576
1088 1 3.68401 8.89715 8.36066
1358 1 0.852003 8.97037 10.4002
1089 1 1.4994 10.2263 8.40272
1090 1 3.79423 11.4375 8.43618
1359 1 0.863448 11.4281 10.5913
1091 1 1.53279 12.608 8.29372
1386 1 5.29979 8.95433 10.6287
1118 1 7.98244 8.97858 8.5893
1120 1 8.11987 11.5539 8.57282
1119 1 5.88466 10.2944 8.57924
1390 1 5.10801 11.2932 10.7093
1389 1 7.37527 10.2225 10.7981
1391 1 7.28885 12.7616 10.5248
1121 1 5.81555 12.7544 8.50486
1149 1 10.3447 10.1529 8.4753
1418 1 9.46888 9.05393 10.652
1717 1 9.51282 11.6402 10.6535
1148 1 12.6546 8.91597 8.6038
1150 1 12.6078 11.4209 8.47964
1419 1 11.4878 10.2897 10.659
1151 1 10.3754 12.58 8.67016
1421 1 11.7866 12.8141 10.6159
1360 1 3.00651 12.5338 10.4531
1092 1 3.693 13.7921 8.41648
1094 1 4.00027 16.2896 8.42609
1093 1 1.70777 15.0617 8.48731
1362 1 0.721646 14.0201 10.7027
1363 1 3.039 14.9552 10.5742
1364 1 0.660374 16.4931 10.6974
1122 1 8.19243 14.0146 8.46577
1124 1 8.13869 16.4675 8.51088
1123 1 6.04441 15.1514 8.52507
1392 1 5.12561 13.8137 10.4644
1393 1 7.35566 15.2831 10.6029
1394 1 5.1842 16.3823 10.8339
1152 1 12.4147 13.8791 8.534
1153 1 10.3154 15.2721 8.63019
1422 1 9.53126 14.1083 10.7068
1423 1 11.6496 15.1097 10.8283
1154 1 12.505 16.4374 8.72049
1424 1 9.5028 16.4659 10.7126
1095 1 1.58217 17.7457 8.31521
1096 1 3.8326 18.7959 8.59149
1097 1 1.53319 20.204 8.40853
1365 1 2.88038 17.5526 10.3234
1366 1 0.642434 19.0122 10.5844
1367 1 2.93479 20.2219 10.6888
1126 1 8.15365 18.9343 8.40288
1127 1 5.93745 20.1547 8.65024
1125 1 5.95492 17.4964 8.57714
1395 1 7.47834 17.8552 10.6442
1396 1 5.23249 19.0165 10.8027
1397 1 7.24201 20.2645 10.8391
1155 1 10.367 17.9175 8.56623
1156 1 12.3711 18.9981 8.55019
1157 1 10.1672 20.5189 8.72272
1425 1 11.6342 17.8371 10.6043
1426 1 9.54468 19.0388 10.829
1427 1 11.6984 20.4803 10.78
1368 1 0.616863 21.7363 10.7897
1099 1 1.38476 22.7124 8.57071
1098 1 3.63941 21.4684 8.43179
1100 1 3.40852 24.0243 8.48591
1369 1 2.78635 22.5721 10.565
1370 1 0.656327 24.1621 10.7819
1101 1 1.41209 25.3405 8.63709
1398 1 4.98087 21.4562 10.7764
1129 1 5.68116 22.6755 8.48116
1128 1 7.81145 21.6881 8.57387
1130 1 8.0146 24.2281 8.61403
1399 1 7.4025 22.9966 10.6463
1400 1 5.02695 24.0685 10.7788
1401 1 7.13746 25.4305 10.7005
1131 1 5.55932 25.3178 8.65021
1428 1 9.39067 21.3941 10.9922
1158 1 12.3657 21.6996 8.60616
1160 1 12.3779 24.2819 8.7106
1159 1 9.95195 22.8081 8.87016
1429 1 11.6024 22.7795 10.6642
1430 1 9.59165 24.197 11.005
1371 1 2.93654 25.382 10.7373
1102 1 3.64953 26.6356 8.79768
1103 1 1.47739 28.0088 8.41727
1372 1 0.776831 26.7913 10.6434
1373 1 2.8496 27.97 10.9794
1775 1 0.809038 29.1474 10.6506
1104 1 3.50196 29.3307 8.39939
1133 1 5.83126 27.9182 8.68698
1132 1 7.90214 26.6095 8.35114
1402 1 4.99645 26.643 10.7903
1404 1 5.21704 29.2305 10.768
1134 1 7.93035 29.1437 8.66965
1403 1 7.2931 27.8645 10.8083
1161 1 10.4002 25.3545 8.42739
1431 1 11.6563 25.3872 10.9271
1162 1 12.3493 26.9457 8.94172
1163 1 10.1545 28.1128 8.38528
1432 1 9.39171 26.8755 10.4778
1433 1 11.4837 27.8075 10.8703
1164 1 12.4803 29.3464 8.42098
1818 1 9.5506 29.2888 10.6804
1105 1 1.41738 30.4746 8.44763
1107 1 1.44249 32.9554 8.55522
1106 1 3.67492 31.691 8.69616
1375 1 3.16434 30.334 10.5567
1377 1 2.91011 32.915 10.8558
1376 1 0.847023 31.4463 10.6874
1135 1 5.84491 30.3551 8.65078
1787 1 5.17578 31.7027 10.7964
1136 1 7.97026 31.571 8.48232
1137 1 5.88652 32.9645 8.62273
1405 1 7.47128 30.5815 10.6897
1438 1 7.49689 32.8174 10.7816
1167 1 10.2673 33.0603 8.78155
1894 1 11.8279 33.176 10.7946
1165 1 10.1836 30.6104 8.63701
1166 1 12.5031 31.793 8.50259
1436 1 9.82249 31.7134 10.9051
1435 1 11.8022 30.6377 10.5435
1351 1 2.97602 -0.0697452 10.7945
1081 1 1.73184 38.1306 8.61748
1109 1 1.6469 35.7096 8.74099
1378 1 0.857647 34.3014 10.6856
1379 1 3.05364 35.5696 10.7735
1108 1 3.62488 34.33 8.81209
1380 1 0.81417 36.6673 10.7326
1110 1 3.90934 36.7324 8.47832
1111 1 5.94769 -0.0215267 8.72433
1138 1 8.06747 34.1553 8.53913
1408 1 5.37018 34.308 10.7985
1409 1 7.73042 35.4963 10.5851
1139 1 5.91083 35.4792 8.67355
1140 1 7.97771 36.9144 8.45133
1410 1 5.12646 36.674 10.6582
1411 1 11.8699 38.2302 10.9754
1170 1 12.5315 36.7425 8.79781
1835 1 9.73138 34.1781 10.9286
1439 1 11.7524 35.5405 10.8051
1169 1 10.3895 35.5483 8.49456
1168 1 12.659 34.1966 8.50581
1440 1 9.62934 36.967 10.5489
2124 1 1.34843 2.68353 15.0107
2114 1 3.53393 1.24061 14.9205
1670 1 2.05681 1.29201 12.6718
1682 1 2.21216 3.65873 12.8623
2307 1 3.80903 3.86401 14.8985
1668 1 4.46534 2.40116 12.8969
2082 1 1.58756 0.0448101 14.9465
2151 1 8.17543 1.44603 15.1689
2136 1 5.94066 2.48187 15.0095
1731 1 6.79475 1.29438 13.087
1676 1 6.67346 3.96414 12.8235
2177 1 7.99483 3.87641 15.0334
1760 1 8.94912 2.46959 12.9802
1768 1 8.95033 -0.0847546 13.0913
2158 1 10.0996 2.67315 15.7362
1861 1 10.7904 3.92998 12.8987
1913 1 11.1158 1.38942 13.0995
1415 1 12.3122 1.52032 15.4339
2120 1 12.3148 3.94057 15.16
1753 1 -0.0863624 20.2302 12.7251
1964 1 2.32195 6.22529 12.8167
2143 1 3.75054 6.60004 14.9917
2294 1 1.34085 7.54985 14.9305
1622 1 1.35704 5.13261 15.0895
1721 1 4.4928 7.71186 12.6276
2115 1 4.52014 5.20829 12.8234
1961 1 6.55694 6.38732 13.21
1773 1 7.76406 6.32895 15.4294
1727 1 5.90345 4.8323 15.5879
1388 1 5.77592 7.87705 15.1021
2186 1 8.6965 5.2421 13.0971
1854 1 8.66628 7.78561 13.0416
2210 1 10.07 5.11883 15.0858
2191 1 10.3052 7.57886 14.8844
2161 1 12.4039 6.37847 15.2427
1904 1 10.9841 6.41468 12.9039
2310 1 10.9776 29.6481 19.2939
2139 1 2.13816 8.61304 12.5678
2154 1 3.74842 9.05171 15.4618
1806 1 1.3488 9.9832 14.9423
1732 1 3.60037 11.4976 14.9133
1662 1 2.22905 11.1637 12.551
1672 1 4.47052 10.0048 12.8858
2231 1 1.49282 12.6104 14.8563
1361 1 4.40634 12.3782 12.8712
1871 1 7.87157 8.98917 15.061
1791 1 6.73965 8.88062 12.7995
1772 1 8.06701 11.5733 15.3053
1816 1 5.88298 10.4071 14.9454
1831 1 6.63465 11.5482 12.5328
2214 1 5.80947 12.7716 14.7114
1420 1 8.79331 12.699 13.0201
2148 1 8.75776 10.2673 12.9259
2150 1 12.2666 8.85671 14.9137
1830 1 10.9197 8.71911 12.6635
2063 1 12.3297 11.2509 15.36
1900 1 10.9282 11.4273 12.7049
2253 1 10.1454 10.0254 14.871
2101 1 10.3862 12.5039 14.9344
2144 1 1.3552 15.0584 14.9983
1646 1 2.21845 13.8494 12.7046
1726 1 2.3548 16.6289 12.8627
2043 1 3.44965 13.9803 14.7603
1985 1 3.61687 16.3284 14.9722
1747 1 4.42535 14.9492 12.6808
2123 1 8.21393 14.1807 14.9424
2098 1 5.8663 15.0748 15.0638
1801 1 6.65833 13.9739 12.6715
1648 1 6.50794 16.4718 13.0835
2099 1 8.09944 16.6777 15.5869
1728 1 8.88488 15.2231 12.8224
1774 1 12.5239 16.5874 15.1958
2103 1 10.3404 15.3507 15.0547
2040 1 12.5304 13.9333 15.2578
1759 1 10.8913 13.9214 12.9137
1729 1 10.8951 16.7548 12.8909
2051 1 1.48336 17.5234 14.9907
1988 1 1.49336 20.1159 15.2095
1657 1 1.98572 19.0044 13.01
1969 1 3.67528 18.7598 14.8904
1715 1 4.35708 17.954 12.5333
2276 1 5.04888 31.6045 17.2589
1709 1 4.22683 20.375 13.0716
2087 1 5.77817 20.2724 15.3544
2036 1 7.72737 19.006 15.1048
1640 1 6.49508 18.8979 12.9398
1976 1 5.67883 17.5722 15.0452
1688 1 8.62537 17.7366 12.9657
2282 1 7.2954 33.0545 17.3096
1649 1 8.64014 20.2776 12.961
2064 1 10.1948 17.6801 15.2773
1898 1 12.356 18.8564 15.1851
2021 1 10.1858 20.3968 15.0305
1696 1 11.1598 19.059 12.8524
2274 1 7.1956 30.294 17.2283
2305 1 9.04193 28.2283 19.0941
1642 1 2.02593 21.4369 12.9543
1751 1 2.14409 24.2396 13.1315
1930 1 1.51957 22.864 15.1569
1956 1 3.64387 21.3912 15.2969
1908 1 3.71969 24.0109 15.1583
1803 1 4.36106 25.5478 12.8993
1630 1 4.16903 22.8625 12.9536
1954 1 8.04664 21.796 15.0898
1639 1 6.68237 21.452 12.9556
2009 1 7.95578 24.3929 15.025
1679 1 6.49088 24.3558 12.7081
1936 1 5.7654 22.7799 14.9821
1931 1 5.81596 25.3274 15.0352
1802 1 8.78631 25.3475 12.8536
1740 1 8.80238 22.8636 12.9645
1658 1 12.3678 21.5778 15.0037
1650 1 11.0471 21.5075 12.8192
1659 1 12.3357 24.1224 15.0387
2019 1 10.2779 22.8626 15.392
1627 1 11.0133 24.2512 13.0035
2195 1 10.2543 25.325 15.3277
2291 1 1.50813 25.3363 15.0707
2241 1 1.40652 27.9047 14.9484
1880 1 3.59011 26.7511 15.1248
1771 1 2.12969 26.6468 13.0106
1777 1 1.95961 29.2193 12.9137
1839 1 3.59917 29.2911 15.1403
1794 1 4.2487 28.0985 12.9466
1932 1 5.6389 28.1914 15.0713
1866 1 6.53654 26.6799 12.9862
1937 1 7.95933 26.6773 15.0615
2027 1 7.94541 29.1977 15.1263
1812 1 6.38276 29.216 12.9695
1865 1 8.84669 27.923 12.9751
2149 1 12.3955 26.6325 15.307
2023 1 10.1243 27.86 15.1545
1637 1 10.8799 26.5352 13.0919
1819 1 10.9551 29.0558 12.9151
2147 1 12.4545 29.1625 14.9934
1878 1 1.50164 33.3121 15.3151
1736 1 2.23151 31.4959 12.6045
1876 1 3.53327 32.0372 14.9454
1855 1 1.37017 30.8703 14.8608
1406 1 4.41122 33.1682 12.9351
1762 1 4.46302 30.7147 12.8377
2048 1 5.87603 33.0876 14.9683
1893 1 5.70054 30.7166 14.8639
2094 1 8.04859 31.7234 15.2895
1996 1 6.59268 31.7194 12.8019
1918 1 8.93677 33.0872 13.0474
1434 1 8.77973 30.3314 12.748
829 1 -0.175279 22.6926 6.51177
1437 1 11.1741 31.6198 12.9674
2079 1 10.2836 30.4869 15.0722
2111 1 12.5951 31.6662 15.0539
2118 1 10.1318 32.8643 15.2052
2232 1 11.5339 25.148 17.3253
1708 1 4.55142 -0.244421 12.7285
2000 1 3.76887 36.5603 15.0768
1757 1 2.34567 34.0789 13.0556
1779 1 2.28835 36.9711 12.8397
2024 1 1.61174 35.5813 14.8787
1924 1 3.80403 34.3289 15.506
1711 1 4.57886 35.4301 13.1875
2006 1 5.67776 -0.128616 14.8605
1965 1 5.93834 35.5419 15.2309
2035 1 8.2126 34.4465 15.1263
1783 1 6.96578 34.2096 12.7807
1780 1 6.72552 36.6692 12.9081
1981 1 8.09023 36.9235 15.14
2160 1 10.3936 0.177124 15.3975
1795 1 9.20488 35.606 12.8904
1935 1 11.3133 34.3467 13.1062
1828 1 11.1534 36.8844 13.3166
2105 1 12.6262 36.6622 15.3479
2061 1 10.4086 35.3824 15.3153
1853 1 12.5611 34.1825 15.2981
2255 1 9.47567 26.5217 17.2808
2273 1 7.32528 20.4481 17.0233
2260 1 11.7132 19.8705 17.0266
2211 1 9.29077 18.6907 17.1349
2290 1 0.90031 21.5836 17.2171
1872 1 0.811505 24.0896 17.0909
2275 1 2.84602 22.8156 17.1869
2268 1 3.08361 25.6203 17.1006
2270 1 7.45363 25.2476 17.22
2301 1 7.02054 22.8434 17.0989
2266 1 5.1414 24.1798 17.1341
2295 1 5.00932 21.4905 17.3406
2300 1 8.54195 25.9023 19.3669
2299 1 11.7218 22.4675 17.2286
2308 1 9.53483 21.1785 17.2602
2013 1 9.40508 23.8732 17.4976
2269 1 5.19724 26.5779 17.0235
2288 1 4.94474 29.1768 17.0322
2246 1 7.02112 27.7886 17.4725
2200 1 11.5608 27.9552 17.3824
2202 1 9.49552 29.2839 17.0532
909 1 13.3097 10.0935 6.65999
923 1 13.0333 27.946 6.1989
921 1 13.2019 25.3309 6.48702
1705 1 13.0503 22.8127 12.8319
1678 1 0.0610854 22.9654 12.8608
913 1 13.0975 15.3787 6.61718
915 1 13.0947 17.8859 6.43558
1906 1 13.208 4.95168 13.2585
919 1 13.1085 22.9089 6.50787
831 1 -0.0547581 25.5 6.28783
907 1 13.3988 7.55522 6.1383
2080 1 13.1755 7.51549 12.6021
1821 1 13.1128 30.2187 12.8753
1891 1 13.0832 10.1784 13.0414
1407 1 13.3069 0.285885 13.2907
925 1 13.4043 30.2964 6.28544
1456 1 13.2012 17.6431 13.063
1813 1 13.2282 2.66026 13.3265
927 1 13.2765 33.0352 6.41159
1716 1 12.9366 15.093 13.1116
819 1 0.031263 9.90516 6.4958
1761 1 -0.018087 30.5059 12.7787
821 1 0.0936574 12.6014 6.22091
1699 1 -0.0824346 25.5317 12.6385
1645 1 -0.11624 2.62469 13.0992
1669 1 -0.0506024 -0.0674641 12.898
2251 1 0.00930312 5.45698 12.9461
1734 1 -0.000595965 9.74292 13.0698
1825 1 0.0365172 12.575 12.8988
1653 1 -0.096969 15.3221 13.0218
1804 1 -0.153976 28.0306 12.7996
92 1 15.3889 1.26926 0
94 1 15.3889 3.80777 0
361 1 14.6561 2.31199e-16 2.07269
362 1 16.8545 1.26926 2.07269
363 1 14.6561 2.53851 2.07269
364 1 16.8545 3.80777 2.07269
121 1 17.5873 0 0
123 1 17.5873 2.53851 0
633 1 16.3786 2.51935 4.2289
122 1 19.7858 1.26926 0
124 1 19.7858 3.80777 0
391 1 19.0529 2.31199e-16 2.07269
392 1 21.2514 1.26926 2.07269
393 1 19.0529 2.53851 2.07269
394 1 21.2514 3.80777 2.07269
151 1 21.9842 0 0
152 1 24.1826 1.26926 0
153 1 21.9842 2.53851 0
154 1 24.1826 3.80777 0
421 1 23.4498 2.31199e-16 2.07269
422 1 25.6482 1.26926 2.07269
423 1 23.4498 2.53851 2.07269
424 1 25.6482 3.80777 2.07269
181 1 26.381 0 0
183 1 26.381 2.53851 0
694 1 22.7322 3.60859 4.22329
96 1 15.3889 6.34628 0
365 1 14.6561 5.07703 2.07269
366 1 16.8545 6.34628 2.07269
367 1 14.6561 7.61554 2.07269
125 1 17.5873 5.07703 0
127 1 17.5873 7.61554 0
126 1 19.7858 6.34628 0
395 1 19.0529 5.07703 2.07269
396 1 21.2514 6.34628 2.07269
397 1 19.0529 7.61554 2.07269
155 1 21.9842 5.07703 0
156 1 24.1826 6.34628 0
157 1 21.9842 7.61554 0
425 1 23.4498 5.07703 2.07269
426 1 25.6482 6.34628 2.07269
427 1 23.4498 7.61554 2.07269
185 1 26.381 5.07703 0
187 1 26.381 7.61554 0
98 1 15.3889 8.8848 0
100 1 15.3889 11.4233 0
368 1 16.8545 8.8848 2.07269
369 1 14.6561 10.1541 2.07269
370 1 16.8545 11.4233 2.07269
129 1 17.5873 10.1541 0
128 1 19.7858 8.8848 0
130 1 19.7858 11.4233 0
398 1 21.2514 8.8848 2.07269
399 1 19.0529 10.1541 2.07269
400 1 21.2514 11.4233 2.07269
158 1 24.1826 8.8848 0
159 1 21.9842 10.1541 0
160 1 24.1826 11.4233 0
428 1 25.6482 8.8848 2.07269
429 1 23.4498 10.1541 2.07269
430 1 25.6482 11.4233 2.07269
189 1 26.381 10.1541 0
371 1 14.6561 12.6926 2.07269
131 1 17.5873 12.6926 0
102 1 15.3889 13.9618 0
104 1 15.3889 16.5003 0
372 1 16.8545 13.9618 2.07269
373 1 14.6561 15.2311 2.07269
374 1 16.8545 16.5003 2.07269
133 1 17.5873 15.2311 0
401 1 19.0529 12.6926 2.07269
132 1 19.7858 13.9618 0
134 1 19.7858 16.5003 0
402 1 21.2514 13.9618 2.07269
403 1 19.0529 15.2311 2.07269
404 1 21.2514 16.5003 2.07269
674 1 18.3524 16.5097 4.15886
161 1 21.9842 12.6926 0
431 1 23.4498 12.6926 2.07269
162 1 24.1826 13.9618 0
163 1 21.9842 15.2311 0
164 1 24.1826 16.5003 0
432 1 25.6482 13.9618 2.07269
433 1 23.4498 15.2311 2.07269
434 1 25.6482 16.5003 2.07269
191 1 26.381 12.6926 0
193 1 26.381 15.2311 0
106 1 15.3889 19.0389 0
375 1 14.6561 17.7696 2.07269
376 1 16.8545 19.0389 2.07269
377 1 14.6561 20.3081 2.07269
135 1 17.5873 17.7696 0
137 1 17.5873 20.3081 0
136 1 19.7858 19.0389 0
405 1 19.0529 17.7696 2.07269
406 1 21.2514 19.0389 2.07269
407 1 19.0529 20.3081 2.07269
165 1 21.9842 17.7696 0
166 1 24.1826 19.0389 0
167 1 21.9842 20.3081 0
435 1 23.4498 17.7696 2.07269
436 1 25.6482 19.0389 2.07269
437 1 23.4498 20.3081 2.07269
195 1 26.381 17.7696 0
197 1 26.381 20.3081 0
108 1 15.3889 21.5774 0
110 1 15.3889 24.1159 0
378 1 16.8545 21.5774 2.07269
379 1 14.6561 22.8466 2.07269
380 1 16.8545 24.1159 2.07269
381 1 14.6561 25.3851 2.07269
139 1 17.5873 22.8466 0
141 1 17.5873 25.3851 0
138 1 19.7858 21.5774 0
140 1 19.7858 24.1159 0
408 1 21.2514 21.5774 2.07269
409 1 19.0529 22.8466 2.07269
410 1 21.2514 24.1159 2.07269
411 1 19.0529 25.3851 2.07269
168 1 24.1826 21.5774 0
169 1 21.9842 22.8466 0
170 1 24.1826 24.1159 0
171 1 21.9842 25.3851 0
438 1 25.6482 21.5774 2.07269
439 1 23.4498 22.8466 2.07269
440 1 25.6482 24.1159 2.07269
441 1 23.4498 25.3851 2.07269
199 1 26.381 22.8466 0
201 1 26.381 25.3851 0
112 1 15.3889 26.6544 0
114 1 15.3889 29.1929 0
382 1 16.8545 26.6544 2.07269
383 1 14.6561 27.9236 2.07269
384 1 16.8545 29.1929 2.07269
143 1 17.5873 27.9236 0
142 1 19.7858 26.6544 0
144 1 19.7858 29.1929 0
412 1 21.2514 26.6544 2.07269
413 1 19.0529 27.9236 2.07269
414 1 21.2514 29.1929 2.07269
172 1 24.1826 26.6544 0
173 1 21.9842 27.9236 0
174 1 24.1826 29.1929 0
442 1 25.6482 26.6544 2.07269
443 1 23.4498 27.9236 2.07269
444 1 25.6482 29.1929 2.07269
203 1 26.381 27.9236 0
714 1 22.7798 29.1086 4.33052
116 1 15.3889 31.7314 0
385 1 14.6561 30.4622 2.07269
386 1 16.8545 31.7314 2.07269
387 1 14.6561 33.0007 2.07269
145 1 17.5873 30.4622 0
147 1 17.5873 33.0007 0
146 1 19.7858 31.7314 0
415 1 19.0529 30.4622 2.07269
416 1 21.2514 31.7314 2.07269
417 1 19.0529 33.0007 2.07269
175 1 21.9842 30.4622 0
176 1 24.1826 31.7314 0
177 1 21.9842 33.0007 0
445 1 23.4498 30.4622 2.07269
446 1 25.6482 31.7314 2.07269
447 1 23.4498 33.0007 2.07269
205 1 26.381 30.4622 0
207 1 26.381 33.0007 0
118 1 15.3889 34.2699 0
120 1 15.3889 36.8084 0
388 1 16.8545 34.2699 2.07269
389 1 14.6561 35.5392 2.07269
390 1 16.8545 36.8084 2.07269
149 1 17.5873 35.5392 0
148 1 19.7858 34.2699 0
150 1 19.7858 36.8084 0
418 1 21.2514 34.2699 2.07269
419 1 19.0529 35.5392 2.07269
420 1 21.2514 36.8084 2.07269
688 1 18.1936 34.3465 4.33102
689 1 20.3993 35.405 4.13824
178 1 24.1826 34.2699 0
179 1 21.9842 35.5392 0
180 1 24.1826 36.8084 0
448 1 25.6482 34.2699 2.07269
449 1 23.4498 35.5392 2.07269
450 1 25.6482 36.8084 2.07269
209 1 26.381 35.5392 0
720 1 22.6079 36.7375 4.36696
631 1 15.9876 38.124 4.29238
632 1 14.0354 1.19217 4.32101
634 1 13.9558 3.63738 4.20171
902 1 15.5423 1.27994 6.64386
904 1 15.6845 3.74257 6.31006
933 1 17.7636 2.40933 6.40082
664 1 18.6759 3.83917 4.50007
663 1 20.5741 2.43764 4.21342
662 1 18.4425 1.32944 4.07074
932 1 19.8971 1.2046 6.38965
934 1 20.0581 3.722 6.61662
963 1 22.1002 2.45627 6.26218
692 1 22.6852 1.01596 3.98783
693 1 24.8288 2.27413 4.24945
962 1 24.0954 1.282 6.29699
964 1 24.232 3.83958 6.34296
635 1 16.3119 5.14467 4.28181
636 1 14.0498 6.14692 4.30259
637 1 16.2752 7.73993 4.47014
906 1 15.5385 6.25511 6.45535
935 1 17.7642 4.85427 6.8604
937 1 17.7735 7.63 6.62765
1946 1 13.0421 12.6626 13.0376
667 1 20.3951 7.46037 4.1831
665 1 20.7742 5.04325 4.29671
666 1 18.2769 6.45171 4.18879
936 1 19.8053 6.18902 6.3144
695 1 24.7403 5.01252 4.1746
967 1 22.0085 7.65539 6.41828
965 1 22.1274 5.19045 6.53586
696 1 22.8001 6.44973 4.439
697 1 24.8292 7.7676 4.51066
966 1 24.3933 6.34252 6.51871
1987 1 13.3715 35.6581 13.1496
640 1 14.1422 11.4159 4.43264
639 1 16.1517 10.0807 4.39662
638 1 14.0736 8.86396 4.15433
908 1 15.5994 8.9491 6.49834
910 1 15.6773 11.6565 6.42938
939 1 17.7739 9.98331 6.54192
641 1 16.2039 12.8689 4.15671
1877 1 22.5152 34.1444 17.1859
668 1 18.4058 8.96866 4.28412
669 1 20.5652 10.1566 4.34166
670 1 18.3724 11.5712 4.38681
938 1 19.8163 8.65339 6.66877
940 1 19.8129 11.1954 6.55038
969 1 22.1405 10.0943 6.18973
698 1 22.664 8.94308 4.04834
700 1 22.7287 11.4355 4.25775
699 1 24.8463 10.4277 4.31151
968 1 24.3024 8.76136 6.72515
970 1 24.366 11.1593 6.95746
701 1 25.0029 12.7637 4.21032
643 1 16.2104 15.2469 4.40444
642 1 13.8994 13.7737 4.25282
644 1 13.7826 16.4988 4.22673
912 1 15.3907 14.0228 6.24928
914 1 15.2355 16.679 6.4127
943 1 17.4793 15.1651 6.61533
1860 1 13.415 32.8291 13.0582
941 1 17.7262 12.7556 6.5532
671 1 20.6749 12.6226 4.14094
673 1 20.5439 15.3523 4.32986
672 1 18.3381 13.8216 4.49223
942 1 19.7906 13.7655 6.28184
944 1 19.6397 16.2037 6.63293
973 1 21.9821 15.0633 6.57156
971 1 22.0065 12.4986 6.59657
703 1 24.9186 15.3051 4.02709
704 1 22.8814 16.5198 4.42701
702 1 22.7811 14.0989 4.26779
972 1 24.1114 13.7512 6.55528
974 1 24.2882 16.549 6.57561
2224 1 22.7478 36.7338 17.1745
645 1 16.1077 17.7494 4.06203
647 1 16.1294 20.4472 4.28273
646 1 14.0774 19.0487 4.45797
916 1 15.3268 19.0392 6.35449
1916 1 13.2001 20.1799 12.9689
917 1 13.2095 20.4115 6.69218
675 1 20.4852 17.7549 4.03525
945 1 17.4949 17.5764 6.42591
947 1 17.5176 20.272 6.41566
677 1 20.489 20.1597 4.13438
676 1 18.33 19.1911 4.25304
946 1 19.789 18.7662 6.31454
977 1 21.9904 20.1961 6.51623
975 1 21.9446 17.6188 6.70911
705 1 24.985 17.7146 4.20503
706 1 22.8237 19.0613 4.21211
707 1 25.0191 20.3056 4.30659
976 1 24.0905 19.0498 6.20276
648 1 13.9001 21.6444 4.37051
650 1 13.9831 23.9762 4.39285
649 1 16.1207 22.9765 4.21862
918 1 15.4209 21.5715 6.27462
920 1 15.5182 24.2782 6.49233
680 1 18.3985 24.2069 4.19175
951 1 17.584 25.5463 6.38987
949 1 17.4702 22.966 6.51783
679 1 20.661 22.7986 4.31206
678 1 18.3863 21.6662 4.43435
948 1 19.9669 21.3779 6.39075
950 1 19.8958 24.1027 6.41364
979 1 21.9326 22.9561 6.41365
981 1 22.2101 25.2896 6.31228
710 1 22.6592 24.168 4.18424
708 1 22.7094 21.4948 4.15258
709 1 24.6596 22.7907 4.1643
978 1 24.0579 21.4912 6.20574
980 1 24.1947 24.1893 6.44695
711 1 25.0861 25.3418 4.23997
2309 1 20.3635 35.3039 17.1892
651 1 16.0365 25.3522 4.17647
653 1 16.1239 27.7469 4.22847
652 1 13.9701 26.5147 4.22757
654 1 13.874 29.0208 4.22715
922 1 15.4377 26.6654 6.43551
924 1 15.4958 29.1761 6.34032
2247 1 18.2466 34.0132 17.0121
2277 1 18.4231 36.8806 17.258
953 1 17.6229 27.9235 6.49167
681 1 20.6003 25.6192 4.15367
683 1 20.5642 27.9152 4.18117
682 1 18.3972 26.6452 4.31905
684 1 18.3666 29.1367 4.18902
952 1 19.8551 26.7566 6.37951
954 1 19.7577 29.207 6.55788
983 1 22.0486 27.9855 6.47993
712 1 22.9562 26.6033 4.12765
713 1 24.9173 27.9777 4.06934
982 1 24.2237 26.7803 6.56161
984 1 24.2568 29.1332 6.31985
657 1 16.0862 32.9358 4.26525
656 1 14.0882 31.663 4.33065
655 1 16.1057 30.5364 4.37277
926 1 15.4754 31.804 6.61761
957 1 17.5406 33.0825 6.33617
2172 1 16.2691 35.3955 17.4029
955 1 17.6446 30.4236 6.51872
685 1 20.4547 30.5426 4.17177
686 1 18.2332 31.6886 4.45297
687 1 20.5136 32.9158 4.37617
956 1 19.8435 31.6655 6.24045
987 1 22.0685 32.8624 6.39447
985 1 22.096 30.4416 6.44547
716 1 22.7203 31.6383 4.09431
717 1 25.0433 33.0139 4.25906
715 1 24.8835 30.4315 4.21784
986 1 24.2185 31.8786 6.39206
1712 1 26.3663 12.5971 13.028
1923 1 14.1167 36.8522 17.5214
659 1 15.9605 35.4414 4.17037
658 1 13.9706 34.4237 4.24751
660 1 14.064 36.8223 4.30755
928 1 15.5221 34.2741 6.51891
930 1 15.3817 36.7307 6.5199
2227 1 13.939 34.2273 17.4094
931 1 17.6307 0.106117 6.55906
661 1 20.4674 -0.158122 4.02045
959 1 17.5799 35.6393 6.45489
690 1 18.1416 36.8925 4.32186
958 1 19.6716 34.2444 6.50883
960 1 19.852 36.7357 6.35508
691 1 24.833 -0.0833243 4.21159
961 1 21.9885 37.8163 6.5369
989 1 21.8588 35.4327 6.51639
719 1 24.8067 35.5416 4.31076
718 1 22.7637 34.0223 4.23526
988 1 24.1905 34.3102 6.60578
990 1 24.0875 36.7586 6.45356
1173 1 14.7725 2.38767 8.98049
1174 1 16.9663 3.45282 8.53216
1172 1 17.0962 1.01144 8.79153
1442 1 14.0853 1.29018 11.1079
1443 1 16.5311 2.44058 11.0973
1444 1 14.0581 3.81207 10.7184
1441 1 16.0348 -0.0614236 10.8857
1202 1 21.3467 1.46894 8.35777
1203 1 19.2279 2.4521 8.46839
1472 1 18.5654 1.39279 10.7887
1473 1 20.6923 2.5441 10.856
1474 1 18.4938 3.81715 10.8612
1204 1 21.6199 3.77824 8.8621
1471 1 20.723 0.26924 10.8359
1233 1 23.4698 2.53039 8.59765
1232 1 25.5523 1.22521 8.4714
1723 1 25.2029 2.60532 10.8216
1793 1 22.9202 1.33797 10.9525
1504 1 22.7986 3.78954 11.1947
1234 1 25.7975 3.79268 8.63748
1501 1 25.1255 38.0857 10.7958
1231 1 23.5173 0.0624065 8.63398
1176 1 16.887 6.12994 8.66194
1177 1 14.9867 7.44462 8.4633
1446 1 14.4193 6.27339 10.5369
1175 1 14.7832 4.99116 8.57379
1476 1 16.4309 4.97656 10.8485
1417 1 16.3657 7.5265 10.8884
1207 1 19.074 7.52969 8.81523
1205 1 19.1119 5.17268 8.78493
1206 1 21.4924 6.31771 8.87018
1477 1 20.6319 7.68885 10.8973
1826 1 20.7404 5.11709 11.0157
1475 1 18.417 6.2723 10.8999
1235 1 23.6927 5.04793 8.48546
1237 1 23.6268 7.37121 8.72029
1236 1 25.9343 6.36185 8.90393
1505 1 24.8898 5.10099 10.8594
1506 1 22.932 6.27526 11.0415
1507 1 25.2125 7.78128 11.08
1448 1 14.0765 8.91833 10.7213
1178 1 17.0236 8.90892 8.75399
1180 1 16.8913 11.4128 8.46421
1179 1 14.7271 10.1096 8.65675
1450 1 13.8444 11.4321 10.9937
1449 1 16.2915 9.90723 10.8258
1181 1 14.7056 12.7095 8.62155
1451 1 16.031 12.5705 10.6185
1208 1 21.3203 8.91001 8.50504
1478 1 18.5463 8.7571 11.1059
1210 1 21.3438 11.3408 8.79267
1209 1 19.2818 9.99414 8.97181
1479 1 20.6124 10.0647 11.2231
1480 1 18.4241 11.2743 10.9803
1756 1 22.7954 8.84498 10.9173
1238 1 25.8901 9.00905 8.81109
1240 1 25.853 11.5071 8.57604
1239 1 23.5502 10.0221 8.84843
1509 1 24.8031 10.2692 10.8583
1510 1 22.6995 11.5977 10.8502
1182 1 16.8238 13.8441 8.65675
1183 1 14.7845 15.109 8.56194
1452 1 14.0787 13.952 10.6257
1453 1 16.0024 15.0276 10.8039
1454 1 13.8188 16.3719 10.9366
1184 1 16.887 16.659 8.78141
1481 1 20.5901 12.6327 11.0854
1211 1 19.0717 12.7361 8.69491
1214 1 21.4372 16.3633 8.5314
1212 1 21.1861 13.8796 8.58337
1213 1 19.1139 15.1894 8.96997
1482 1 18.3071 13.6296 11.0987
1483 1 20.5182 15.0402 10.7476
1484 1 18.2012 16.3981 10.8889
1241 1 23.4364 12.7867 8.86733
1511 1 25.1413 12.6403 10.5952
1242 1 25.8239 13.9182 8.41347
1243 1 23.4421 15.2107 8.68676
1512 1 22.8243 13.9497 10.9051
1514 1 22.7764 16.4136 10.6628
1513 1 25.1337 15.1338 10.6632
1244 1 25.7587 16.4977 8.53359
1187 1 14.5006 20.3147 8.59141
1185 1 14.4524 17.8498 8.62744
1186 1 16.8502 18.9103 8.43706
1455 1 15.872 17.757 10.7914
1457 1 15.8243 20.2265 10.5973
1700 1 13.8702 18.999 10.7506
1217 1 18.8237 20.1749 8.58823
1216 1 21.427 18.9899 8.59644
1215 1 19.0237 17.6544 8.69466
1485 1 20.5658 17.5251 10.8404
1486 1 18.1269 18.8655 10.6039
1487 1 20.3168 20.2245 10.5226
1246 1 25.6203 18.9585 8.579
1247 1 23.5005 20.1727 8.57421
1245 1 23.5638 17.5502 8.48305
1515 1 24.9958 17.603 10.5836
1516 1 22.656 18.9164 10.7473
1517 1 24.8137 20.2858 10.923
1188 1 16.6384 21.5723 8.59758
1189 1 14.6286 22.9187 8.44025
1190 1 16.7755 24.2465 8.67975
1458 1 13.917 21.5433 10.4768
1459 1 16.0132 22.7674 10.6107
1460 1 13.8119 24.0534 10.7623
1191 1 14.7335 25.5265 8.57389
1461 1 16.1608 25.1809 10.8186
1218 1 21.2208 21.294 8.57262
1488 1 18.2421 21.537 10.6922
1219 1 19.2148 22.6974 8.40188
1220 1 21.2836 24.1019 8.75057
1489 1 20.5314 22.6948 10.8814
1490 1 18.4237 24.0351 10.6356
1491 1 20.5859 25.4464 10.7803
1248 1 25.7252 21.6278 8.33328
1249 1 23.3943 22.7872 8.50798
1518 1 22.6994 21.5434 11.0375
1250 1 25.8602 24.1036 8.46352
1519 1 24.7707 22.7081 10.6315
1520 1 22.7744 24.0553 10.7317
1521 1 24.9004 25.1212 10.9894
1193 1 14.5567 28.0655 8.35728
1192 1 16.8644 26.72 8.58691
1462 1 13.8473 26.7197 10.794
1463 1 16.1661 27.6619 10.6966
1194 1 16.9348 29.1189 8.4696
1464 1 13.9516 29.1367 10.4668
1221 1 19.2679 25.3974 8.61178
1222 1 21.3096 26.6702 8.67702
1223 1 19.1706 27.9349 8.83038
1492 1 18.4351 26.5359 10.7148
1493 1 20.6883 28.0047 11.0253
1494 1 18.3405 29.1098 10.8114
1224 1 21.2947 29.3476 8.81311
1251 1 23.4379 25.1815 8.6541
1254 1 25.8782 29.0588 8.67603
1252 1 25.7662 26.5092 8.46534
1253 1 23.4091 27.8555 8.56756
1522 1 22.7685 26.6595 10.7501
1523 1 25.0095 27.7419 10.8309
1524 1 22.9047 29.2611 10.6796
1196 1 16.7784 31.7091 8.6412
1465 1 16.134 30.3712 10.6617
1195 1 14.804 30.4403 8.3618
1197 1 14.6945 33.142 8.77659
1466 1 14.0788 31.8097 10.8183
1467 1 16.1152 32.9921 10.6481
1226 1 21.2884 31.8319 8.49394
1225 1 19.0525 30.2453 8.64881
1497 1 20.6893 33.0894 10.628
1227 1 19.159 32.8855 8.50783
1495 1 20.5082 30.5553 10.5504
1496 1 18.1969 31.6582 10.7422
1255 1 23.6457 30.4036 8.58222
1256 1 25.8063 31.6321 8.58267
1257 1 23.649 33.0919 8.706
1526 1 22.9183 31.5419 10.5676
1527 1 25.06 32.7496 10.7265
1525 1 25.1146 30.3303 10.7746
1171 1 14.6646 -0.056871 8.87622
1468 1 14.0368 34.2367 10.9966
1200 1 16.8343 36.692 8.59768
1199 1 14.6163 35.536 8.78651
1470 1 13.9373 36.8087 10.8656
1198 1 17.044 34.1081 8.74972
1469 1 16.1767 35.5315 10.9308
1201 1 19.3651 -0.0108506 8.6823
1229 1 19.0751 35.5792 8.67823
1228 1 21.2244 34.3606 8.49922
1230 1 21.4856 36.7135 8.59293
1498 1 18.4848 34.2122 10.677
1499 1 20.6436 35.6994 10.8078
1500 1 18.2229 36.9632 10.53
1260 1 25.6726 36.7943 8.87214
1258 1 25.917 34.2475 8.76797
1528 1 22.8559 34.0475 10.7509
1259 1 23.6393 35.6419 8.50765
1529 1 24.9467 35.2974 10.968
1530 1 22.8584 36.8615 10.6657
2271 1 24.7006 30.2002 16.9881
2042 1 16.9905 1.19109 15.3954
1755 1 15.4857 1.14742 13.276
2086 1 14.6277 2.50274 15.5399
1445 1 15.5415 3.76831 13.0257
2034 1 16.8912 3.96246 15.4685
2225 1 14.7292 38.0806 15.3319
1899 1 17.8918 2.3565 13.3125
1868 1 19.8815 1.20255 13.0194
1847 1 19.9424 3.62385 13.0381
1882 1 21.148 3.90759 15.5506
2002 1 21.3861 1.16331 15.1882
2221 1 18.9972 2.50284 15.4496
1502 1 22.2049 2.50085 13.2007
2005 1 19.0406 -0.251754 15.0557
1822 1 24.3206 1.35352 12.8959
1769 1 24.246 4.04512 13.2069
1917 1 25.7716 3.75284 15.3511
1933 1 23.5054 2.60433 15.1902
1912 1 25.9038 1.37003 15.4628
2285 1 23.7902 37.9787 15.1206
2252 1 22.6605 31.5279 17.1485
2129 1 14.4597 7.42638 15.0272
1447 1 15.361 6.15871 13.0425
2122 1 14.6384 4.96517 15.1433
2092 1 16.6183 6.3391 15.2631
2047 1 17.559 7.53919 13.1111
1706 1 18.1397 5.0062 13.1823
1960 1 19.1029 5.15005 15.4502
1836 1 19.8062 6.35807 13.1484
1799 1 21.315 6.37193 15.4446
1922 1 18.9592 7.50423 15.49
1873 1 21.7841 7.7874 13.0213
2057 1 22.0893 5.0318 13.413
2050 1 23.6234 7.57087 15.5016
2090 1 23.6037 5.11545 15.2686
1823 1 24.2652 6.4908 13.2922
2066 1 25.9035 6.32139 15.3748
2071 1 26.4218 10.2192 12.8738
2209 1 20.6308 30.1544 17.3644
2084 1 16.7902 8.74267 15.3044
2097 1 14.3628 9.76224 15.2496
1920 1 15.2154 8.73653 12.9378
1879 1 15.2197 11.1314 13.1711
1974 1 16.659 11.1888 15.2368
2065 1 14.4902 12.4925 15.1911
2256 1 20.5553 32.6689 17.4907
1834 1 17.3198 12.5361 13.2017
1749 1 17.4748 10.0706 13.237
2085 1 21.1381 8.78009 15.218
2060 1 19.1058 9.95221 15.6935
1856 1 19.8417 8.85997 13.173
1698 1 19.5821 11.5207 13.2469
1742 1 20.997 11.1724 15.5985
1883 1 21.914 10.4871 13.0745
1508 1 24.113 9.04206 13.3003
1993 1 24.0363 11.3843 12.8527
2037 1 25.8544 8.87658 15.2267
2207 1 25.558 11.1909 14.9152
2030 1 23.4712 9.98464 15.3611
1001 1 26.4624 12.7567 6.32963
2032 1 16.6324 13.8223 15.3504
2004 1 14.4873 15.157 15.0038
1702 1 15.1872 13.9085 12.8757
1693 1 15.3637 16.3707 13.0009
1995 1 16.71 16.5561 14.9763
1703 1 17.3554 15.1717 13.0664
2001 1 18.8183 12.561 15.3705
1743 1 19.607 13.8439 12.9814
1915 1 19.1239 15.3122 15.1041
1686 1 19.5786 16.1289 12.7979
1925 1 21.2167 16.4603 15.2916
1978 1 21.0821 13.8619 15.0531
2016 1 23.3409 12.3289 15.0891
1788 1 21.9877 12.8727 13.002
1685 1 21.9231 15.2452 13.2337
1971 1 23.4943 14.8713 15.1593
1748 1 24.3396 13.8653 12.8953
1690 1 23.9255 16.2057 12.8687
1959 1 25.676 16.3418 15.1672
1991 1 25.6263 13.7341 15.131
2197 1 22.8685 29.0054 17.6208
2010 1 14.6556 17.7668 15.2231
2007 1 16.7678 18.838 15.1298
1811 1 15.2817 19.0697 12.9122
1895 1 14.4525 20.1307 15.0897
1661 1 17.5612 17.7392 13.002
1638 1 17.4825 20.2492 12.8157
1884 1 19.0322 17.8156 15.6666
1887 1 21.312 18.8165 14.9857
1909 1 19.0231 20.116 15.0042
1651 1 19.6362 19.2002 12.836
1666 1 21.8619 17.5974 12.8102
1655 1 21.9 20.2625 13.0004
1914 1 23.3515 17.2324 14.9544
1927 1 23.3789 20.141 15.0056
1902 1 24.2731 19.1258 12.749
1955 1 25.3122 18.929 15.1322
2249 1 25.0555 27.7106 17.6537
2166 1 18.4953 31.46 17.3373
1984 1 16.6761 21.1425 14.8646
1647 1 15.4931 24.0362 12.7699
1967 1 15.1786 21.6859 12.8894
1926 1 16.8356 23.9332 14.8619
1973 1 14.521 22.8772 14.9111
1634 1 17.6952 22.6049 12.9338
1881 1 21.0715 21.6069 15.4106
1664 1 18.7996 22.5012 15.1663
1631 1 19.8405 21.5914 13.0657
1636 1 19.7786 23.9285 13.0103
1990 1 21.2208 23.97 14.9601
1644 1 21.8848 22.9458 12.9296
2054 1 25.302 21.5578 15.2003
2053 1 25.696 24.2134 15.0672
2008 1 23.2949 22.8483 15.0519
1625 1 23.9854 21.6636 12.9519
1982 1 24.0412 24.073 13.1966
1673 1 21.9142 25.6135 12.9783
2213 1 16.2509 30.3336 17.1197
2041 1 13.1971 27.7196 13.2019
2093 1 14.6819 25.3605 14.9517
2076 1 14.5781 27.9135 15.4609
2110 1 16.8247 26.439 15.2545
1665 1 15.5009 26.5862 12.9138
1738 1 15.2745 29.0328 12.777
2126 1 16.9466 28.9039 15.2254
1660 1 17.5798 27.9804 12.9232
1730 1 13.1504 25.3405 12.9296
1632 1 17.7639 25.3044 12.898
1885 1 19.0073 25.0418 15.1875
1629 1 19.8231 26.5303 12.9957
1968 1 19.7062 29.182 12.92
2025 1 21.2383 26.5453 15.2456
1966 1 19.0458 27.6806 14.9997
2068 1 21.0369 29.1151 15.1119
1635 1 23.4248 25.4069 15.18
1663 1 21.9466 27.9819 13.2291
1654 1 23.3698 27.9066 15.3923
1767 1 24.2498 26.6487 12.9832
2031 1 25.6503 26.8521 15.2046
1784 1 24.2296 29.0428 12.8998
2067 1 25.6495 29.0441 14.9369
2096 1 17.0058 31.5925 15.0969
1994 1 14.7267 32.8006 15.1941
1707 1 15.4361 31.5935 12.9642
1745 1 14.7979 30.297 14.9891
1785 1 17.5685 33.0161 12.7282
1776 1 17.5958 30.3326 13.1376
2029 1 19.0108 30.2903 15.1212
1897 1 19.755 31.6482 12.9388
1929 1 21.3131 31.5603 15.0651
1958 1 19.0783 32.9266 14.9859
1763 1 22.0613 30.6447 12.7607
1714 1 21.8695 32.979 12.7566
2259 1 23.5738 32.8332 15.2251
2020 1 25.5836 31.4862 14.9771
1890 1 23.3999 30.4005 15.0297
1725 1 24.2653 31.6509 12.8407
2196 1 13.8596 31.7365 17.3192
1815 1 17.6643 38.0563 12.6325
2108 1 14.7199 35.5788 15.4165
1691 1 16.8912 36.668 15.3071
1852 1 15.4509 34.0659 12.9816
2083 1 16.9294 34.1729 14.9351
1805 1 15.549 36.7628 13.2162
1770 1 17.6966 35.5856 13.0468
1970 1 21.3528 36.473 15.0129
1903 1 21.1644 34.033 15.0049
1718 1 19.7436 34.2762 12.9709
1939 1 19.1705 35.4159 15.1492
1778 1 19.9446 36.8616 12.8919
1817 1 22.2495 38.0357 12.9896
1766 1 22.1929 35.5764 12.7199
2206 1 16.1787 32.9045 17.2986
1692 1 24.084 34.1251 13.0268
1744 1 24.372 36.6786 12.9985
1953 1 23.5387 35.3184 15.3101
1874 1 25.7088 36.6926 15.5521
1901 1 25.7444 33.8054 15.0727
2267 1 14.2115 1.26549 17.6362
2289 1 16.03 2.69573 17.6298
2223 1 16.0933 38.1395 17.4219
1896 1 20.5233 38.0542 17.1522
2281 1 18.4188 3.81531 17.6988
1952 1 18.4621 1.1031 17.5919
2265 1 20.3954 2.40261 17.4004
2171 1 25.1391 38.2137 17.2906
2263 1 22.7191 1.16719 17.3406
2216 1 24.7546 2.56809 17.5694
2217 1 22.6172 3.96516 17.721
2304 1 18.2941 6.16993 17.4838
2233 1 20.6157 5.11954 17.8047
2218 1 20.56 7.47355 17.5269
2212 1 22.7739 6.33864 17.6197
2168 1 24.9766 4.97225 17.5823
2201 1 25.1751 7.62789 17.234
2302 1 20.7055 10.0608 17.5472
2169 1 22.9107 8.71374 17.5137
2072 1 25.0381 10.2668 17.4354
2298 1 22.7538 11.1124 17.1785
2303 1 24.8468 12.4899 17.4647
2230 1 22.6104 13.5088 17.3635
2198 1 24.8689 15.0644 17.3093
2190 1 22.7363 16.0251 17.0597
2280 1 13.8969 18.8857 17.0242
2173 1 16.0451 20.0189 17.0927
2219 1 20.4197 19.8844 17.0173
2292 1 24.8041 17.4349 17.1387
2153 1 25.0306 20.1208 17.1693
2127 1 22.6654 18.5626 17.0544
2284 1 13.9757 21.4999 17.0667
2237 1 13.8676 23.8644 17.2768
2226 1 16.1308 22.6507 17.0736
2239 1 18.1001 21.1574 17.0839
2184 1 18.148 23.7192 17.3859
2194 1 20.6526 22.6596 17.4697
2131 1 22.6976 24.0338 17.2284
2159 1 24.7134 22.6805 17.4135
2257 1 22.8781 21.0547 17.1593
2146 1 24.9817 25.1986 17.571
2167 1 16.1239 25.2509 17.4532
2170 1 13.7944 29.2315 17.5889
2174 1 15.786 27.8142 17.4464
2222 1 13.5383 26.4337 17.7067
2193 1 20.4122 27.75 17.1703
2183 1 18.3685 26.7016 17.2072
2187 1 18.257 28.872 17.8874
2228 1 20.4012 25.1245 17.1861
2134 1 22.805 26.4989 17.4077
997 1 26.5438 7.47956 6.49734
999 1 26.39 9.94024 6.23227
1011 1 26.2198 25.4577 6.4426
1013 1 26.4717 27.9537 6.38004
1003 1 26.4338 15.2319 6.41777
1792 1 26.361 17.5628 12.9315
1015 1 26.5969 30.5664 6.25642
903 1 13.352 2.69795 6.82513
905 1 13.3617 5.09342 6.45971
929 1 13.1955 35.5813 6.41627
911 1 13.3256 12.8374 6.46634
182 1 28.5794 1.26926 0
184 1 28.5794 3.80777 0
451 1 27.8466 2.31199e-16 2.07269
452 1 30.045 1.26926 2.07269
453 1 27.8466 2.53851 2.07269
454 1 30.045 3.80777 2.07269
211 1 30.7778 0 0
213 1 30.7778 2.53851 0
212 1 32.9763 1.26926 0
214 1 32.9763 3.80777 0
481 1 32.2434 2.31199e-16 2.07269
482 1 34.4419 1.26926 2.07269
483 1 32.2434 2.53851 2.07269
484 1 34.4419 3.80777 2.07269
241 1 35.1747 0 0
242 1 37.3731 1.26926 0
243 1 35.1747 2.53851 0
244 1 37.3731 3.80777 0
511 1 36.6403 2.31199e-16 2.07269
512 1 38.8387 1.26926 2.07269
513 1 36.6403 2.53851 2.07269
514 1 38.8387 3.80777 2.07269
784 1 35.8865 3.62608 4.22106
186 1 28.5794 6.34628 0
455 1 27.8466 5.07703 2.07269
456 1 30.045 6.34628 2.07269
457 1 27.8466 7.61554 2.07269
215 1 30.7778 5.07703 0
217 1 30.7778 7.61554 0
216 1 32.9763 6.34628 0
485 1 32.2434 5.07703 2.07269
486 1 34.4419 6.34628 2.07269
487 1 32.2434 7.61554 2.07269
756 1 31.4995 6.15939 4.18196
245 1 35.1747 5.07703 0
246 1 37.3731 6.34628 0
247 1 35.1747 7.61554 0
515 1 36.6403 5.07703 2.07269
516 1 38.8387 6.34628 2.07269
517 1 36.6403 7.61554 2.07269
188 1 28.5794 8.8848 0
190 1 28.5794 11.4233 0
458 1 30.045 8.8848 2.07269
459 1 27.8466 10.1541 2.07269
460 1 30.045 11.4233 2.07269
219 1 30.7778 10.1541 0
218 1 32.9763 8.8848 0
220 1 32.9763 11.4233 0
488 1 34.4419 8.8848 2.07269
489 1 32.2434 10.1541 2.07269
490 1 34.4419 11.4233 2.07269
248 1 37.3731 8.8848 0
249 1 35.1747 10.1541 0
250 1 37.3731 11.4233 0
518 1 38.8387 8.8848 2.07269
519 1 36.6403 10.1541 2.07269
520 1 38.8387 11.4233 2.07269
461 1 27.8466 12.6926 2.07269
221 1 30.7778 12.6926 0
192 1 28.5794 13.9618 0
194 1 28.5794 16.5003 0
462 1 30.045 13.9618 2.07269
463 1 27.8466 15.2311 2.07269
464 1 30.045 16.5003 2.07269
223 1 30.7778 15.2311 0
491 1 32.2434 12.6926 2.07269
222 1 32.9763 13.9618 0
224 1 32.9763 16.5003 0
492 1 34.4419 13.9618 2.07269
493 1 32.2434 15.2311 2.07269
494 1 34.4419 16.5003 2.07269
251 1 35.1747 12.6926 0
521 1 36.6403 12.6926 2.07269
252 1 37.3731 13.9618 0
253 1 35.1747 15.2311 0
254 1 37.3731 16.5003 0
522 1 38.8387 13.9618 2.07269
523 1 36.6403 15.2311 2.07269
524 1 38.8387 16.5003 2.07269
792 1 35.9584 13.6898 4.3411
196 1 28.5794 19.0389 0
465 1 27.8466 17.7696 2.07269
466 1 30.045 19.0389 2.07269
467 1 27.8466 20.3081 2.07269
225 1 30.7778 17.7696 0
227 1 30.7778 20.3081 0
226 1 32.9763 19.0389 0
495 1 32.2434 17.7696 2.07269
496 1 34.4419 19.0389 2.07269
497 1 32.2434 20.3081 2.07269
255 1 35.1747 17.7696 0
256 1 37.3731 19.0389 0
257 1 35.1747 20.3081 0
525 1 36.6403 17.7696 2.07269
526 1 38.8387 19.0389 2.07269
527 1 36.6403 20.3081 2.07269
198 1 28.5794 21.5774 0
200 1 28.5794 24.1159 0
468 1 30.045 21.5774 2.07269
469 1 27.8466 22.8466 2.07269
470 1 30.045 24.1159 2.07269
471 1 27.8466 25.3851 2.07269
229 1 30.7778 22.8466 0
231 1 30.7778 25.3851 0
228 1 32.9763 21.5774 0
230 1 32.9763 24.1159 0
498 1 34.4419 21.5774 2.07269
499 1 32.2434 22.8466 2.07269
500 1 34.4419 24.1159 2.07269
501 1 32.2434 25.3851 2.07269
258 1 37.3731 21.5774 0
259 1 35.1747 22.8466 0
260 1 37.3731 24.1159 0
261 1 35.1747 25.3851 0
528 1 38.8387 21.5774 2.07269
529 1 36.6403 22.8466 2.07269
530 1 38.8387 24.1159 2.07269
531 1 36.6403 25.3851 2.07269
202 1 28.5794 26.6544 0
204 1 28.5794 29.1929 0
472 1 30.045 26.6544 2.07269
473 1 27.8466 27.9236 2.07269
474 1 30.045 29.1929 2.07269
233 1 30.7778 27.9236 0
741 1 29.3211 25.391 4.35121
744 1 27.1183 29.3551 4.22195
232 1 32.9763 26.6544 0
234 1 32.9763 29.1929 0
502 1 34.4419 26.6544 2.07269
503 1 32.2434 27.9236 2.07269
504 1 34.4419 29.1929 2.07269
262 1 37.3731 26.6544 0
263 1 35.1747 27.9236 0
264 1 37.3731 29.1929 0
532 1 38.8387 26.6544 2.07269
533 1 36.6403 27.9236 2.07269
534 1 38.8387 29.1929 2.07269
206 1 28.5794 31.7314 0
475 1 27.8466 30.4622 2.07269
476 1 30.045 31.7314 2.07269
477 1 27.8466 33.0007 2.07269
235 1 30.7778 30.4622 0
237 1 30.7778 33.0007 0
236 1 32.9763 31.7314 0
505 1 32.2434 30.4622 2.07269
506 1 34.4419 31.7314 2.07269
507 1 32.2434 33.0007 2.07269
265 1 35.1747 30.4622 0
266 1 37.3731 31.7314 0
267 1 35.1747 33.0007 0
535 1 36.6403 30.4622 2.07269
536 1 38.8387 31.7314 2.07269
537 1 36.6403 33.0007 2.07269
208 1 28.5794 34.2699 0
210 1 28.5794 36.8084 0
478 1 30.045 34.2699 2.07269
479 1 27.8466 35.5392 2.07269
480 1 30.045 36.8084 2.07269
239 1 30.7778 35.5392 0
238 1 32.9763 34.2699 0
240 1 32.9763 36.8084 0
508 1 34.4419 34.2699 2.07269
509 1 32.2434 35.5392 2.07269
510 1 34.4419 36.8084 2.07269
268 1 37.3731 34.2699 0
269 1 35.1747 35.5392 0
270 1 37.3731 36.8084 0
538 1 38.8387 34.2699 2.07269
539 1 36.6403 35.5392 2.07269
540 1 38.8387 36.8084 2.07269
722 1 26.9006 1.22314 4.17703
723 1 29.0662 2.3429 4.51478
724 1 27.064 3.77791 4.18098
992 1 28.539 1.13372 6.65559
994 1 28.5436 3.69306 6.63767
2297 1 33.757 30.4674 17.117
1023 1 30.8372 2.30374 6.60766
753 1 33.6672 2.5731 4.27118
752 1 31.3416 1.25656 4.32738
754 1 31.4749 3.69974 4.14514
1022 1 32.9212 0.96087 6.39726
1024 1 32.8044 3.79281 6.4534
751 1 33.7734 38.1923 4.29334
1053 1 35.2022 2.54004 6.21876
1051 1 35.3548 38.153 6.36619
782 1 36.0539 1.25121 4.22952
783 1 38.1667 2.73156 4.08083
1052 1 37.4601 1.11977 6.41201
1054 1 37.4487 3.55013 6.32139
781 1 38.03 38.184 4.44927
727 1 29.4101 7.43945 4.2234
726 1 27.1515 6.30287 4.40857
725 1 29.2451 5.0327 4.25071
996 1 28.7919 6.33367 6.66391
2204 1 31.4258 31.4509 17.3394
1027 1 30.8278 7.64108 6.26296
1025 1 30.7527 5.00459 6.30861
757 1 33.6548 7.58924 4.25509
755 1 33.5968 5.03895 4.39665
1026 1 32.8675 6.22368 6.46939
1057 1 35.0793 7.42677 6.39811
1055 1 35.2803 5.04837 6.27774
787 1 38.1985 7.78114 3.97851
785 1 37.8287 5.2962 4.40174
786 1 35.716 6.42378 4.22824
1056 1 37.3519 6.16077 6.6315
728 1 27.0219 8.71795 4.2474
730 1 27.0961 11.343 3.98889
729 1 29.3084 10.0751 4.27231
998 1 28.7207 8.7459 6.49316
1000 1 28.7256 11.3498 6.42412
1029 1 30.752 10.1025 6.57391
2296 1 29.3954 33.1218 17.1997
1746 1 26.396 35.3692 13.1034
759 1 33.6162 10.2294 4.21105
758 1 31.4464 8.89297 4.1772
760 1 31.2931 11.402 4.25165
1028 1 32.9334 8.91834 6.39644
1030 1 32.8649 11.6456 6.23247
1059 1 35.199 9.80704 6.33016
790 1 35.8972 11.1989 4.25037
788 1 35.9499 8.91059 4.15666
789 1 38.17 10.0547 4.28604
1058 1 37.4536 8.72053 6.14133
1060 1 37.4838 11.3054 6.34397
791 1 38.1619 12.6184 4.20393
1781 1 26.4151 15.1445 13.0381
731 1 29.3998 12.7018 4.30856
732 1 27.0633 14.0825 4.34197
1031 1 30.8757 12.6386 6.4237
733 1 29.4331 15.2567 4.21134
734 1 27.0499 16.4724 4.28204
1002 1 28.7531 13.9786 6.33154
1004 1 28.4705 16.6717 6.33504
764 1 31.5236 16.5376 4.28674
1033 1 30.7947 15.2079 6.32285
761 1 33.6322 12.6976 4.07997
762 1 31.6012 13.9541 4.40676
763 1 33.7 15.1503 3.99292
1032 1 33.1387 14.052 6.11288
1034 1 32.9834 16.4385 6.23737
1063 1 35.338 15.0718 6.42956
1061 1 35.3215 12.5883 6.35928
794 1 35.8901 16.3398 4.03068
793 1 38.2748 15.1309 4.21534
1062 1 37.6467 13.9064 6.45491
1064 1 37.3963 16.3887 6.14753
735 1 29.2919 17.7043 4.16085
737 1 29.314 20.3034 4.11777
736 1 27.2171 18.9126 4.35238
1006 1 28.5305 19.2379 6.46496
1037 1 30.8657 20.3708 6.25832
1007 1 26.3889 20.3802 6.30406
1864 1 26.2779 22.8836 13.3103
1035 1 30.7475 17.6406 6.49844
766 1 31.405 18.9899 4.28414
765 1 33.7069 17.789 4.1524
767 1 33.5858 20.3708 4.28693
1036 1 32.986 19.0558 6.3295
1067 1 35.1919 20.2139 6.59267
1065 1 35.099 17.7735 6.27421
797 1 38.0767 20.174 4.14782
795 1 37.8855 17.5469 4.05999
796 1 35.8101 18.9927 4.32314
1066 1 37.2676 18.816 6.27588
827 1 39.5981 20.2742 6.28165
740 1 27.2551 24.1062 4.18462
739 1 29.2439 22.7774 4.23745
738 1 27.0882 21.6181 4.16986
1008 1 28.7327 21.7526 6.4442
1010 1 28.3994 24.3554 6.44863
2215 1 27.1527 31.564 16.9106
769 1 33.6486 23.0134 4.32406
1039 1 30.9681 22.9049 6.30543
1041 1 30.7813 25.4252 6.50039
768 1 31.4554 21.595 4.23624
770 1 31.3563 24.0499 4.04092
1038 1 32.8888 21.4305 6.5532
1040 1 32.9493 24.2156 6.36606
771 1 33.5653 25.3278 4.34928
1071 1 35.1858 25.5731 6.4391
1069 1 35.2245 22.8403 6.34227
800 1 35.8041 24.1115 4.15282
799 1 37.9284 22.7768 4.22587
798 1 35.929 21.5802 4.25558
1068 1 37.2211 21.4797 6.40203
1070 1 37.4062 24.2538 6.37543
801 1 38.0576 25.2406 4.25246
1009 1 26.2314 22.9315 6.18615
2262 1 29.1648 30.2442 17.0331
742 1 27.1416 26.6654 4.39497
743 1 29.288 27.9119 4.10802
1012 1 28.6671 26.7501 6.34751
1014 1 28.5836 29.1816 6.48651
1043 1 30.7699 27.8561 6.4
2244 1 35.9412 28.9944 17.2386
772 1 31.6305 26.5769 4.36913
773 1 33.7125 27.9365 4.27258
774 1 31.4096 29.0717 4.17712
1042 1 32.8943 26.7886 6.4876
1044 1 33.0403 29.186 6.5555
1073 1 35.128 27.8704 6.20608
802 1 35.7865 26.6723 4.18439
803 1 37.9614 27.7602 4.24377
804 1 36.0084 29.2927 4.20432
1072 1 37.2008 26.663 6.33464
1074 1 37.4281 28.9961 6.1387
745 1 29.4685 30.4476 4.44686
747 1 29.3447 32.8524 4.22858
746 1 27.1977 31.9264 4.04906
1016 1 28.7847 31.7804 6.45248
1045 1 30.9878 30.434 6.51326
1047 1 30.8421 33.0242 6.45863
775 1 33.6556 30.3794 4.39202
777 1 33.6194 33.0221 4.42493
776 1 31.5146 31.6625 4.43283
1046 1 33.0373 31.7021 6.67396
1075 1 35.4221 30.479 6.38151
1077 1 35.1635 32.9963 6.32223
807 1 38.1395 33.1135 4.40213
806 1 35.8299 31.8263 4.15863
805 1 38.0371 30.5603 4.2545
1076 1 37.3055 31.8238 6.28955
721 1 29.1123 -0.0824979 4.07559
2287 1 35.864 26.4868 17.5984
750 1 26.9271 36.8055 4.19596
748 1 27.1757 34.2975 4.55356
749 1 29.2999 35.504 4.23618
1018 1 28.7026 34.3726 6.5964
1020 1 28.5788 36.7309 6.54662
1560 1 26.2494 37.9337 13.5606
1021 1 30.6476 -0.116322 6.80861
1049 1 30.8382 35.4804 6.38108
779 1 33.6417 35.4279 4.25519
780 1 31.4343 36.8241 4.18172
778 1 31.4543 34.3034 4.25266
1048 1 32.9876 34.243 6.43838
1050 1 33.016 36.8275 6.33211
1079 1 35.2044 35.5596 6.33403
809 1 37.9774 35.5139 4.14819
808 1 35.904 34.2736 4.17599
810 1 35.7669 36.9468 4.17492
1078 1 37.3453 34.2704 6.50869
1080 1 37.386 36.7184 6.53204
839 1 39.4887 35.4109 6.32339
1264 1 30.2359 3.78413 8.55337
1262 1 30.0148 1.22616 8.78668
1263 1 27.9214 2.52149 8.81785
1533 1 29.3547 2.39568 11.0347
1532 1 27.1698 1.28274 10.9799
1534 1 27.1958 3.78798 10.994
1531 1 29.5542 38.0345 10.9549
1261 1 27.8646 -0.176353 8.94517
1293 1 32.3474 2.38103 8.65303
1292 1 34.5234 1.3462 8.43076
1562 1 31.6502 1.28223 10.9132
1563 1 33.6917 2.67983 10.6984
1564 1 31.4807 3.86786 10.9103
1294 1 34.4281 3.75734 8.72361
1561 1 33.8484 38.0821 10.945
1291 1 32.2915 37.8635 8.91292
1322 1 39.2311 1.39186 8.53181
1323 1 36.7346 2.50137 8.31803
1592 1 35.8798 1.28175 10.6692
1593 1 37.8785 2.66052 10.7839
1324 1 38.9639 3.92775 8.83815
1594 1 35.8561 3.91465 11.0942
1321 1 36.7298 38.1125 8.65874
1266 1 29.9435 6.12058 8.65656
1267 1 28.0697 7.65664 8.86275
1265 1 27.9056 4.951 8.7456
1536 1 27.2785 6.25344 11.1078
1537 1 29.4212 7.46142 11.0942
1535 1 29.4173 5.00607 10.9479
1295 1 32.3417 5.08061 8.89455
1296 1 34.412 6.32286 8.66759
1297 1 32.2447 7.45923 8.55029
1565 1 33.64 5.1015 10.8439
1566 1 31.6684 6.35688 10.8845
1567 1 33.8158 7.80533 10.608
1325 1 36.6188 5.14515 8.81806
1327 1 36.8037 7.68508 8.39943
1326 1 38.7335 6.21822 8.96794
1595 1 38.032 5.09657 10.8653
1596 1 35.9202 6.48833 10.8242
1597 1 38.2389 7.67868 11.0546
1269 1 28.2113 10.1771 8.56238
1538 1 27.2751 8.69061 10.98
1268 1 30.1671 8.83106 8.63938
1270 1 30.3902 11.2507 8.66972
1540 1 27.2942 11.3273 10.6458
1539 1 29.1876 9.93605 10.8887
1541 1 29.2455 12.5281 10.7047
1298 1 34.5085 8.89125 8.47164
1299 1 32.2895 10.0378 8.76657
1300 1 34.6609 11.2661 8.40985
1569 1 33.598 10.1271 10.9687
1570 1 31.4793 11.5099 10.8764
1719 1 31.5449 8.78506 10.8108
1571 1 33.711 12.6089 10.8668
1328 1 38.9367 8.76321 8.33165
1329 1 36.8094 10.1104 8.32119
1330 1 38.9239 11.5769 8.47663
1599 1 38.3353 10.2307 10.7667
1600 1 35.9207 11.3215 10.6099
1598 1 36.1213 8.96235 10.7601
1601 1 38.2015 12.6449 10.6787
1271 1 28.011 12.6082 8.47099
1273 1 27.9341 15.4027 8.61453
1274 1 30.0723 16.554 8.61898
1272 1 30.0413 13.9818 8.79315
1542 1 27.1716 14.0069 10.3189
1543 1 29.16 15.0345 11.0144
1544 1 27.2087 16.4636 10.9205
1301 1 32.4458 12.6113 8.56554
1303 1 32.2028 15.1881 8.41132
1302 1 34.4972 13.966 8.53686
1572 1 31.458 13.9293 10.7431
1576 1 33.5252 15.063 10.8153
1574 1 31.5264 16.565 10.748
1304 1 34.4783 16.3453 8.46916
1331 1 36.7678 12.8777 8.58507
1333 1 36.5388 15.1518 8.47906
1334 1 38.9309 16.5878 8.33696
1332 1 39.1545 14.0576 8.44644
1602 1 35.979 13.9315 10.5452
1603 1 38.1327 15.1576 10.7242
1604 1 35.7184 16.4269 10.8331
1277 1 27.7684 20.3795 8.45261
1275 1 27.8231 17.9125 8.51044
1276 1 30.0915 18.8929 8.56506
1545 1 29.27 17.5883 10.8296
1546 1 27.0301 18.8412 10.7395
1547 1 29.2914 20.0049 10.7615
1306 1 34.3699 18.7412 8.64033
1305 1 32.2137 17.8088 8.35888
1307 1 32.077 20.3305 8.36458
1578 1 33.8106 20.1591 10.5723
1606 1 33.7308 17.6846 10.8188
1724 1 31.4893 19.1347 10.6052
1335 1 36.5734 17.4486 8.34709
1337 1 36.514 20.1029 8.45952
1336 1 38.9146 19.1252 8.36936
1605 1 38.0075 17.5154 10.4365
1607 1 38.058 19.9787 10.5533
1892 1 35.918 18.844 10.7355
1278 1 29.965 21.4687 8.86548
1548 1 27.1059 21.5822 10.5637
1280 1 29.9869 24.0185 8.56886
1279 1 27.8864 22.7336 8.50712
1550 1 27.0879 24.1482 10.7032
1951 1 29.4922 22.7542 10.7775
1281 1 28.054 25.3082 8.64372
1579 1 31.8286 21.5617 10.9484
1310 1 34.4849 24.0611 8.47816
1308 1 34.4412 21.5924 8.64838
1309 1 32.2332 22.7189 8.64825
1580 1 31.6982 24.028 10.7721
1858 1 33.894 22.7375 10.7765
1311 1 32.3601 25.2132 8.70512
1608 1 35.9592 21.2552 10.7183
1340 1 38.7463 23.9255 8.58813
1338 1 38.8123 21.4491 8.66924
1339 1 36.6732 22.454 8.60209
1610 1 35.9243 24.1449 10.6114
1758 1 37.9285 22.8298 10.8968
1341 1 36.6406 25.3715 8.61529
1611 1 37.9983 25.2917 10.7191
1551 1 29.3134 25.3104 10.7367
1284 1 30.211 29.1598 8.4513
1282 1 30.2722 26.5486 8.46244
1283 1 28.079 27.9982 8.44052
1552 1 27.1421 26.6117 10.6915
1553 1 29.3599 27.7479 10.3994
1697 1 27.0818 29.0209 10.7777
1581 1 34.0185 25.3129 10.9452
1312 1 34.3298 26.6181 8.71606
1313 1 32.1948 27.7313 8.73288
1582 1 31.4836 26.5967 10.9862
1584 1 31.3725 29.0197 10.8931
1583 1 33.859 28.0512 10.7589
1314 1 34.2529 29.2776 8.65478
1342 1 38.638 26.5305 8.47949
1612 1 35.9249 26.6234 10.7935
1343 1 36.5596 27.9271 8.54018
1613 1 38.1529 27.7375 10.7969
1344 1 38.6655 29.0229 8.41715
1614 1 35.9618 29.0743 10.7641
1287 1 28.1021 32.9485 8.45485
1286 1 30.0882 31.6343 8.64474
1285 1 27.8487 30.3152 8.62482
1555 1 29.3763 30.5312 10.8224
1556 1 27.25 31.9921 10.8052
1557 1 29.4328 33.1444 10.7133
1317 1 32.3451 32.9949 8.59563
1315 1 32.1662 30.5382 8.76437
1316 1 34.4528 31.7061 8.8136
1585 1 33.6327 30.4896 10.6272
1586 1 31.4883 31.7753 10.8857
1587 1 33.9956 33.1377 10.7076
1346 1 38.8468 31.5305 8.75437
1347 1 36.5243 33.0197 8.6468
1345 1 36.5006 30.4173 8.67976
1615 1 38.1266 30.1778 10.8468
1616 1 36.1477 31.5249 10.8158
1617 1 38.201 32.8446 10.8061
1290 1 30.1306 36.6054 8.58823
1288 1 30.1768 34.2109 8.72446
1558 1 27.2716 34.3592 11.0723
1289 1 27.8486 35.4742 8.72119
1559 1 29.4127 35.4866 10.9127
1677 1 27.1708 37.0118 11.3288
1318 1 34.4603 34.2805 8.51106
1319 1 32.3097 35.5679 8.44098
1588 1 31.7491 34.1371 10.7639
1590 1 31.7126 36.6032 11.087
1589 1 33.9031 35.4868 10.5903
1320 1 34.3956 36.7465 8.55551
1591 1 38.1202 0.17361 10.9275
1618 1 36.0666 34.2347 10.8639
1349 1 36.6176 35.5198 8.60218
1348 1 38.8132 34.2079 8.66007
1620 1 36.091 36.6505 10.6678
1619 1 38.1123 35.4275 10.9363
1350 1 38.8648 37.051 8.96323
2039 1 28.0488 2.29566 15.5637
1683 1 28.5612 1.1868 13.0277
2077 1 30.1597 3.78663 15.1815
2003 1 30.086 1.01012 15.4021
1674 1 28.7793 3.66703 13.3072
2272 1 31.3513 28.9703 17.4722
1503 1 26.3385 2.63461 13.1441
1623 1 30.8005 2.2388 13.0594
1671 1 33.0558 1.33073 12.9056
2015 1 34.3739 1.19051 15.4153
2075 1 32.2746 2.41069 15.1108
2095 1 34.6102 3.70655 15.3597
1652 1 32.9551 3.5964 12.9895
1764 1 32.2319 38.0093 15.3849
1680 1 35.1382 0.155192 13.0391
1911 1 33.8215 27.9212 17.4308
1656 1 35.445 2.5169 13.1339
2091 1 36.7329 2.35144 15.7322
1641 1 37.2333 1.13767 13.1377
2058 1 39.0209 1.1944 15.2399
2049 1 38.7988 3.74641 15.2735
1633 1 37.4254 3.99699 12.9539
2152 1 31.5554 26.6899 17.264
823 1 39.6872 15.3888 6.35117
2070 1 28.0511 4.94638 15.2403
1739 1 30.1004 6.43702 15.4903
1741 1 28.7292 6.15174 13.2929
2102 1 28.0186 7.60981 15.1936
1689 1 30.9064 7.50373 13.1993
1626 1 31.0441 4.98878 13.0151
2046 1 32.4695 4.95331 15.003
1624 1 33.1291 6.27944 13.0003
1628 1 32.4338 7.48719 15.2139
2073 1 34.6347 6.38381 15.3855
2078 1 35.1148 5.01193 13.1533
1621 1 35.149 7.71206 12.9832
2157 1 36.8081 7.56881 15.3458
2088 1 36.7231 4.87078 15.0316
1701 1 37.0841 6.37307 12.9633
2264 1 38.7575 6.19567 15.446
2185 1 27.2016 28.9942 17.1488
1765 1 27.9055 10.2395 15.1165
2089 1 28.6343 11.4584 12.8563
1737 1 28.6935 8.81721 13.1778
2106 1 30.2439 11.3958 15.4767
2081 1 30.2475 8.8425 15.0883
2026 1 28.0563 12.5524 14.9937
2176 1 33.742 25.3767 17.7773
1568 1 30.8625 10.0811 12.9598
2113 1 34.7154 8.93157 15.101
2162 1 34.5653 11.4039 15.0938
1869 1 32.9246 8.76149 13.0649
2128 1 32.5066 10.2543 15.0982
1809 1 32.997 11.3061 12.9537
2109 1 32.3173 12.6151 15.2595
2137 1 29.2379 27.588 17.3671
1814 1 35.3116 10.2662 12.7927
2286 1 38.8282 8.88005 15.3957
2119 1 37.2699 8.88197 12.7955
2138 1 37.381 11.5023 13.0513
1838 1 36.7416 10.1691 15.1678
2133 1 39.106 11.5369 15.2271
2189 1 36.6983 12.5656 15.6255
2135 1 27.1752 26.4458 17.3159
1859 1 28.5066 13.8858 13.1643
1789 1 28.5709 16.3829 13.1726
2012 1 28.0942 15.0307 15.2782
2116 1 30.2018 13.8888 15.3008
2155 1 30.2347 16.4501 15.5251
2132 1 29.4478 22.8254 17.6845
1786 1 30.6262 12.6947 13.1112
1849 1 30.8766 15.3404 13.2263
1796 1 32.9023 13.8001 12.9633
1573 1 32.9223 16.5506 13.0808
2059 1 34.6426 16.6441 15.3258
1848 1 34.5409 13.7937 14.9702
2125 1 32.5574 15.2318 15.1929
1846 1 35.199 12.7971 13.0395
2056 1 34.895 15.379 12.9898
1797 1 38.8454 13.7714 15.1189
1889 1 36.6707 15.084 15.0107
1704 1 37.1429 16.3968 12.7493
2100 1 37.3259 13.8801 12.8837
2121 1 38.7178 16.1627 15.2358
2208 1 38.2322 22.687 17.5323
1975 1 27.9008 17.5646 15.1994
1977 1 27.8478 20.2385 15.137
1947 1 28.4846 19.0135 13.0531
2104 1 30.1162 18.9016 15.1229
1851 1 30.6648 20.311 12.9934
1957 1 30.6588 17.6664 12.7362
1790 1 26.2919 25.3893 12.8934
2117 1 32.7283 19.0995 12.8297
1575 1 32.1764 20.4166 15.0683
1886 1 34.472 19.2902 15.0015
2052 1 32.2255 17.6326 15.118
1681 1 35.2545 20.3544 12.9221
2045 1 35.0727 17.7448 12.9563
2022 1 38.9081 18.87 14.8094
2062 1 36.5913 17.7555 15.0461
1934 1 37.341 19.0605 12.8025
1945 1 36.7768 20.2753 15.104
2245 1 35.867 21.6727 17.3268
1720 1 28.7228 21.5501 13.0465
1910 1 29.912 21.5513 15.3147
2112 1 30.1372 23.9973 15.4129
1735 1 28.4804 24.0963 13.2333
2044 1 27.7103 22.747 15.2084
2069 1 27.7134 25.4487 15.0863
2156 1 36.0306 23.9718 17.3838
1549 1 30.7218 22.7982 13.1428
1577 1 34.605 21.6385 15.2119
2011 1 33.1262 21.5379 13.0612
1998 1 32.371 22.8769 15.3776
2107 1 33.0727 23.8881 12.8753
1942 1 34.4953 24.1058 15.1274
2074 1 32.3632 25.3317 15.3622
1609 1 35.1744 25.3553 13.1002
1857 1 35.3173 22.9001 13.2165
1850 1 37.3931 21.5008 13.025
1986 1 38.8891 21.4705 14.9744
2017 1 36.88 22.7467 15.2165
1840 1 38.8099 24.1136 15.0719
1875 1 37.396 24.153 13.1673
1938 1 26.4301 27.9346 13.0564
1554 1 27.9271 27.7714 15.115
2055 1 30.0203 26.614 15.1348
1862 1 28.5148 26.5088 12.8174
1997 1 30.3426 29.0309 15.1453
1798 1 28.7233 29.0281 13.0007
1713 1 30.5113 25.3306 12.8028
1827 1 30.814 27.8734 12.9146
2038 1 32.3879 27.8316 15.1196
1963 1 34.5386 26.5785 15.3202
1940 1 32.9665 26.5213 13.0879
1928 1 34.5757 29.2224 14.966
1919 1 33.0009 29.0929 13.1188
1843 1 35.1491 27.7973 13.0573
1972 1 36.6582 25.3618 15.1572
1870 1 39.0239 29.369 14.9185
1888 1 36.7799 27.9881 15.3838
1374 1 37.2738 26.5309 12.8577
1844 1 37.2981 29.1664 12.9345
1837 1 38.8066 26.6217 14.9839
2283 1 38.1009 25.1299 17.1713
2145 1 33.8344 22.8863 17.3558
1999 1 27.922 32.8123 15.0198
1944 1 30.2159 31.5019 15.3252
1950 1 27.9859 30.4657 14.9041
1722 1 28.6618 31.8476 12.8596
1695 1 26.3472 32.9712 12.9783
1833 1 30.9552 32.9582 13.0284
1845 1 31.0261 30.4674 12.8076
1948 1 32.4265 33.085 15.4676
1921 1 34.5579 31.7585 15.0523
1810 1 33.1687 31.5469 12.6744
2028 1 32.3774 30.4247 15.1039
2140 1 31.5616 24.1043 17.6731
1867 1 35.3155 30.4398 12.9337
1829 1 35.1333 33.0155 12.915
1863 1 38.7689 32.1065 15.1633
1905 1 36.6335 30.4887 15.2196
1752 1 37.4141 31.7335 13.0013
1943 1 36.4758 33.3325 15.1931
1807 1 26.4312 4.98017 13.0348
2033 1 28.1219 -0.338482 15.7871
1643 1 30.8327 -0.126796 12.9648
1979 1 30.1722 36.4439 15.3755
1808 1 28.8161 34.2005 13.1744
1907 1 27.9189 35.2293 15.6474
1962 1 30.118 33.8903 15.1057
1675 1 28.465 36.6612 13.4449
1983 1 30.7615 35.5087 12.9775
1820 1 33.064 34.2719 12.861
2018 1 32.2871 35.4848 15.1376
1941 1 34.4747 34.549 15.2408
1687 1 33.0327 36.8988 13.23
1992 1 34.5515 36.9783 15.1394
2164 1 31.591 21.6153 17.2385
2014 1 36.611 0.0396521 15.2591
1750 1 35.0899 35.7193 12.8172
1949 1 36.5913 35.7846 15.9518
1980 1 38.7995 36.954 15.0486
1782 1 37.4294 34.2237 12.9646
1684 1 37.4173 36.8049 13.2199
1989 1 38.9498 34.3358 14.9765
2199 1 27.5473 3.9098 17.313
2181 1 31.5453 3.923 17.2716
2178 1 27.1677 6.17647 17.5445
2179 1 29.5964 5.10273 17.3894
2240 1 29.2652 7.45704 17.6682
2234 1 31.5858 6.63781 17.5612
2180 1 29.2933 9.81429 17.1757
2248 1 27.1978 11.5881 17.1234
2229 1 27.0704 9.11288 17.438
2293 1 31.6701 8.95802 17.0714
2261 1 29.2789 12.8488 17.1021
2236 1 26.8927 14.0015 17.519
2242 1 27.163 16.4956 17.2882
2306 1 37.7382 14.8901 17.3178
2182 1 36.1907 16.6677 17.1545
2175 1 26.9927 18.8418 16.962
2141 1 29.3092 20.0168 17.3344
2278 1 31.4325 19.0051 17.1143
2130 1 33.7181 20.3401 17.3133
2163 1 33.7624 17.7526 17.242
2238 1 38.1085 17.7765 16.9321
2258 1 35.8981 19.1617 17.2933
2235 1 38.1235 20.432 17.0759
2192 1 29.387 25.2033 17.3215
2165 1 27.2325 21.7011 17.3533
2142 1 27.1357 24.0893 17.9065
995 1 26.5612 5.09323 6.63539
813 1 39.611 2.39773 6.09663
815 1 39.6928 5.04301 6.68409
835 1 39.499 30.4998 6.3599
1824 1 39.5091 17.6871 12.679
991 1 26.2541 -0.0391744 6.34313
1733 1 26.5567 7.78854 13.027
1019 1 26.403 35.5292 6.46407
1017 1 26.3177 33.1925 6.55069
1841 1 26.4788 30.422 12.8147
1005 1 26.3646 17.7469 6.35567
993 1 26.4887 2.39629 6.30036
1842 1 26.409 20.5858 12.6928
2311 1 4.3804112749199895 9.59883605945504 38
